{
  "name": "icons",
  "glyphs": [
    {
      "search": [
        "plus"
      ],
      "code": 43,
      "from": 43,
      "uid": "70370693ada58ef0a60fa0984fe8d52a",
      "css": "plus",
      "orig_css": "plus",
      "orig_code": 43,
      "src": "entypo"
    },
    {
      "search": [
        "minus"
      ],
      "code": 45,
      "from": 45,
      "uid": "1256e3054823e304d7e452a589cf8bb8",
      "css": "minus",
      "orig_css": "minus",
      "orig_code": 45,
      "src": "entypo"
    },
    {
      "search": [
        "arrow",
        "right"
      ],
      "code": 57,
      "uid": "ff9a85aa20950dcc0615a2707a2b3f8e",
      "css": "right-dir",
      "orig_css": "right-dir",
      "orig_code": 57,
      "src": "entypo",
      "from": 9656
    },
    {
      "search": [
        "arrow",
        "left"
      ],
      "code": 56,
      "uid": "9aeaf29161eb005a308bbd624d6e066a",
      "css": "left-dir",
      "orig_css": "left-dir",
      "orig_code": 56,
      "src": "entypo",
      "from": 9666
    },
    {
      "search": [
        "star"
      ],
      "code": 42,
      "uid": "25b34dea4784f72c710454f32ff8fa2b",
      "css": "star",
      "orig_css": "star",
      "orig_code": 42,
      "src": "entypo",
      "from": 9733
    },
    {
      "search": [
        "menu",
        "list"
      ],
      "code": 109,
      "uid": "2cfb3f2b46b34a1790aec0aa846297b6",
      "css": "menu",
      "orig_css": "menu",
      "orig_code": 109,
      "src": "entypo",
      "from": 9776
    },
    {
      "search": [
        "music",
        "note",
        "song"
      ],
      "code": 103,
      "uid": "fda731b5a4026685e1a9c7e64228e2b2",
      "css": "note-beamed",
      "orig_css": "note-beamed",
      "orig_code": 103,
      "src": "entypo",
      "from": 9835
    },
    {
      "search": [
        "image",
        "list",
        "thumbnails"
      ],
      "code": 49,
      "uid": "5e9f01871d44e56b45ecbfd00f4dbc3a",
      "css": "layout",
      "orig_css": "layout",
      "orig_code": 49,
      "src": "entypo",
      "from": 9871
    },
    {
      "search": [
        "pencil",
        "write",
        "reply",
        "edit"
      ],
      "code": 97,
      "uid": "c77fd2fd065b5fe16d6f2b41e190b266",
      "css": "pencil",
      "orig_css": "pencil",
      "orig_code": 97,
      "src": "entypo",
      "from": 9998
    },
    {
      "search": [
        "quote"
      ],
      "code": 113,
      "uid": "661bd5ba1dad15ad9acbfcd8b8af76f3",
      "file": "left_quote",
      "css": "quote-left",
      "orig_css": "quote-left",
      "orig_code": 113,
      "src": "iconic",
      "from": 10077
    },
    {
      "search": [
        "quote"
      ],
      "code": 99,
      "uid": "c3e5dafba1739ef33cc574c7484febf7",
      "css": "quote",
      "orig_css": "quote",
      "orig_code": 99,
      "src": "entypo",
      "from": 10078
    },
    {
      "search": [
        "reply"
      ],
      "code": 114,
      "uid": "b6fc2f656ef87275889422e19550680a",
      "css": "reply",
      "orig_css": "reply",
      "orig_code": 114,
      "src": "entypo",
      "from": 59154
    },
    {
      "search": [
        "comment",
        "reply",
        "write"
      ],
      "code": 111,
      "uid": "16890362e811b4cb8de36282b071fe30",
      "css": "comment",
      "orig_css": "comment",
      "orig_code": 111,
      "src": "entypo",
      "from": 59160
    },
    {
      "search": [
        "resize",
        "fullscreen"
      ],
      "code": 50,
      "uid": "3a3f65b92c9b2fcbb3a8dcd0d42ee806",
      "css": "resize-full",
      "orig_css": "resize-full",
      "orig_code": 50,
      "src": "entypo",
      "from": 59204
    },
    {
      "search": [
        "resize"
      ],
      "code": 51,
      "uid": "108c8ac13badc00ce66da014436e6eb1",
      "css": "resize-small",
      "orig_css": "resize-small",
      "orig_code": 51,
      "src": "entypo",
      "from": 59206
    },
    {
      "search": [
        "arrow",
        "left"
      ],
      "code": 52,
      "uid": "592717bd601645d61517d2a584d04127",
      "css": "left-open-mini",
      "orig_css": "left-open-mini",
      "orig_code": 52,
      "src": "entypo",
      "from": 59233
    },
    {
      "search": [
        "arrow",
        "right"
      ],
      "code": 53,
      "uid": "37f6cfbb4062ed0d01b351ec35c334ff",
      "css": "right-open-mini",
      "orig_css": "right-open-mini",
      "orig_code": 53,
      "src": "entypo",
      "from": 59234
    },
    {
      "search": [
        "arrow",
        "down"
      ],
      "code": 54,
      "uid": "289b5f92f23acf1059c93fbf401c1ad5",
      "css": "down-open-big",
      "orig_css": "down-open-big",
      "orig_code": 54,
      "src": "entypo",
      "from": 59236
    },
    {
      "search": [
        "arrow",
        "left"
      ],
      "code": 60,
      "uid": "884cfc3e6e2d456dd2a2ca0dbb9e6337",
      "css": "left-open-big",
      "orig_css": "left-open-big",
      "orig_code": 60,
      "src": "entypo",
      "from": 59237
    },
    {
      "search": [
        "arrow",
        "right"
      ],
      "code": 62,
      "uid": "004882ab2d5c418c5b2060e80596279b",
      "css": "right-open-big",
      "orig_css": "right-open-big",
      "orig_code": 62,
      "src": "entypo",
      "from": 59238
    },
    {
      "search": [
        "arrow",
        "up"
      ],
      "code": 55,
      "uid": "0805cca616b3c12714f35af4d0912c10",
      "css": "up-open-big",
      "orig_css": "up-open-big",
      "orig_code": 55,
      "src": "entypo",
      "from": 59239
    },
    {
      "search": [
        "twitter",
        "social",
        "logo"
      ],
      "code": 116,
      "uid": "d090355c31f497b61d676416c1fd39fb",
      "css": "twitter",
      "orig_css": "twitter",
      "orig_code": 116,
      "src": "entypo",
      "from": 62217
    },
    {
      "search": [
        "image",
        "picture",
        "photo"
      ],
      "code": 98,
      "uid": "3def559c3c39b8500882e02892b7daa8",
      "css": "picture",
      "orig_css": "picture",
      "orig_code": 98,
      "src": "entypo",
      "from": 127748
    },
    {
      "search": [
        "movie",
        "video",
        "film"
      ],
      "code": 100,
      "from": 127916,
      "uid": "872d9516df93eb6b776cc4d94bd97dac",
      "css": "video",
      "orig_css": "video",
      "orig_code": 100,
      "src": "fontawesome"
    },
    {
      "search": [
        "profile",
        "contact",
        "user"
      ],
      "code": 110,
      "uid": "bbd66ef66bb8fa9edde54d9a90b89150",
      "css": "user",
      "orig_css": "user",
      "orig_code": 110,
      "src": "entypo",
      "from": 128100
    },
    {
      "search": [
        "doc",
        "text",
        "article"
      ],
      "code": 102,
      "uid": "1189604bf305b6b03a74685ce60e6632",
      "css": "doc-text",
      "orig_css": "doc-text",
      "orig_code": 102,
      "src": "entypo",
      "from": 128196
    },
    {
      "search": [
        "camera",
        "photo"
      ],
      "code": 101,
      "uid": "85017ab6ca074831a8de771b40e9640c",
      "css": "camera",
      "orig_css": "camera",
      "orig_code": 101,
      "src": "entypo",
      "from": 128247
    },
    {
      "search": [
        "search",
        "find"
      ],
      "code": 115,
      "uid": "7222571caa5c15f83dcfd447c58d68d9",
      "css": "search",
      "orig_css": "search",
      "orig_code": 115,
      "src": "entypo",
      "from": 128269
    },
    {
      "search": [
        "link",
        "url"
      ],
      "code": 104,
      "uid": "815503841e980c848f55e0271deacead",
      "css": "link",
      "orig_css": "link",
      "orig_code": 104,
      "src": "entypo",
      "from": 128279
    }
  ]
}