a:2:{s:10:"upload_dir";a:6:{s:4:"path";s:69:"/var/www/createit.pl/themewoodmen/wp/nonus/wp-content/uploads/2013/10";s:3:"url";s:56:"http://nonus.themewoodmen.com/wp-content/uploads/2013/10";s:6:"subdir";s:8:"/2013/10";s:7:"basedir";s:61:"/var/www/createit.pl/themewoodmen/wp/nonus/wp-content/uploads";s:7:"baseurl";s:48:"http://nonus.themewoodmen.com/wp-content/uploads";s:5:"error";b:0;}s:7:"options";a:22:{s:19:"permalink_structure";s:12:"/%postname%/";s:15:"widget_archives";s:94:"a:2:{i:2;a:3:{s:5:"title";s:0:"";s:5:"count";i:0;s:8:"dropdown";i:0;}s:12:"_multiwidget";i:1;}";s:15:"widget_calendar";s:67:"a:2:{i:2;a:1:{s:5:"title";s:8:"Calendar";}s:12:"_multiwidget";i:1;}";s:17:"widget_categories";s:118:"a:2:{i:2;a:4:{s:5:"title";s:0:"";s:5:"count";i:0;s:12:"hierarchical";i:0;s:8:"dropdown";i:0;}s:12:"_multiwidget";i:1;}";s:14:"widget_contact";s:4:"b:0;";s:45:"widget_ct_jquery_3level_accordion_menu_widget";s:297:"a:2:{i:2;a:10:{s:5:"title";s:16:"3Level Accordion";s:8:"nav_menu";i:3;s:5:"speed";s:6:"normal";s:6:"easing";s:6:"linear";s:5:"event";s:5:"click";s:13:"oneOpenAtTime";s:1:"1";s:4:"skin";s:7:"default";s:6:"search";s:0:"";s:10:"searchText";s:11:"Search here";s:4:"ajax";b:0;}s:12:"_multiwidget";i:1;}";s:31:"widget_ct_source_preview_widget";s:40:"a:2:{i:2;a:0:{}s:12:"_multiwidget";i:1;}";s:13:"widget_flickr";s:519:"a:3:{i:2;a:2:{s:5:"child";a:8:{s:6:"header";s:15:"OUR FLICKR FEED";s:4:"user";s:0:"";s:5:"group";s:0:"";s:3:"set";s:17:"72157612872346179";s:3:"num";s:1:"6";s:5:"order";s:6:"random";s:4:"size";s:1:"s";s:10:"widgetmode";s:4:"true";}s:6:"parent";a:0:{}}i:3;a:2:{s:5:"child";a:8:{s:6:"header";s:12:"PHOTO STREAM";s:4:"user";s:0:"";s:5:"group";s:0:"";s:3:"set";s:17:"72157612872346179";s:3:"num";s:1:"6";s:5:"order";s:6:"latest";s:4:"size";s:1:"s";s:10:"widgetmode";s:4:"true";}s:6:"parent";a:0:{}}s:12:"_multiwidget";i:1;}";s:11:"widget_meta";s:59:"a:2:{i:2;a:1:{s:5:"title";s:0:"";}s:12:"_multiwidget";i:1;}";s:17:"widget_newsletter";s:465:"a:2:{i:2;a:2:{s:5:"child";a:9:{s:6:"header";s:14:"OUR NEWSLETTER";s:11:"placeholder";s:10:"Your email";s:4:"info";s:74:"Maecenas mattis. Sed conv tristique sem. Proin ut ligula vel nunc egesta..";s:10:"buttontext";s:6:"Submit";s:7:"success";s:10:"Thank You!";s:4:"fail";s:35:"An error occured. Please try again.";s:6:"mailto";s:18:"office@createit.pl";s:7:"subject";s:16:"Nonus newsletter";s:10:"widgetmode";s:4:"true";}s:6:"parent";a:0:{}}s:12:"_multiwidget";i:1;}";s:12:"widget_pages";s:125:"a:2:{i:2;a:3:{s:5:"title";s:13:"Popular pages";s:6:"sortby";s:10:"post_title";s:7:"exclude";s:0:"";}s:12:"_multiwidget";i:1;}";s:22:"widget_recent-comments";s:76:"a:2:{i:2;a:2:{s:5:"title";s:0:"";s:6:"number";i:5;}s:12:"_multiwidget";i:1;}";s:19:"widget_recent-posts";s:76:"a:2:{i:2;a:2:{s:5:"title";s:0:"";s:6:"number";i:5;}s:12:"_multiwidget";i:1;}";s:19:"widget_recent_posts";s:359:"a:2:{i:2;a:2:{s:5:"child";a:13:{s:6:"header";s:12:"LATEST POSTS";s:5:"limit";s:1:"3";s:5:"order";s:4:"desc";s:7:"orderby";s:4:"date";s:2:"id";s:0:"";s:6:"notids";s:0:"";s:4:"slug";s:0:"";s:11:"post_parent";s:0:"";s:3:"cat";s:0:"";s:8:"cat_name";s:0:"";s:3:"tag";s:0:"";s:1:"s";s:0:"";s:10:"widgetmode";s:4:"true";}s:6:"parent";a:0:{}}s:12:"_multiwidget";i:1;}";s:10:"widget_rss";s:6:"a:0:{}";s:13:"widget_search";s:59:"a:2:{i:2;a:1:{s:5:"title";s:0:"";}s:12:"_multiwidget";i:1;}";s:14:"widget_socials";s:4:"b:0;";s:16:"widget_tag_cloud";s:30:"a:1:{s:12:"_multiwidget";i:1;}";s:11:"widget_text";s:464:"a:2:{i:3;a:4:{s:5:"title";s:0:"";s:4:"text";s:331:" <h4>About nonus</h4>
                    <p>Lorem ipsum dolor nonus amet, consectetur ex adipisicing elit, sed do eiusmod incididunt ut labore et
                        dolore magna aliqua. Ut enim ad ex minim veniam, quis nostrud lorem exercitation ullamco laboris
                        nisi ut aliquip nesciunt aliqua.</p>";s:6:"filter";b:0;s:25:"syntaxhighlighter_encoded";b:1;}s:12:"_multiwidget";i:1;}";s:14:"widget_twitter";s:376:"a:2:{i:2;a:2:{s:5:"child";a:11:{s:6:"header";s:13:"Recent Tweets";s:4:"user";s:11:"WayneRooney";s:5:"limit";s:1:"1";s:6:"button";s:9:"follow us";s:8:"parseurl";s:5:"short";s:10:"parsemedia";s:5:"short";s:7:"parseid";s:3:"yes";s:12:"parsehashtag";s:3:"yes";s:3:"img";s:2:"no";s:7:"imgsize";s:5:"thumb";s:10:"widgetmode";s:4:"true";}s:6:"parent";a:0:{}}s:12:"_multiwidget";i:1;}";s:16:"sidebars_widgets";s:529:"a:7:{s:19:"wp_inactive_widgets";a:3:{i:0;s:8:"flickr-2";i:1;s:7:"pages-2";i:2;s:26:"ct_source_preview_widget-2";}s:15:"sidebar-primary";a:7:{i:0;s:8:"search-2";i:1;s:14:"recent-posts-2";i:2;s:17:"recent-comments-2";i:3;s:10:"archives-2";i:4;s:12:"categories-2";i:5;s:6:"meta-2";i:6;s:10:"calendar-2";}s:15:"sidebar-footer1";a:1:{i:0;s:6:"text-3";}s:15:"sidebar-footer2";a:1:{i:0;s:14:"recent_posts-2";}s:15:"sidebar-footer3";a:1:{i:0;s:8:"flickr-3";}s:15:"sidebar-footer4";a:1:{i:0;s:12:"newsletter-2";}s:13:"array_version";i:3;}";s:22:"theme_mods_nonus/theme";s:565:"a:5:{i:0;b:0;s:18:"nav_menu_locations";a:2:{s:18:"primary_navigation";i:3;s:11:"breadcrumbs";i:13;}s:16:"background_color";s:0:"";s:12:"header_image";s:87:"http://nonus.themewoodmen.com/wp-content/uploads/2013/09/cropped-background-image-3.jpg";s:17:"header_image_data";a:5:{s:13:"attachment_id";i:1301;s:3:"url";s:87:"http://nonus.themewoodmen.com/wp-content/uploads/2013/09/cropped-background-image-3.jpg";s:13:"thumbnail_url";s:87:"http://nonus.themewoodmen.com/wp-content/uploads/2013/09/cropped-background-image-3.jpg";s:5:"width";i:1600;s:6:"height";i:1000;}}";}}