{
    "ABeeZee": {
        "weights": ["normal"],
        "styles": ["normal", "italic"]
    },
    "Abel": {
        "weights": ["normal"],
        "styles": ["normal"]
    },
    "Abril Fatface": {
        "weights": ["normal"],
        "styles": ["normal"]
    },
    "Aclonica": {
        "weights": ["normal"],
        "styles": ["normal"]
    },
    "Acme": {
        "weights": ["normal"],
        "styles": ["normal"]
    },
    "Actor": {
        "weights": ["normal"],
        "styles": ["normal"]
    },
    "Adamina": {
        "weights": ["normal"],
        "styles": ["normal"]
    },
    "Advent Pro": {
        "weights": ["normal", "100", "200", "300", "500", "600", "700"],
        "styles": ["normal"]
    },
    "Aguafina Script": {
        "weights": ["normal"],
        "styles": ["normal"]
    },
    "Akronim": {
        "weights": ["normal"],
        "styles": ["normal"]
    },
    "Aladin": {
        "weights": ["normal"],
        "styles": ["normal"]
    },
    "Aldrich": {
        "weights": ["normal"],
        "styles": ["normal"]
    },
    "Alef": {
        "weights": ["normal", "700"],
        "styles": ["normal"]
    },
    "Alegreya": {
        "weights": ["normal", "700", "900"],
        "styles": ["normal", "italic"]
    },
    "Alegreya SC": {
        "weights": ["normal", "700", "900"],
        "styles": ["normal", "italic"]
    },
    "Alex Brush": {
        "weights": ["normal"],
        "styles": ["normal"]
    },
    "Alfa Slab One": {
        "weights": ["normal"],
        "styles": ["normal"]
    },
    "Alice": {
        "weights": ["normal"],
        "styles": ["normal"]
    },
    "Alike": {
        "weights": ["normal"],
        "styles": ["normal"]
    },
    "Alike Angular": {
        "weights": ["normal"],
        "styles": ["normal"]
    },
    "Allan": {
        "weights": ["normal", "700"],
        "styles": ["normal"]
    },
    "Allerta": {
        "weights": ["normal"],
        "styles": ["normal"]
    },
    "Allerta Stencil": {
        "weights": ["normal"],
        "styles": ["normal"]
    },
    "Allura": {
        "weights": ["normal"],
        "styles": ["normal"]
    },
    "Almendra": {
        "weights": ["normal", "700"],
        "styles": ["normal", "italic"]
    },
    "Almendra Display": {
        "weights": ["normal"],
        "styles": ["normal"]
    },
    "Almendra SC": {
        "weights": ["normal"],
        "styles": ["normal"]
    },
    "Amarante": {
        "weights": ["normal"],
        "styles": ["normal"]
    },
    "Amaranth": {
        "weights": ["normal", "700"],
        "styles": ["normal", "italic"]
    },
    "Amatic SC": {
        "weights": ["normal", "700"],
        "styles": ["normal"]
    },
    "Amethysta": {
        "weights": ["normal"],
        "styles": ["normal"]
    },
    "Anaheim": {
        "weights": ["normal"],
        "styles": ["normal"]
    },
    "Andada": {
        "weights": ["normal"],
        "styles": ["normal"]
    },
    "Andika": {
        "weights": ["normal"],
        "styles": ["normal"]
    },
    "Angkor": {
        "weights": ["normal"],
        "styles": ["normal"]
    },
    "Annie Use Your Telescope": {
        "weights": ["normal"],
        "styles": ["normal"]
    },
    "Anonymous Pro": {
        "weights": ["normal", "700"],
        "styles": ["normal", "italic"]
    },
    "Antic": {
        "weights": ["normal"],
        "styles": ["normal"]
    },
    "Antic Didone": {
        "weights": ["normal"],
        "styles": ["normal"]
    },
    "Antic Slab": {
        "weights": ["normal"],
        "styles": ["normal"]
    },
    "Anton": {
        "weights": ["normal"],
        "styles": ["normal"]
    },
    "Arapey": {
        "weights": ["normal"],
        "styles": ["normal", "italic"]
    },
    "Arbutus": {
        "weights": ["normal"],
        "styles": ["normal"]
    },
    "Arbutus Slab": {
        "weights": ["normal"],
        "styles": ["normal"]
    },
    "Architects Daughter": {
        "weights": ["normal"],
        "styles": ["normal"]
    },
    "Archivo Black": {
        "weights": ["normal"],
        "styles": ["normal"]
    },
    "Archivo Narrow": {
        "weights": ["normal", "700"],
        "styles": ["normal", "italic"]
    },
    "Arimo": {
        "weights": ["normal", "700"],
        "styles": ["normal", "italic"]
    },
    "Arizonia": {
        "weights": ["normal"],
        "styles": ["normal"]
    },
    "Armata": {
        "weights": ["normal"],
        "styles": ["normal"]
    },
    "Artifika": {
        "weights": ["normal"],
        "styles": ["normal"]
    },
    "Arvo": {
        "weights": ["normal", "700"],
        "styles": ["normal", "italic"]
    },
    "Asap": {
        "weights": ["normal", "700"],
        "styles": ["normal", "italic"]
    },
    "Asset": {
        "weights": ["normal"],
        "styles": ["normal"]
    },
    "Astloch": {
        "weights": ["normal", "700"],
        "styles": ["normal"]
    },
    "Asul": {
        "weights": ["normal", "700"],
        "styles": ["normal"]
    },
    "Atomic Age": {
        "weights": ["normal"],
        "styles": ["normal"]
    },
    "Aubrey": {
        "weights": ["normal"],
        "styles": ["normal"]
    },
    "Audiowide": {
        "weights": ["normal"],
        "styles": ["normal"]
    },
    "Autour One": {
        "weights": ["normal"],
        "styles": ["normal"]
    },
    "Average": {
        "weights": ["normal"],
        "styles": ["normal"]
    },
    "Average Sans": {
        "weights": ["normal"],
        "styles": ["normal"]
    },
    "Averia Gruesa Libre": {
        "weights": ["normal"],
        "styles": ["normal"]
    },
    "Averia Libre": {
        "weights": ["normal", "300", "700"],
        "styles": ["normal", "italic"]
    },
    "Averia Sans Libre": {
        "weights": ["normal", "300", "700"],
        "styles": ["normal", "italic"]
    },
    "Averia Serif Libre": {
        "weights": ["normal", "300", "700"],
        "styles": ["normal", "italic"]
    },
    "Bad Script": {
        "weights": ["normal"],
        "styles": ["normal"]
    },
    "Balthazar": {
        "weights": ["normal"],
        "styles": ["normal"]
    },
    "Bangers": {
        "weights": ["normal"],
        "styles": ["normal"]
    },
    "Basic": {
        "weights": ["normal"],
        "styles": ["normal"]
    },
    "Battambang": {
        "weights": ["normal", "700"],
        "styles": ["normal"]
    },
    "Baumans": {
        "weights": ["normal"],
        "styles": ["normal"]
    },
    "Bayon": {
        "weights": ["normal"],
        "styles": ["normal"]
    },
    "Belgrano": {
        "weights": ["normal"],
        "styles": ["normal"]
    },
    "Belleza": {
        "weights": ["normal"],
        "styles": ["normal"]
    },
    "BenchNine": {
        "weights": ["normal", "300", "700"],
        "styles": ["normal"]
    },
    "Bentham": {
        "weights": ["normal"],
        "styles": ["normal"]
    },
    "Berkshire Swash": {
        "weights": ["normal"],
        "styles": ["normal"]
    },
    "Bevan": {
        "weights": ["normal"],
        "styles": ["normal"]
    },
    "Bigelow Rules": {
        "weights": ["normal"],
        "styles": ["normal"]
    },
    "Bigshot One": {
        "weights": ["normal"],
        "styles": ["normal"]
    },
    "Bilbo": {
        "weights": ["normal"],
        "styles": ["normal"]
    },
    "Bilbo Swash Caps": {
        "weights": ["normal"],
        "styles": ["normal"]
    },
    "Bitter": {
        "weights": ["normal", "700"],
        "styles": ["normal", "italic"]
    },
    "Black Ops One": {
        "weights": ["normal"],
        "styles": ["normal"]
    },
    "Bokor": {
        "weights": ["normal"],
        "styles": ["normal"]
    },
    "Bonbon": {
        "weights": ["normal"],
        "styles": ["normal"]
    },
    "Boogaloo": {
        "weights": ["normal"],
        "styles": ["normal"]
    },
    "Bowlby One": {
        "weights": ["normal"],
        "styles": ["normal"]
    },
    "Bowlby One SC": {
        "weights": ["normal"],
        "styles": ["normal"]
    },
    "Brawler": {
        "weights": ["normal"],
        "styles": ["normal"]
    },
    "Bree Serif": {
        "weights": ["normal"],
        "styles": ["normal"]
    },
    "Bubblegum Sans": {
        "weights": ["normal"],
        "styles": ["normal"]
    },
    "Bubbler One": {
        "weights": ["normal"],
        "styles": ["normal"]
    },
    "Buda": {
        "weights": ["normal", "300"],
        "styles": ["normal"]
    },
    "Buenard": {
        "weights": ["normal", "700"],
        "styles": ["normal"]
    },
    "Butcherman": {
        "weights": ["normal"],
        "styles": ["normal"]
    },
    "Butterfly Kids": {
        "weights": ["normal"],
        "styles": ["normal"]
    },
    "Cabin": {
        "weights": ["normal", "500", "600", "700"],
        "styles": ["normal", "italic"]
    },
    "Cabin Condensed": {
        "weights": ["normal", "500", "600", "700"],
        "styles": ["normal"]
    },
    "Cabin Sketch": {
        "weights": ["normal", "700"],
        "styles": ["normal"]
    },
    "Caesar Dressing": {
        "weights": ["normal"],
        "styles": ["normal"]
    },
    "Cagliostro": {
        "weights": ["normal"],
        "styles": ["normal"]
    },
    "Calligraffitti": {
        "weights": ["normal"],
        "styles": ["normal"]
    },
    "Cambo": {
        "weights": ["normal"],
        "styles": ["normal"]
    },
    "Candal": {
        "weights": ["normal"],
        "styles": ["normal"]
    },
    "Cantarell": {
        "weights": ["normal", "700"],
        "styles": ["normal", "italic"]
    },
    "Cantata One": {
        "weights": ["normal"],
        "styles": ["normal"]
    },
    "Cantora One": {
        "weights": ["normal"],
        "styles": ["normal"]
    },
    "Capriola": {
        "weights": ["normal"],
        "styles": ["normal"]
    },
    "Cardo": {
        "weights": ["normal", "700"],
        "styles": ["normal", "italic"]
    },
    "Carme": {
        "weights": ["normal"],
        "styles": ["normal"]
    },
    "Carrois Gothic": {
        "weights": ["normal"],
        "styles": ["normal"]
    },
    "Carrois Gothic SC": {
        "weights": ["normal"],
        "styles": ["normal"]
    },
    "Carter One": {
        "weights": ["normal"],
        "styles": ["normal"]
    },
    "Caudex": {
        "weights": ["normal", "700"],
        "styles": ["normal", "italic"]
    },
    "Cedarville Cursive": {
        "weights": ["normal"],
        "styles": ["normal"]
    },
    "Ceviche One": {
        "weights": ["normal"],
        "styles": ["normal"]
    },
    "Changa One": {
        "weights": ["normal"],
        "styles": ["normal", "italic"]
    },
    "Chango": {
        "weights": ["normal"],
        "styles": ["normal"]
    },
    "Chau Philomene One": {
        "weights": ["normal"],
        "styles": ["normal", "italic"]
    },
    "Chela One": {
        "weights": ["normal"],
        "styles": ["normal"]
    },
    "Chelsea Market": {
        "weights": ["normal"],
        "styles": ["normal"]
    },
    "Chenla": {
        "weights": ["normal"],
        "styles": ["normal"]
    },
    "Cherry Cream Soda": {
        "weights": ["normal"],
        "styles": ["normal"]
    },
    "Cherry Swash": {
        "weights": ["normal", "700"],
        "styles": ["normal"]
    },
    "Chewy": {
        "weights": ["normal"],
        "styles": ["normal"]
    },
    "Chicle": {
        "weights": ["normal"],
        "styles": ["normal"]
    },
    "Chivo": {
        "weights": ["normal", "900"],
        "styles": ["normal", "italic"]
    },
    "Cinzel": {
        "weights": ["normal", "700", "900"],
        "styles": ["normal"]
    },
    "Cinzel Decorative": {
        "weights": ["normal", "700", "900"],
        "styles": ["normal"]
    },
    "Clicker Script": {
        "weights": ["normal"],
        "styles": ["normal"]
    },
    "Coda": {
        "weights": ["normal", "800"],
        "styles": ["normal"]
    },
    "Coda Caption": {
        "weights": ["normal", "800"],
        "styles": ["normal"]
    },
    "Codystar": {
        "weights": ["normal", "300"],
        "styles": ["normal"]
    },
    "Combo": {
        "weights": ["normal"],
        "styles": ["normal"]
    },
    "Comfortaa": {
        "weights": ["normal", "300", "700"],
        "styles": ["normal"]
    },
    "Coming Soon": {
        "weights": ["normal"],
        "styles": ["normal"]
    },
    "Concert One": {
        "weights": ["normal"],
        "styles": ["normal"]
    },
    "Condiment": {
        "weights": ["normal"],
        "styles": ["normal"]
    },
    "Content": {
        "weights": ["normal", "700"],
        "styles": ["normal"]
    },
    "Contrail One": {
        "weights": ["normal"],
        "styles": ["normal"]
    },
    "Convergence": {
        "weights": ["normal"],
        "styles": ["normal"]
    },
    "Cookie": {
        "weights": ["normal"],
        "styles": ["normal"]
    },
    "Copse": {
        "weights": ["normal"],
        "styles": ["normal"]
    },
    "Corben": {
        "weights": ["normal", "700"],
        "styles": ["normal"]
    },
    "Courgette": {
        "weights": ["normal"],
        "styles": ["normal"]
    },
    "Cousine": {
        "weights": ["normal", "700"],
        "styles": ["normal", "italic"]
    },
    "Coustard": {
        "weights": ["normal", "900"],
        "styles": ["normal"]
    },
    "Covered By Your Grace": {
        "weights": ["normal"],
        "styles": ["normal"]
    },
    "Crafty Girls": {
        "weights": ["normal"],
        "styles": ["normal"]
    },
    "Creepster": {
        "weights": ["normal"],
        "styles": ["normal"]
    },
    "Crete Round": {
        "weights": ["normal"],
        "styles": ["normal", "italic"]
    },
    "Crimson Text": {
        "weights": ["normal", "600", "700"],
        "styles": ["normal", "italic"]
    },
    "Croissant One": {
        "weights": ["normal"],
        "styles": ["normal"]
    },
    "Crushed": {
        "weights": ["normal"],
        "styles": ["normal"]
    },
    "Cuprum": {
        "weights": ["normal", "700"],
        "styles": ["normal", "italic"]
    },
    "Cutive": {
        "weights": ["normal"],
        "styles": ["normal"]
    },
    "Cutive Mono": {
        "weights": ["normal"],
        "styles": ["normal"]
    },
    "Damion": {
        "weights": ["normal"],
        "styles": ["normal"]
    },
    "Dancing Script": {
        "weights": ["normal", "700"],
        "styles": ["normal"]
    },
    "Dangrek": {
        "weights": ["normal"],
        "styles": ["normal"]
    },
    "Dawning of a New Day": {
        "weights": ["normal"],
        "styles": ["normal"]
    },
    "Days One": {
        "weights": ["normal"],
        "styles": ["normal"]
    },
    "Delius": {
        "weights": ["normal"],
        "styles": ["normal"]
    },
    "Delius Swash Caps": {
        "weights": ["normal"],
        "styles": ["normal"]
    },
    "Delius Unicase": {
        "weights": ["normal", "700"],
        "styles": ["normal"]
    },
    "Della Respira": {
        "weights": ["normal"],
        "styles": ["normal"]
    },
    "Denk One": {
        "weights": ["normal"],
        "styles": ["normal"]
    },
    "Devonshire": {
        "weights": ["normal"],
        "styles": ["normal"]
    },
    "Didact Gothic": {
        "weights": ["normal"],
        "styles": ["normal"]
    },
    "Diplomata": {
        "weights": ["normal"],
        "styles": ["normal"]
    },
    "Diplomata SC": {
        "weights": ["normal"],
        "styles": ["normal"]
    },
    "Domine": {
        "weights": ["normal", "700"],
        "styles": ["normal"]
    },
    "Donegal One": {
        "weights": ["normal"],
        "styles": ["normal"]
    },
    "Doppio One": {
        "weights": ["normal"],
        "styles": ["normal"]
    },
    "Dorsa": {
        "weights": ["normal"],
        "styles": ["normal"]
    },
    "Dosis": {
        "weights": ["normal", "200", "300", "500", "600", "700", "800"],
        "styles": ["normal"]
    },
    "Dr Sugiyama": {
        "weights": ["normal"],
        "styles": ["normal"]
    },
    "Droid Sans": {
        "weights": ["normal", "700"],
        "styles": ["normal"]
    },
    "Droid Sans Mono": {
        "weights": ["normal"],
        "styles": ["normal"]
    },
    "Droid Serif": {
        "weights": ["normal", "700"],
        "styles": ["normal", "italic"]
    },
    "Duru Sans": {
        "weights": ["normal"],
        "styles": ["normal"]
    },
    "Dynalight": {
        "weights": ["normal"],
        "styles": ["normal"]
    },
    "EB Garamond": {
        "weights": ["normal"],
        "styles": ["normal"]
    },
    "Eagle Lake": {
        "weights": ["normal"],
        "styles": ["normal"]
    },
    "Eater": {
        "weights": ["normal"],
        "styles": ["normal"]
    },
    "Economica": {
        "weights": ["normal", "700"],
        "styles": ["normal", "italic"]
    },
    "Electrolize": {
        "weights": ["normal"],
        "styles": ["normal"]
    },
    "Elsie": {
        "weights": ["normal", "900"],
        "styles": ["normal"]
    },
    "Elsie Swash Caps": {
        "weights": ["normal", "900"],
        "styles": ["normal"]
    },
    "Emblema One": {
        "weights": ["normal"],
        "styles": ["normal"]
    },
    "Emilys Candy": {
        "weights": ["normal"],
        "styles": ["normal"]
    },
    "Engagement": {
        "weights": ["normal"],
        "styles": ["normal"]
    },
    "Englebert": {
        "weights": ["normal"],
        "styles": ["normal"]
    },
    "Enriqueta": {
        "weights": ["normal", "700"],
        "styles": ["normal"]
    },
    "Erica One": {
        "weights": ["normal"],
        "styles": ["normal"]
    },
    "Esteban": {
        "weights": ["normal"],
        "styles": ["normal"]
    },
    "Euphoria Script": {
        "weights": ["normal"],
        "styles": ["normal"]
    },
    "Ewert": {
        "weights": ["normal"],
        "styles": ["normal"]
    },
    "Exo": {
        "weights": ["normal", "100", "200", "300", "500", "600", "700", "800", "900"],
        "styles": ["normal", "italic"]
    },
    "Expletus Sans": {
        "weights": ["normal", "500", "600", "700"],
        "styles": ["normal", "italic"]
    },
    "Fanwood Text": {
        "weights": ["normal"],
        "styles": ["normal", "italic"]
    },
    "Fascinate": {
        "weights": ["normal"],
        "styles": ["normal"]
    },
    "Fascinate Inline": {
        "weights": ["normal"],
        "styles": ["normal"]
    },
    "Faster One": {
        "weights": ["normal"],
        "styles": ["normal"]
    },
    "Fasthand": {
        "weights": ["normal"],
        "styles": ["normal"]
    },
    "Fauna One": {
        "weights": ["normal"],
        "styles": ["normal"]
    },
    "Federant": {
        "weights": ["normal"],
        "styles": ["normal"]
    },
    "Federo": {
        "weights": ["normal"],
        "styles": ["normal"]
    },
    "Felipa": {
        "weights": ["normal"],
        "styles": ["normal"]
    },
    "Fenix": {
        "weights": ["normal"],
        "styles": ["normal"]
    },
    "Finger Paint": {
        "weights": ["normal"],
        "styles": ["normal"]
    },
    "Fjalla One": {
        "weights": ["normal"],
        "styles": ["normal"]
    },
    "Fjord One": {
        "weights": ["normal"],
        "styles": ["normal"]
    },
    "Flamenco": {
        "weights": ["normal", "300"],
        "styles": ["normal"]
    },
    "Flavors": {
        "weights": ["normal"],
        "styles": ["normal"]
    },
    "Fondamento": {
        "weights": ["normal"],
        "styles": ["normal", "italic"]
    },
    "Fontdiner Swanky": {
        "weights": ["normal"],
        "styles": ["normal"]
    },
    "Forum": {
        "weights": ["normal"],
        "styles": ["normal"]
    },
    "Francois One": {
        "weights": ["normal"],
        "styles": ["normal"]
    },
    "Freckle Face": {
        "weights": ["normal"],
        "styles": ["normal"]
    },
    "Fredericka the Great": {
        "weights": ["normal"],
        "styles": ["normal"]
    },
    "Fredoka One": {
        "weights": ["normal"],
        "styles": ["normal"]
    },
    "Freehand": {
        "weights": ["normal"],
        "styles": ["normal"]
    },
    "Fresca": {
        "weights": ["normal"],
        "styles": ["normal"]
    },
    "Frijole": {
        "weights": ["normal"],
        "styles": ["normal"]
    },
    "Fruktur": {
        "weights": ["normal"],
        "styles": ["normal"]
    },
    "Fugaz One": {
        "weights": ["normal"],
        "styles": ["normal"]
    },
    "GFS Didot": {
        "weights": ["normal"],
        "styles": ["normal"]
    },
    "GFS Neohellenic": {
        "weights": ["normal", "700"],
        "styles": ["normal", "italic"]
    },
    "Gabriela": {
        "weights": ["normal"],
        "styles": ["normal"]
    },
    "Gafata": {
        "weights": ["normal"],
        "styles": ["normal"]
    },
    "Galdeano": {
        "weights": ["normal"],
        "styles": ["normal"]
    },
    "Galindo": {
        "weights": ["normal"],
        "styles": ["normal"]
    },
    "Gentium Basic": {
        "weights": ["normal", "700"],
        "styles": ["normal", "italic"]
    },
    "Gentium Book Basic": {
        "weights": ["normal", "700"],
        "styles": ["normal", "italic"]
    },
    "Geo": {
        "weights": ["normal"],
        "styles": ["normal", "italic"]
    },
    "Geostar": {
        "weights": ["normal"],
        "styles": ["normal"]
    },
    "Geostar Fill": {
        "weights": ["normal"],
        "styles": ["normal"]
    },
    "Germania One": {
        "weights": ["normal"],
        "styles": ["normal"]
    },
    "Gilda Display": {
        "weights": ["normal"],
        "styles": ["normal"]
    },
    "Give You Glory": {
        "weights": ["normal"],
        "styles": ["normal"]
    },
    "Glass Antiqua": {
        "weights": ["normal"],
        "styles": ["normal"]
    },
    "Glegoo": {
        "weights": ["normal"],
        "styles": ["normal"]
    },
    "Gloria Hallelujah": {
        "weights": ["normal"],
        "styles": ["normal"]
    },
    "Goblin One": {
        "weights": ["normal"],
        "styles": ["normal"]
    },
    "Gochi Hand": {
        "weights": ["normal"],
        "styles": ["normal"]
    },
    "Gorditas": {
        "weights": ["normal", "700"],
        "styles": ["normal"]
    },
    "Goudy Bookletter 1911": {
        "weights": ["normal"],
        "styles": ["normal"]
    },
    "Graduate": {
        "weights": ["normal"],
        "styles": ["normal"]
    },
    "Grand Hotel": {
        "weights": ["normal"],
        "styles": ["normal"]
    },
    "Gravitas One": {
        "weights": ["normal"],
        "styles": ["normal"]
    },
    "Great Vibes": {
        "weights": ["normal"],
        "styles": ["normal"]
    },
    "Griffy": {
        "weights": ["normal"],
        "styles": ["normal"]
    },
    "Gruppo": {
        "weights": ["normal"],
        "styles": ["normal"]
    },
    "Gudea": {
        "weights": ["normal", "700"],
        "styles": ["normal", "italic"]
    },
    "Habibi": {
        "weights": ["normal"],
        "styles": ["normal"]
    },
    "Hammersmith One": {
        "weights": ["normal"],
        "styles": ["normal"]
    },
    "Hanalei": {
        "weights": ["normal"],
        "styles": ["normal"]
    },
    "Hanalei Fill": {
        "weights": ["normal"],
        "styles": ["normal"]
    },
    "Handlee": {
        "weights": ["normal"],
        "styles": ["normal"]
    },
    "Hanuman": {
        "weights": ["normal", "700"],
        "styles": ["normal"]
    },
    "Happy Monkey": {
        "weights": ["normal"],
        "styles": ["normal"]
    },
    "Headland One": {
        "weights": ["normal"],
        "styles": ["normal"]
    },
    "Henny Penny": {
        "weights": ["normal"],
        "styles": ["normal"]
    },
    "Herr Von Muellerhoff": {
        "weights": ["normal"],
        "styles": ["normal"]
    },
    "Holtwood One SC": {
        "weights": ["normal"],
        "styles": ["normal"]
    },
    "Homemade Apple": {
        "weights": ["normal"],
        "styles": ["normal"]
    },
    "Homenaje": {
        "weights": ["normal"],
        "styles": ["normal"]
    },
    "IM Fell DW Pica": {
        "weights": ["normal"],
        "styles": ["normal", "italic"]
    },
    "IM Fell DW Pica SC": {
        "weights": ["normal"],
        "styles": ["normal"]
    },
    "IM Fell Double Pica": {
        "weights": ["normal"],
        "styles": ["normal", "italic"]
    },
    "IM Fell Double Pica SC": {
        "weights": ["normal"],
        "styles": ["normal"]
    },
    "IM Fell English": {
        "weights": ["normal"],
        "styles": ["normal", "italic"]
    },
    "IM Fell English SC": {
        "weights": ["normal"],
        "styles": ["normal"]
    },
    "IM Fell French Canon": {
        "weights": ["normal"],
        "styles": ["normal", "italic"]
    },
    "IM Fell French Canon SC": {
        "weights": ["normal"],
        "styles": ["normal"]
    },
    "IM Fell Great Primer": {
        "weights": ["normal"],
        "styles": ["normal", "italic"]
    },
    "IM Fell Great Primer SC": {
        "weights": ["normal"],
        "styles": ["normal"]
    },
    "Iceberg": {
        "weights": ["normal"],
        "styles": ["normal"]
    },
    "Iceland": {
        "weights": ["normal"],
        "styles": ["normal"]
    },
    "Imprima": {
        "weights": ["normal"],
        "styles": ["normal"]
    },
    "Inconsolata": {
        "weights": ["normal", "700"],
        "styles": ["normal"]
    },
    "Inder": {
        "weights": ["normal"],
        "styles": ["normal"]
    },
    "Indie Flower": {
        "weights": ["normal"],
        "styles": ["normal"]
    },
    "Inika": {
        "weights": ["normal", "700"],
        "styles": ["normal"]
    },
    "Irish Grover": {
        "weights": ["normal"],
        "styles": ["normal"]
    },
    "Istok Web": {
        "weights": ["normal", "700"],
        "styles": ["normal", "italic"]
    },
    "Italiana": {
        "weights": ["normal"],
        "styles": ["normal"]
    },
    "Italianno": {
        "weights": ["normal"],
        "styles": ["normal"]
    },
    "Jacques Francois": {
        "weights": ["normal"],
        "styles": ["normal"]
    },
    "Jacques Francois Shadow": {
        "weights": ["normal"],
        "styles": ["normal"]
    },
    "Jim Nightshade": {
        "weights": ["normal"],
        "styles": ["normal"]
    },
    "Jockey One": {
        "weights": ["normal"],
        "styles": ["normal"]
    },
    "Jolly Lodger": {
        "weights": ["normal"],
        "styles": ["normal"]
    },
    "Josefin Sans": {
        "weights": ["normal", "100", "300", "600", "700"],
        "styles": ["normal", "italic"]
    },
    "Josefin Slab": {
        "weights": ["normal", "100", "300", "600", "700"],
        "styles": ["normal", "italic"]
    },
    "Joti One": {
        "weights": ["normal"],
        "styles": ["normal"]
    },
    "Judson": {
        "weights": ["normal", "700"],
        "styles": ["normal", "italic"]
    },
    "Julee": {
        "weights": ["normal"],
        "styles": ["normal"]
    },
    "Julius Sans One": {
        "weights": ["normal"],
        "styles": ["normal"]
    },
    "Junge": {
        "weights": ["normal"],
        "styles": ["normal"]
    },
    "Jura": {
        "weights": ["normal", "300", "500", "600"],
        "styles": ["normal"]
    },
    "Just Another Hand": {
        "weights": ["normal"],
        "styles": ["normal"]
    },
    "Just Me Again Down Here": {
        "weights": ["normal"],
        "styles": ["normal"]
    },
    "Kameron": {
        "weights": ["normal", "700"],
        "styles": ["normal"]
    },
    "Karla": {
        "weights": ["normal", "700"],
        "styles": ["normal", "italic"]
    },
    "Kaushan Script": {
        "weights": ["normal"],
        "styles": ["normal"]
    },
    "Kavoon": {
        "weights": ["normal"],
        "styles": ["normal"]
    },
    "Keania One": {
        "weights": ["normal"],
        "styles": ["normal"]
    },
    "Kelly Slab": {
        "weights": ["normal"],
        "styles": ["normal"]
    },
    "Kenia": {
        "weights": ["normal"],
        "styles": ["normal"]
    },
    "Khmer": {
        "weights": ["normal"],
        "styles": ["normal"]
    },
    "Kite One": {
        "weights": ["normal"],
        "styles": ["normal"]
    },
    "Knewave": {
        "weights": ["normal"],
        "styles": ["normal"]
    },
    "Kotta One": {
        "weights": ["normal"],
        "styles": ["normal"]
    },
    "Koulen": {
        "weights": ["normal"],
        "styles": ["normal"]
    },
    "Kranky": {
        "weights": ["normal"],
        "styles": ["normal"]
    },
    "Kreon": {
        "weights": ["normal", "300", "700"],
        "styles": ["normal"]
    },
    "Kristi": {
        "weights": ["normal"],
        "styles": ["normal"]
    },
    "Krona One": {
        "weights": ["normal"],
        "styles": ["normal"]
    },
    "La Belle Aurore": {
        "weights": ["normal"],
        "styles": ["normal"]
    },
    "Lancelot": {
        "weights": ["normal"],
        "styles": ["normal"]
    },
    "Lato": {
        "weights": ["normal", "100", "300", "700", "900"],
        "styles": ["normal", "italic"]
    },
    "League Script": {
        "weights": ["normal"],
        "styles": ["normal"]
    },
    "Leckerli One": {
        "weights": ["normal"],
        "styles": ["normal"]
    },
    "Ledger": {
        "weights": ["normal"],
        "styles": ["normal"]
    },
    "Lekton": {
        "weights": ["normal", "700"],
        "styles": ["normal", "italic"]
    },
    "Lemon": {
        "weights": ["normal"],
        "styles": ["normal"]
    },
    "Libre Baskerville": {
        "weights": ["normal", "700"],
        "styles": ["normal", "italic"]
    },
    "Life Savers": {
        "weights": ["normal", "700"],
        "styles": ["normal"]
    },
    "Lilita One": {
        "weights": ["normal"],
        "styles": ["normal"]
    },
    "Lily Script One": {
        "weights": ["normal"],
        "styles": ["normal"]
    },
    "Limelight": {
        "weights": ["normal"],
        "styles": ["normal"]
    },
    "Linden Hill": {
        "weights": ["normal"],
        "styles": ["normal", "italic"]
    },
    "Lobster": {
        "weights": ["normal"],
        "styles": ["normal"]
    },
    "Lobster Two": {
        "weights": ["normal", "700"],
        "styles": ["normal", "italic"]
    },
    "Londrina Outline": {
        "weights": ["normal"],
        "styles": ["normal"]
    },
    "Londrina Shadow": {
        "weights": ["normal"],
        "styles": ["normal"]
    },
    "Londrina Sketch": {
        "weights": ["normal"],
        "styles": ["normal"]
    },
    "Londrina Solid": {
        "weights": ["normal"],
        "styles": ["normal"]
    },
    "Lora": {
        "weights": ["normal", "700"],
        "styles": ["normal", "italic"]
    },
    "Love Ya Like A Sister": {
        "weights": ["normal"],
        "styles": ["normal"]
    },
    "Loved by the King": {
        "weights": ["normal"],
        "styles": ["normal"]
    },
    "Lovers Quarrel": {
        "weights": ["normal"],
        "styles": ["normal"]
    },
    "Luckiest Guy": {
        "weights": ["normal"],
        "styles": ["normal"]
    },
    "Lusitana": {
        "weights": ["normal", "700"],
        "styles": ["normal"]
    },
    "Lustria": {
        "weights": ["normal"],
        "styles": ["normal"]
    },
    "Macondo": {
        "weights": ["normal"],
        "styles": ["normal"]
    },
    "Macondo Swash Caps": {
        "weights": ["normal"],
        "styles": ["normal"]
    },
    "Magra": {
        "weights": ["normal", "700"],
        "styles": ["normal"]
    },
    "Maiden Orange": {
        "weights": ["normal"],
        "styles": ["normal"]
    },
    "Mako": {
        "weights": ["normal"],
        "styles": ["normal"]
    },
    "Marcellus": {
        "weights": ["normal"],
        "styles": ["normal"]
    },
    "Marcellus SC": {
        "weights": ["normal"],
        "styles": ["normal"]
    },
    "Marck Script": {
        "weights": ["normal"],
        "styles": ["normal"]
    },
    "Margarine": {
        "weights": ["normal"],
        "styles": ["normal"]
    },
    "Marko One": {
        "weights": ["normal"],
        "styles": ["normal"]
    },
    "Marmelad": {
        "weights": ["normal"],
        "styles": ["normal"]
    },
    "Marvel": {
        "weights": ["normal", "700"],
        "styles": ["normal", "italic"]
    },
    "Mate": {
        "weights": ["normal"],
        "styles": ["normal", "italic"]
    },
    "Mate SC": {
        "weights": ["normal"],
        "styles": ["normal"]
    },
    "Maven Pro": {
        "weights": ["normal", "500", "700", "900"],
        "styles": ["normal"]
    },
    "McLaren": {
        "weights": ["normal"],
        "styles": ["normal"]
    },
    "Meddon": {
        "weights": ["normal"],
        "styles": ["normal"]
    },
    "MedievalSharp": {
        "weights": ["normal"],
        "styles": ["normal"]
    },
    "Medula One": {
        "weights": ["normal"],
        "styles": ["normal"]
    },
    "Megrim": {
        "weights": ["normal"],
        "styles": ["normal"]
    },
    "Meie Script": {
        "weights": ["normal"],
        "styles": ["normal"]
    },
    "Merienda": {
        "weights": ["normal", "700"],
        "styles": ["normal"]
    },
    "Merienda One": {
        "weights": ["normal"],
        "styles": ["normal"]
    },
    "Merriweather": {
        "weights": ["normal", "300", "700", "900"],
        "styles": ["normal", "italic"]
    },
    "Merriweather Sans": {
        "weights": ["normal", "300", "700", "800"],
        "styles": ["normal", "italic"]
    },
    "Metal": {
        "weights": ["normal"],
        "styles": ["normal"]
    },
    "Metal Mania": {
        "weights": ["normal"],
        "styles": ["normal"]
    },
    "Metamorphous": {
        "weights": ["normal"],
        "styles": ["normal"]
    },
    "Metrophobic": {
        "weights": ["normal"],
        "styles": ["normal"]
    },
    "Michroma": {
        "weights": ["normal"],
        "styles": ["normal"]
    },
    "Milonga": {
        "weights": ["normal"],
        "styles": ["normal"]
    },
    "Miltonian": {
        "weights": ["normal"],
        "styles": ["normal"]
    },
    "Miltonian Tattoo": {
        "weights": ["normal"],
        "styles": ["normal"]
    },
    "Miniver": {
        "weights": ["normal"],
        "styles": ["normal"]
    },
    "Miss Fajardose": {
        "weights": ["normal"],
        "styles": ["normal"]
    },
    "Modern Antiqua": {
        "weights": ["normal"],
        "styles": ["normal"]
    },
    "Molengo": {
        "weights": ["normal"],
        "styles": ["normal"]
    },
    "Molle": {
        "weights": ["normal"],
        "styles": ["normal", "italic"]
    },
    "Monda": {
        "weights": ["normal", "700"],
        "styles": ["normal"]
    },
    "Monofett": {
        "weights": ["normal"],
        "styles": ["normal"]
    },
    "Monoton": {
        "weights": ["normal"],
        "styles": ["normal"]
    },
    "Monsieur La Doulaise": {
        "weights": ["normal"],
        "styles": ["normal"]
    },
    "Montaga": {
        "weights": ["normal"],
        "styles": ["normal"]
    },
    "Montez": {
        "weights": ["normal"],
        "styles": ["normal"]
    },
    "Montserrat": {
        "weights": ["normal", "700"],
        "styles": ["normal"]
    },
    "Montserrat Alternates": {
        "weights": ["normal", "700"],
        "styles": ["normal"]
    },
    "Montserrat Subrayada": {
        "weights": ["normal", "700"],
        "styles": ["normal"]
    },
    "Moul": {
        "weights": ["normal"],
        "styles": ["normal"]
    },
    "Moulpali": {
        "weights": ["normal"],
        "styles": ["normal"]
    },
    "Mountains of Christmas": {
        "weights": ["normal", "700"],
        "styles": ["normal"]
    },
    "Mouse Memoirs": {
        "weights": ["normal"],
        "styles": ["normal"]
    },
    "Mr Bedfort": {
        "weights": ["normal"],
        "styles": ["normal"]
    },
    "Mr Dafoe": {
        "weights": ["normal"],
        "styles": ["normal"]
    },
    "Mr De Haviland": {
        "weights": ["normal"],
        "styles": ["normal"]
    },
    "Mrs Saint Delafield": {
        "weights": ["normal"],
        "styles": ["normal"]
    },
    "Mrs Sheppards": {
        "weights": ["normal"],
        "styles": ["normal"]
    },
    "Muli": {
        "weights": ["normal", "300"],
        "styles": ["normal", "italic"]
    },
    "Mystery Quest": {
        "weights": ["normal"],
        "styles": ["normal"]
    },
    "Neucha": {
        "weights": ["normal"],
        "styles": ["normal"]
    },
    "Neuton": {
        "weights": ["normal", "200", "300", "700", "800"],
        "styles": ["normal", "italic"]
    },
    "New Rocker": {
        "weights": ["normal"],
        "styles": ["normal"]
    },
    "News Cycle": {
        "weights": ["normal", "700"],
        "styles": ["normal"]
    },
    "Niconne": {
        "weights": ["normal"],
        "styles": ["normal"]
    },
    "Nixie One": {
        "weights": ["normal"],
        "styles": ["normal"]
    },
    "Nobile": {
        "weights": ["normal", "700"],
        "styles": ["normal", "italic"]
    },
    "Nokora": {
        "weights": ["normal", "700"],
        "styles": ["normal"]
    },
    "Norican": {
        "weights": ["normal"],
        "styles": ["normal"]
    },
    "Nosifer": {
        "weights": ["normal"],
        "styles": ["normal"]
    },
    "Nothing You Could Do": {
        "weights": ["normal"],
        "styles": ["normal"]
    },
    "Noticia Text": {
        "weights": ["normal", "700"],
        "styles": ["normal", "italic"]
    },
    "Noto Sans": {
        "weights": ["normal", "700"],
        "styles": ["normal", "italic"]
    },
    "Noto Serif": {
        "weights": ["normal", "700"],
        "styles": ["normal", "italic"]
    },
    "Nova Cut": {
        "weights": ["normal"],
        "styles": ["normal"]
    },
    "Nova Flat": {
        "weights": ["normal"],
        "styles": ["normal"]
    },
    "Nova Mono": {
        "weights": ["normal"],
        "styles": ["normal"]
    },
    "Nova Oval": {
        "weights": ["normal"],
        "styles": ["normal"]
    },
    "Nova Round": {
        "weights": ["normal"],
        "styles": ["normal"]
    },
    "Nova Script": {
        "weights": ["normal"],
        "styles": ["normal"]
    },
    "Nova Slim": {
        "weights": ["normal"],
        "styles": ["normal"]
    },
    "Nova Square": {
        "weights": ["normal"],
        "styles": ["normal"]
    },
    "Numans": {
        "weights": ["normal"],
        "styles": ["normal"]
    },
    "Nunito": {
        "weights": ["normal", "300", "700"],
        "styles": ["normal"]
    },
    "Odor Mean Chey": {
        "weights": ["normal"],
        "styles": ["normal"]
    },
    "Offside": {
        "weights": ["normal"],
        "styles": ["normal"]
    },
    "Old Standard TT": {
        "weights": ["normal", "700"],
        "styles": ["normal", "italic"]
    },
    "Oldenburg": {
        "weights": ["normal"],
        "styles": ["normal"]
    },
    "Oleo Script": {
        "weights": ["normal", "700"],
        "styles": ["normal"]
    },
    "Oleo Script Swash Caps": {
        "weights": ["normal", "700"],
        "styles": ["normal"]
    },
    "Open Sans": {
        "weights": ["normal", "300", "600", "700", "800"],
        "styles": ["normal", "italic"]
    },
    "Open Sans Condensed": {
        "weights": ["normal", "300", "700"],
        "styles": ["normal"]
    },
    "Oranienbaum": {
        "weights": ["normal"],
        "styles": ["normal"]
    },
    "Orbitron": {
        "weights": ["normal", "500", "700", "900"],
        "styles": ["normal"]
    },
    "Oregano": {
        "weights": ["normal"],
        "styles": ["normal", "italic"]
    },
    "Orienta": {
        "weights": ["normal"],
        "styles": ["normal"]
    },
    "Original Surfer": {
        "weights": ["normal"],
        "styles": ["normal"]
    },
    "Oswald": {
        "weights": ["normal", "300", "700"],
        "styles": ["normal"]
    },
    "Over the Rainbow": {
        "weights": ["normal"],
        "styles": ["normal"]
    },
    "Overlock": {
        "weights": ["normal", "700", "900"],
        "styles": ["normal", "italic"]
    },
    "Overlock SC": {
        "weights": ["normal"],
        "styles": ["normal"]
    },
    "Ovo": {
        "weights": ["normal"],
        "styles": ["normal"]
    },
    "Oxygen": {
        "weights": ["normal", "300", "700"],
        "styles": ["normal"]
    },
    "Oxygen Mono": {
        "weights": ["normal"],
        "styles": ["normal"]
    },
    "PT Mono": {
        "weights": ["normal"],
        "styles": ["normal"]
    },
    "PT Sans": {
        "weights": ["normal", "700"],
        "styles": ["normal", "italic"]
    },
    "PT Sans Caption": {
        "weights": ["normal", "700"],
        "styles": ["normal"]
    },
    "PT Sans Narrow": {
        "weights": ["normal", "700"],
        "styles": ["normal"]
    },
    "PT Serif": {
        "weights": ["normal", "700"],
        "styles": ["normal", "italic"]
    },
    "PT Serif Caption": {
        "weights": ["normal"],
        "styles": ["normal", "italic"]
    },
    "Pacifico": {
        "weights": ["normal"],
        "styles": ["normal"]
    },
    "Paprika": {
        "weights": ["normal"],
        "styles": ["normal"]
    },
    "Parisienne": {
        "weights": ["normal"],
        "styles": ["normal"]
    },
    "Passero One": {
        "weights": ["normal"],
        "styles": ["normal"]
    },
    "Passion One": {
        "weights": ["normal", "700", "900"],
        "styles": ["normal"]
    },
    "Pathway Gothic One": {
        "weights": ["normal"],
        "styles": ["normal"]
    },
    "Patrick Hand": {
        "weights": ["normal"],
        "styles": ["normal"]
    },
    "Patrick Hand SC": {
        "weights": ["normal"],
        "styles": ["normal"]
    },
    "Patua One": {
        "weights": ["normal"],
        "styles": ["normal"]
    },
    "Paytone One": {
        "weights": ["normal"],
        "styles": ["normal"]
    },
    "Peralta": {
        "weights": ["normal"],
        "styles": ["normal"]
    },
    "Permanent Marker": {
        "weights": ["normal"],
        "styles": ["normal"]
    },
    "Petit Formal Script": {
        "weights": ["normal"],
        "styles": ["normal"]
    },
    "Petrona": {
        "weights": ["normal"],
        "styles": ["normal"]
    },
    "Philosopher": {
        "weights": ["normal", "700"],
        "styles": ["normal", "italic"]
    },
    "Piedra": {
        "weights": ["normal"],
        "styles": ["normal"]
    },
    "Pinyon Script": {
        "weights": ["normal"],
        "styles": ["normal"]
    },
    "Pirata One": {
        "weights": ["normal"],
        "styles": ["normal"]
    },
    "Plaster": {
        "weights": ["normal"],
        "styles": ["normal"]
    },
    "Play": {
        "weights": ["normal", "700"],
        "styles": ["normal"]
    },
    "Playball": {
        "weights": ["normal"],
        "styles": ["normal"]
    },
    "Playfair Display": {
        "weights": ["normal", "700", "900"],
        "styles": ["normal", "italic"]
    },
    "Playfair Display SC": {
        "weights": ["normal", "700", "900"],
        "styles": ["normal", "italic"]
    },
    "Podkova": {
        "weights": ["normal", "700"],
        "styles": ["normal"]
    },
    "Poiret One": {
        "weights": ["normal"],
        "styles": ["normal"]
    },
    "Poller One": {
        "weights": ["normal"],
        "styles": ["normal"]
    },
    "Poly": {
        "weights": ["normal"],
        "styles": ["normal", "italic"]
    },
    "Pompiere": {
        "weights": ["normal"],
        "styles": ["normal"]
    },
    "Pontano Sans": {
        "weights": ["normal"],
        "styles": ["normal"]
    },
    "Port Lligat Sans": {
        "weights": ["normal"],
        "styles": ["normal"]
    },
    "Port Lligat Slab": {
        "weights": ["normal"],
        "styles": ["normal"]
    },
    "Prata": {
        "weights": ["normal"],
        "styles": ["normal"]
    },
    "Preahvihear": {
        "weights": ["normal"],
        "styles": ["normal"]
    },
    "Press Start 2P": {
        "weights": ["normal"],
        "styles": ["normal"]
    },
    "Princess Sofia": {
        "weights": ["normal"],
        "styles": ["normal"]
    },
    "Prociono": {
        "weights": ["normal"],
        "styles": ["normal"]
    },
    "Prosto One": {
        "weights": ["normal"],
        "styles": ["normal"]
    },
    "Puritan": {
        "weights": ["normal", "700"],
        "styles": ["normal", "italic"]
    },
    "Purple Purse": {
        "weights": ["normal"],
        "styles": ["normal"]
    },
    "Quando": {
        "weights": ["normal"],
        "styles": ["normal"]
    },
    "Quantico": {
        "weights": ["normal", "700"],
        "styles": ["normal", "italic"]
    },
    "Quattrocento": {
        "weights": ["normal", "700"],
        "styles": ["normal"]
    },
    "Quattrocento Sans": {
        "weights": ["normal", "700"],
        "styles": ["normal", "italic"]
    },
    "Questrial": {
        "weights": ["normal"],
        "styles": ["normal"]
    },
    "Quicksand": {
        "weights": ["normal", "300", "700"],
        "styles": ["normal"]
    },
    "Quintessential": {
        "weights": ["normal"],
        "styles": ["normal"]
    },
    "Qwigley": {
        "weights": ["normal"],
        "styles": ["normal"]
    },
    "Racing Sans One": {
        "weights": ["normal"],
        "styles": ["normal"]
    },
    "Radley": {
        "weights": ["normal"],
        "styles": ["normal", "italic"]
    },
    "Raleway": {
        "weights": ["normal", "100", "200", "300", "500", "600", "700", "800", "900"],
        "styles": ["normal"]
    },
    "Raleway Dots": {
        "weights": ["normal"],
        "styles": ["normal"]
    },
    "Rambla": {
        "weights": ["normal", "700"],
        "styles": ["normal", "italic"]
    },
    "Rammetto One": {
        "weights": ["normal"],
        "styles": ["normal"]
    },
    "Ranchers": {
        "weights": ["normal"],
        "styles": ["normal"]
    },
    "Rancho": {
        "weights": ["normal"],
        "styles": ["normal"]
    },
    "Rationale": {
        "weights": ["normal"],
        "styles": ["normal"]
    },
    "Redressed": {
        "weights": ["normal"],
        "styles": ["normal"]
    },
    "Reenie Beanie": {
        "weights": ["normal"],
        "styles": ["normal"]
    },
    "Revalia": {
        "weights": ["normal"],
        "styles": ["normal"]
    },
    "Ribeye": {
        "weights": ["normal"],
        "styles": ["normal"]
    },
    "Ribeye Marrow": {
        "weights": ["normal"],
        "styles": ["normal"]
    },
    "Righteous": {
        "weights": ["normal"],
        "styles": ["normal"]
    },
    "Risque": {
        "weights": ["normal"],
        "styles": ["normal"]
    },
    "Roboto": {
        "weights": ["normal", "100", "300", "500", "700", "900"],
        "styles": ["normal", "italic"]
    },
    "Roboto Condensed": {
        "weights": ["normal", "300", "700"],
        "styles": ["normal", "italic"]
    },
    "Roboto Slab": {
        "weights": ["normal", "100", "300", "700"],
        "styles": ["normal"]
    },
    "Rochester": {
        "weights": ["normal"],
        "styles": ["normal"]
    },
    "Rock Salt": {
        "weights": ["normal"],
        "styles": ["normal"]
    },
    "Rokkitt": {
        "weights": ["normal", "700"],
        "styles": ["normal"]
    },
    "Romanesco": {
        "weights": ["normal"],
        "styles": ["normal"]
    },
    "Ropa Sans": {
        "weights": ["normal"],
        "styles": ["normal", "italic"]
    },
    "Rosario": {
        "weights": ["normal", "700"],
        "styles": ["normal", "italic"]
    },
    "Rosarivo": {
        "weights": ["normal"],
        "styles": ["normal", "italic"]
    },
    "Rouge Script": {
        "weights": ["normal"],
        "styles": ["normal"]
    },
    "Ruda": {
        "weights": ["normal", "700", "900"],
        "styles": ["normal"]
    },
    "Rufina": {
        "weights": ["normal", "700"],
        "styles": ["normal"]
    },
    "Ruge Boogie": {
        "weights": ["normal"],
        "styles": ["normal"]
    },
    "Ruluko": {
        "weights": ["normal"],
        "styles": ["normal"]
    },
    "Rum Raisin": {
        "weights": ["normal"],
        "styles": ["normal"]
    },
    "Ruslan Display": {
        "weights": ["normal"],
        "styles": ["normal"]
    },
    "Russo One": {
        "weights": ["normal"],
        "styles": ["normal"]
    },
    "Ruthie": {
        "weights": ["normal"],
        "styles": ["normal"]
    },
    "Rye": {
        "weights": ["normal"],
        "styles": ["normal"]
    },
    "Sacramento": {
        "weights": ["normal"],
        "styles": ["normal"]
    },
    "Sail": {
        "weights": ["normal"],
        "styles": ["normal"]
    },
    "Salsa": {
        "weights": ["normal"],
        "styles": ["normal"]
    },
    "Sanchez": {
        "weights": ["normal"],
        "styles": ["normal", "italic"]
    },
    "Sancreek": {
        "weights": ["normal"],
        "styles": ["normal"]
    },
    "Sansita One": {
        "weights": ["normal"],
        "styles": ["normal"]
    },
    "Sarina": {
        "weights": ["normal"],
        "styles": ["normal"]
    },
    "Satisfy": {
        "weights": ["normal"],
        "styles": ["normal"]
    },
    "Scada": {
        "weights": ["normal", "700"],
        "styles": ["normal", "italic"]
    },
    "Schoolbell": {
        "weights": ["normal"],
        "styles": ["normal"]
    },
    "Seaweed Script": {
        "weights": ["normal"],
        "styles": ["normal"]
    },
    "Sevillana": {
        "weights": ["normal"],
        "styles": ["normal"]
    },
    "Seymour One": {
        "weights": ["normal"],
        "styles": ["normal"]
    },
    "Shadows Into Light": {
        "weights": ["normal"],
        "styles": ["normal"]
    },
    "Shadows Into Light Two": {
        "weights": ["normal"],
        "styles": ["normal"]
    },
    "Shanti": {
        "weights": ["normal"],
        "styles": ["normal"]
    },
    "Share": {
        "weights": ["normal", "700"],
        "styles": ["normal", "italic"]
    },
    "Share Tech": {
        "weights": ["normal"],
        "styles": ["normal"]
    },
    "Share Tech Mono": {
        "weights": ["normal"],
        "styles": ["normal"]
    },
    "Shojumaru": {
        "weights": ["normal"],
        "styles": ["normal"]
    },
    "Short Stack": {
        "weights": ["normal"],
        "styles": ["normal"]
    },
    "Siemreap": {
        "weights": ["normal"],
        "styles": ["normal"]
    },
    "Sigmar One": {
        "weights": ["normal"],
        "styles": ["normal"]
    },
    "Signika": {
        "weights": ["normal", "300", "600", "700"],
        "styles": ["normal"]
    },
    "Signika Negative": {
        "weights": ["normal", "300", "600", "700"],
        "styles": ["normal"]
    },
    "Simonetta": {
        "weights": ["normal", "900"],
        "styles": ["normal", "italic"]
    },
    "Sintony": {
        "weights": ["normal", "700"],
        "styles": ["normal"]
    },
    "Sirin Stencil": {
        "weights": ["normal"],
        "styles": ["normal"]
    },
    "Six Caps": {
        "weights": ["normal"],
        "styles": ["normal"]
    },
    "Skranji": {
        "weights": ["normal", "700"],
        "styles": ["normal"]
    },
    "Slackey": {
        "weights": ["normal"],
        "styles": ["normal"]
    },
    "Smokum": {
        "weights": ["normal"],
        "styles": ["normal"]
    },
    "Smythe": {
        "weights": ["normal"],
        "styles": ["normal"]
    },
    "Sniglet": {
        "weights": ["normal", "800"],
        "styles": ["normal"]
    },
    "Snippet": {
        "weights": ["normal"],
        "styles": ["normal"]
    },
    "Snowburst One": {
        "weights": ["normal"],
        "styles": ["normal"]
    },
    "Sofadi One": {
        "weights": ["normal"],
        "styles": ["normal"]
    },
    "Sofia": {
        "weights": ["normal"],
        "styles": ["normal"]
    },
    "Sonsie One": {
        "weights": ["normal"],
        "styles": ["normal"]
    },
    "Sorts Mill Goudy": {
        "weights": ["normal"],
        "styles": ["normal", "italic"]
    },
    "Source Code Pro": {
        "weights": ["normal", "200", "300", "500", "600", "700", "900"],
        "styles": ["normal"]
    },
    "Source Sans Pro": {
        "weights": ["normal", "200", "300", "600", "700", "900"],
        "styles": ["normal", "italic"]
    },
    "Special Elite": {
        "weights": ["normal"],
        "styles": ["normal"]
    },
    "Spicy Rice": {
        "weights": ["normal"],
        "styles": ["normal"]
    },
    "Spinnaker": {
        "weights": ["normal"],
        "styles": ["normal"]
    },
    "Spirax": {
        "weights": ["normal"],
        "styles": ["normal"]
    },
    "Squada One": {
        "weights": ["normal"],
        "styles": ["normal"]
    },
    "Stalemate": {
        "weights": ["normal"],
        "styles": ["normal"]
    },
    "Stalinist One": {
        "weights": ["normal"],
        "styles": ["normal"]
    },
    "Stardos Stencil": {
        "weights": ["normal", "700"],
        "styles": ["normal"]
    },
    "Stint Ultra Condensed": {
        "weights": ["normal"],
        "styles": ["normal"]
    },
    "Stint Ultra Expanded": {
        "weights": ["normal"],
        "styles": ["normal"]
    },
    "Stoke": {
        "weights": ["normal", "300"],
        "styles": ["normal"]
    },
    "Strait": {
        "weights": ["normal"],
        "styles": ["normal"]
    },
    "Sue Ellen Francisco": {
        "weights": ["normal"],
        "styles": ["normal"]
    },
    "Sunshiney": {
        "weights": ["normal"],
        "styles": ["normal"]
    },
    "Supermercado One": {
        "weights": ["normal"],
        "styles": ["normal"]
    },
    "Suwannaphum": {
        "weights": ["normal"],
        "styles": ["normal"]
    },
    "Swanky and Moo Moo": {
        "weights": ["normal"],
        "styles": ["normal"]
    },
    "Syncopate": {
        "weights": ["normal", "700"],
        "styles": ["normal"]
    },
    "Tangerine": {
        "weights": ["normal", "700"],
        "styles": ["normal"]
    },
    "Taprom": {
        "weights": ["normal"],
        "styles": ["normal"]
    },
    "Tauri": {
        "weights": ["normal"],
        "styles": ["normal"]
    },
    "Telex": {
        "weights": ["normal"],
        "styles": ["normal"]
    },
    "Tenor Sans": {
        "weights": ["normal"],
        "styles": ["normal"]
    },
    "Text Me One": {
        "weights": ["normal"],
        "styles": ["normal"]
    },
    "The Girl Next Door": {
        "weights": ["normal"],
        "styles": ["normal"]
    },
    "Tienne": {
        "weights": ["normal", "700", "900"],
        "styles": ["normal"]
    },
    "Tinos": {
        "weights": ["normal", "700"],
        "styles": ["normal", "italic"]
    },
    "Titan One": {
        "weights": ["normal"],
        "styles": ["normal"]
    },
    "Titillium Web": {
        "weights": ["normal", "200", "300", "600", "700", "900"],
        "styles": ["normal", "italic"]
    },
    "Trade Winds": {
        "weights": ["normal"],
        "styles": ["normal"]
    },
    "Trocchi": {
        "weights": ["normal"],
        "styles": ["normal"]
    },
    "Trochut": {
        "weights": ["normal", "700"],
        "styles": ["normal", "italic"]
    },
    "Trykker": {
        "weights": ["normal"],
        "styles": ["normal"]
    },
    "Tulpen One": {
        "weights": ["normal"],
        "styles": ["normal"]
    },
    "Ubuntu": {
        "weights": ["normal", "300", "500", "700"],
        "styles": ["normal", "italic"]
    },
    "Ubuntu Condensed": {
        "weights": ["normal"],
        "styles": ["normal"]
    },
    "Ubuntu Mono": {
        "weights": ["normal", "700"],
        "styles": ["normal", "italic"]
    },
    "Ultra": {
        "weights": ["normal"],
        "styles": ["normal"]
    },
    "Uncial Antiqua": {
        "weights": ["normal"],
        "styles": ["normal"]
    },
    "Underdog": {
        "weights": ["normal"],
        "styles": ["normal"]
    },
    "Unica One": {
        "weights": ["normal"],
        "styles": ["normal"]
    },
    "UnifrakturCook": {
        "weights": ["normal", "700"],
        "styles": ["normal"]
    },
    "UnifrakturMaguntia": {
        "weights": ["normal"],
        "styles": ["normal"]
    },
    "Unkempt": {
        "weights": ["normal", "700"],
        "styles": ["normal"]
    },
    "Unlock": {
        "weights": ["normal"],
        "styles": ["normal"]
    },
    "Unna": {
        "weights": ["normal"],
        "styles": ["normal"]
    },
    "VT323": {
        "weights": ["normal"],
        "styles": ["normal"]
    },
    "Vampiro One": {
        "weights": ["normal"],
        "styles": ["normal"]
    },
    "Varela": {
        "weights": ["normal"],
        "styles": ["normal"]
    },
    "Varela Round": {
        "weights": ["normal"],
        "styles": ["normal"]
    },
    "Vast Shadow": {
        "weights": ["normal"],
        "styles": ["normal"]
    },
    "Vibur": {
        "weights": ["normal"],
        "styles": ["normal"]
    },
    "Vidaloka": {
        "weights": ["normal"],
        "styles": ["normal"]
    },
    "Viga": {
        "weights": ["normal"],
        "styles": ["normal"]
    },
    "Voces": {
        "weights": ["normal"],
        "styles": ["normal"]
    },
    "Volkhov": {
        "weights": ["normal", "700"],
        "styles": ["normal", "italic"]
    },
    "Vollkorn": {
        "weights": ["normal", "700"],
        "styles": ["normal", "italic"]
    },
    "Voltaire": {
        "weights": ["normal"],
        "styles": ["normal"]
    },
    "Waiting for the Sunrise": {
        "weights": ["normal"],
        "styles": ["normal"]
    },
    "Wallpoet": {
        "weights": ["normal"],
        "styles": ["normal"]
    },
    "Walter Turncoat": {
        "weights": ["normal"],
        "styles": ["normal"]
    },
    "Warnes": {
        "weights": ["normal"],
        "styles": ["normal"]
    },
    "Wellfleet": {
        "weights": ["normal"],
        "styles": ["normal"]
    },
    "Wendy One": {
        "weights": ["normal"],
        "styles": ["normal"]
    },
    "Wire One": {
        "weights": ["normal"],
        "styles": ["normal"]
    },
    "Yanone Kaffeesatz": {
        "weights": ["normal", "200", "300", "700"],
        "styles": ["normal"]
    },
    "Yellowtail": {
        "weights": ["normal"],
        "styles": ["normal"]
    },
    "Yeseva One": {
        "weights": ["normal"],
        "styles": ["normal"]
    },
    "Yesteryear": {
        "weights": ["normal"],
        "styles": ["normal"]
    },
    "Zeyada": {
        "weights": ["normal"],
        "styles": ["normal"]
    }
}