<?xml version="1.0" standalone="no"?>
<!DOCTYPE svg PUBLIC "-//W3C//DTD SVG 1.1//EN" "http://www.w3.org/Graphics/SVG/1.1/DTD/svg11.dtd" >
<svg xmlns="http://www.w3.org/2000/svg">
<metadata></metadata>
<defs>
<font id="robotoitalic" horiz-adv-x="1164" >
<font-face units-per-em="2048" ascent="1536" descent="-512" />
<missing-glyph horiz-adv-x="509" />
<glyph unicode="&#xfb01;" horiz-adv-x="1140" d="M88 936l22 146h170l18 117q28 189 148 285.5t311 96.5q64 0 129.5 -16t146.5 -45l-58 -160q-50 21 -107.5 36t-120.5 15q-113 0 -175 -53t-77 -159l-18 -117h215l-22 -146h-215l-140 -936h-197l140 936h-170zM703 0l162 1082h198l-162 -1082h-198z" />
<glyph horiz-adv-x="0" />
<glyph unicode="&#xd;" horiz-adv-x="509" />
<glyph horiz-adv-x="0" />
<glyph unicode="&#x9;" horiz-adv-x="0" />
<glyph unicode=" "  horiz-adv-x="509" />
<glyph unicode="&#x09;" horiz-adv-x="509" />
<glyph unicode="&#xa0;" horiz-adv-x="509" />
<glyph unicode="!" horiz-adv-x="539" d="M91 0l31 204h198l-31 -204h-198zM163 478l146 978h197l-146 -978h-197z" />
<glyph unicode="&#x22;" horiz-adv-x="733" d="M182 936l35 240l39 280h197l-38 -270l-136 -250h-97zM491 936l35 248l38 272h198l-38 -270l-136 -250h-97z" />
<glyph unicode="#" horiz-adv-x="1276" d="M52 410l21 140h263l121 348h-256l21 142h284l144 416h151l-144 -416h255l144 416h151l-144 -416h199l-21 -142h-227l-120 -348h220l-21 -140h-248l-141 -410h-152l142 410h-255l-142 -410h-151l142 410h-236zM487 550h255l121 348h-255z" />
<glyph unicode="$" horiz-adv-x="1193" d="M111 429h197q-23 -160 45 -222.5t183 -62.5q124 0 208 62.5t99 169.5q12 93 -41.5 155t-195.5 112q-193 61 -282 163t-65 272q23 171 132 273t279 122l31 220h158l-31 -222q159 -24 237 -139.5t53 -305.5h-196q18 131 -33 208t-164 77t-183.5 -62.5t-85.5 -167.5 q-14 -100 38 -158.5t204 -112.5q196 -66 280.5 -164.5t61.5 -267.5q-25 -178 -141 -277.5t-301 -116.5l-26 -192h-157l26 191q-165 19 -262.5 128t-67.5 318z" />
<glyph unicode="%" horiz-adv-x="1498" d="M189 1099l11 77q19 132 114 216.5t233 84.5q132 0 203 -87.5t52 -213.5l-11 -77q-20 -132 -113.5 -215.5t-230.5 -83.5q-133 0 -205.5 87t-52.5 212zM296 177l881 1138l99 -67l-881 -1138zM335 1099q-12 -77 21 -127t109 -50q70 0 119 52t61 125l11 77q11 77 -21.5 128 t-106.5 51q-72 0 -121.5 -53t-60.5 -126zM771 279l12 78q19 131 113.5 215.5t232.5 84.5q131 0 202.5 -87.5t53.5 -212.5l-12 -78q-20 -132 -114 -216t-230 -84q-133 0 -205.5 87t-52.5 213zM917 279q-12 -78 20.5 -128t109.5 -50q70 0 119 52t61 126l12 78q11 77 -22 127.5 t-107 50.5q-72 0 -121.5 -53t-59.5 -125z" />
<glyph unicode="&#x26;" horiz-adv-x="1276" d="M43 392q18 126 101 215t240 182q-64 97 -90.5 175.5t-13.5 160.5q26 175 136 263.5t283 88.5q151 0 239.5 -92t69.5 -218q-16 -102 -77 -170.5t-178 -145.5l-121 -80l277 -407q52 66 86.5 144t48.5 165h176q-21 -137 -76 -247t-143 -198l156 -228h-236l-70 102 q-90 -60 -191 -91.5t-205 -31.5q-209 0 -324.5 116t-87.5 297zM240 392q-18 -117 42 -188t196 -71q70 0 143.5 25t142.5 72l-294 433l-44 -29q-101 -69 -140.5 -131t-45.5 -111zM477 1127q-8 -55 10.5 -111.5t62.5 -124.5l152 95q63 39 90 83t35 98q9 64 -32.5 109.5 t-119.5 45.5t-132 -57t-66 -138z" />
<glyph unicode="'" horiz-adv-x="445" d="M184 951l38 265l34 240h197l-31 -223l-141 -282h-97z" />
<glyph unicode="(" horiz-adv-x="679" d="M138 582l2 9q57 411 251.5 680.5t387.5 364.5l6 -1l22 -116q-152 -107 -287 -343t-183 -583l-2 -13q-51 -362 16.5 -589t192.5 -346l-53 -108h-6q-162 93 -282.5 371.5t-64.5 673.5z" />
<glyph unicode=")" horiz-adv-x="687" d="M-119 -355q150 105 286 345.5t185 589.5l2 13q50 357 -21 589.5t-188 345.5l53 108h6q161 -93 281.5 -372t65.5 -673l-2 -9q-58 -412 -252.5 -681t-386.5 -364l-6 1z" />
<glyph unicode="*" horiz-adv-x="884" d="M122 763l73 154l222 -90l28 254h161l-49 -260l247 89l24 -156l-252 -68l123 -200l-146 -96l-108 218l-166 -210l-119 92l188 206z" />
<glyph unicode="+" horiz-adv-x="1162" d="M89 605l26 178h402l64 423h197l-64 -423h399l-26 -178h-399l-69 -459h-197l69 459h-402z" />
<glyph unicode="," horiz-adv-x="404" d="M-71 -258l118 316l24 163h197l-26 -173l-196 -306h-117z" />
<glyph unicode="-" horiz-adv-x="923" d="M168 538l23 154h590l-23 -154h-590z" />
<glyph unicode="." horiz-adv-x="548" d="M81 0l30 202h197l-30 -202h-197z" />
<glyph unicode="/" horiz-adv-x="850" d="M-83 -125l845 1581h167l-844 -1581h-168z" />
<glyph unicode="0" horiz-adv-x="1153" d="M110 514l64 428q38 254 184 394.5t359 140.5q204 0 312 -146t72 -389l-64 -428q-39 -256 -184 -395.5t-359 -139.5q-203 0 -312 145.5t-72 389.5zM301 474q-25 -163 31.5 -252t184.5 -89q122 0 207.5 92.5t109.5 248.5l76 509q24 163 -32 251t-185 88q-121 0 -206.5 -92 t-109.5 -247z" />
<glyph unicode="1" horiz-adv-x="1153" d="M306 1271l22 152l524 54l-222 -1477h-198l191 1274z" />
<glyph unicode="2" horiz-adv-x="1153" d="M75 0l19 135l533 545q143 148 198.5 235.5t68.5 176.5q14 105 -35 167.5t-155 62.5q-124 0 -205.5 -80t-97.5 -196h-189l-2 6q21 185 161 305t355 120q188 0 288 -109.5t77 -277.5q-18 -121 -94 -226t-234 -275l-426 -429l2 -6h662l-22 -154h-904z" />
<glyph unicode="3" horiz-adv-x="1153" d="M97 378l2 6h189q-17 -110 48.5 -180.5t187.5 -70.5q115 0 197.5 75.5t100.5 193.5q21 142 -32 207.5t-190 65.5h-162l5 32l13 88l5 33h162q126 0 193.5 66.5t85.5 182.5q17 114 -32 179.5t-168 65.5q-110 0 -197.5 -71.5t-102.5 -175.5h-188l-2 6q21 170 166 283t348 113 q195 0 298 -103.5t74 -300.5q-16 -107 -82 -190.5t-170 -128.5q102 -46 147 -135t27 -213q-32 -208 -173 -317.5t-346 -109.5q-179 0 -307.5 110.5t-96.5 288.5z" />
<glyph unicode="4" horiz-adv-x="1153" d="M42 336l17 111l764 1009h208l-145 -966h202l-24 -154h-201l-50 -336h-196l50 336h-625zM277 490h413l102 680l-5 2l-26 -48z" />
<glyph unicode="5" horiz-adv-x="1153" d="M133 378l2 5h179q-19 -123 39.5 -186.5t169.5 -63.5q120 0 204.5 89t107.5 240q21 144 -35 227.5t-181 83.5q-111 0 -171 -36t-95 -107l-161 17l205 809h729l-26 -175h-563l-110 -419q52 35 112.5 57.5t133.5 23.5q202 2 297.5 -126.5t62.5 -352.5q-35 -227 -170.5 -356 t-362.5 -129q-179 0 -289.5 101.5t-77.5 297.5z" />
<glyph unicode="6" horiz-adv-x="1153" d="M140 552l50 335q40 266 208.5 428t384.5 162q82 0 166 -17.5t134 -42.5l-65 -151q-53 25 -114 40.5t-145 15.5q-132 0 -238 -118t-132 -295l-16 -109q70 60 158 93.5t185 33.5q180 0 274 -127t65 -330q-36 -232 -176.5 -361.5t-350.5 -129.5q-195 0 -311.5 154.5 t-76.5 418.5zM333 533q-29 -192 35 -296t183 -104q118 0 201 94.5t106 242.5q21 147 -37.5 228.5t-189.5 81.5q-91 0 -164 -41t-120 -110z" />
<glyph unicode="7" horiz-adv-x="1153" d="M212 1301l23 155h966l-23 -155q-325 -328 -459.5 -579t-181.5 -563l-24 -159h-197l24 159q51 344 208 598t436 544h-772z" />
<glyph unicode="8" horiz-adv-x="1153" d="M82 400q19 129 109.5 222t228.5 135q-104 44 -157.5 130t-36.5 197q29 198 165 295.5t336 97.5q179 0 286 -102t80 -291q-19 -119 -95 -205t-189 -127q115 -46 176.5 -139t44.5 -213q-32 -209 -176.5 -315t-349.5 -106q-207 0 -330 111t-92 310zM280 404 q-20 -127 49.5 -199t197.5 -72q110 0 199.5 75t108.5 196q18 123 -47.5 198t-180.5 75q-119 0 -214.5 -77.5t-112.5 -195.5zM422 1081q-17 -115 42.5 -182t167.5 -67q93 0 169.5 69.5t93.5 179.5q16 109 -39 175t-153 66q-103 0 -184 -66t-97 -175z" />
<glyph unicode="9" horiz-adv-x="1153" d="M119 42l53 150q62 -32 123 -45.5t146 -13.5q137 0 241.5 99t131.5 277l17 117q-58 -69 -134 -103t-162 -34q-202 0 -306 131t-69 358q34 229 180.5 364t335.5 135q210 0 325 -138t78 -386l-66 -442q-39 -261 -201.5 -396.5t-393.5 -135.5q-74 0 -154 16t-145 47zM357 978 q-24 -156 27.5 -245.5t173.5 -89.5q99 0 178 48.5t123 121.5l26 169q25 170 -34.5 255t-192.5 85q-103 0 -191 -96t-110 -248z" />
<glyph unicode=":" horiz-adv-x="517" d="M81 0l30 202h197l-30 -202h-197zM212 876l30 202h197l-30 -202h-197z" />
<glyph unicode=";" horiz-adv-x="525" d="M-20 -258l118 316l24 163h197l-26 -173l-196 -306h-117zM213 876l30 202h197l-30 -202h-197z" />
<glyph unicode="&#x3c;" horiz-adv-x="1040" d="M64 486l16 108l6 41l873 378l-30 -201l-594 -233l-88 -18v-6l81 -19l525 -228l-30 -201z" />
<glyph unicode="=" horiz-adv-x="1153" d="M133 407l25 164h834l-25 -164h-834zM195 823l25 164h834l-25 -164h-834z" />
<glyph unicode="&#x3e;" horiz-adv-x="1072" d="M69 87l29 196l634 238l88 18v6l-81 19l-563 234l29 195l799 -378l-6 -40l-10 -69l-6 -40z" />
<glyph unicode="?" horiz-adv-x="974" d="M149 1122q22 161 153 258t311 97q189 0 286.5 -101.5t70.5 -279.5q-20 -135 -103.5 -236.5t-221.5 -218.5q-62 -54 -80 -97t-31 -134h-197q23 146 55 201.5t148 147.5q116 116 167.5 179.5t65.5 152.5q16 110 -31.5 165t-153.5 55q-88 0 -161.5 -50t-87.5 -145h-188z M273 0l31 208h206l-31 -208h-206z" />
<glyph unicode="@" horiz-adv-x="1833" d="M106 478q82 423 352 688t642 265q365 0 536.5 -252.5t90.5 -676.5q-41 -214 -175 -368.5t-355 -154.5q-70 0 -118 42t-60 118q-62 -81 -140 -120.5t-174 -39.5q-121 0 -173.5 121.5t-6.5 315.5q63 260 200.5 416t302.5 156q100 0 163.5 -27t128.5 -79l-4 -4h6l-139 -585 q-26 -110 -1.5 -151.5t75.5 -41.5q118 0 211.5 115t127.5 287q74 382 -54 595.5t-464 213.5q-296 0 -524.5 -233.5t-298.5 -599.5q-74 -376 61 -594.5t449 -218.5q85 0 180 21.5t162 56.5l22 -107q-73 -42 -180 -65.5t-206 -23.5q-366 0 -542 252t-95 679zM691.5 200 q21.5 -74 95.5 -74q62 0 120 25t111 89q1 13 3.5 26.5t6.5 26.5l128 538q-25 12 -52 19t-58 7q-120 0 -205.5 -111t-138.5 -330q-32 -142 -10.5 -216z" />
<glyph unicode="A" horiz-adv-x="1295" d="M-37 0l743 1456h169l296 -1456h-201l-71 375h-549l-186 -375h-201zM432 540h435l-118 625l-6 1z" />
<glyph unicode="B" horiz-adv-x="1302" d="M90 0l218 1456h475q219 0 337 -100q95 -80 96 -221q0 -35 -6 -73q-15 -97 -83 -171t-170 -112q139 -21 207 -125q52 -80 52 -181q0 -30 -5 -62q-32 -208 -175 -309.5t-369 -101.5h-577zM310 154h380q130 0 217 67t105 188q4 27 4 52q0 89 -50 145q-64 72 -194 77h-13 h-370zM412 837h320q106 0 186 61t96 168q4 26 4 50q0 84 -51 128q-65 56 -207 57h-278z" />
<glyph unicode="C" horiz-adv-x="1297" d="M128 598l39 259q41 279 221 449.5t430 170.5q238 -1 368 -133q102 -104 102 -258q0 -43 -7 -89l-3 -6h-189q5 37 5 70q0 109 -58 175q-76 86 -242 86q-158 0 -279.5 -134.5t-150.5 -328.5l-39 -261q-9 -60 -10 -114q0 -131 56 -222q78 -129 245 -129q158 0 264 89.5 t130 243.5h188l2 -6q-28 -213 -195 -347t-412 -134q-237 1 -371 177q-103 135 -104 323q0 57 10 119z" />
<glyph unicode="D" horiz-adv-x="1387" d="M90 0l218 1456h458q275 0 427 -178q120 -140 120 -339q0 -54 -9 -112l-30 -199q-44 -289 -240.5 -458.5t-485.5 -169.5h-458zM310 154h261q194 0 334.5 134.5t171.5 339.5l30 201q8 53 8 101q0 144 -72 242q-96 130 -300 129h-261z" />
<glyph unicode="E" horiz-adv-x="1130" d="M90 0l218 1456h886l-23 -155h-690l-70 -471h599l-24 -155h-598l-78 -521h700l-23 -154h-897z" />
<glyph unicode="F" horiz-adv-x="1130" d="M90 0l218 1456h913l-23 -155h-716l-76 -502h615l-23 -155h-615l-96 -644h-197z" />
<glyph unicode="G" horiz-adv-x="1387" d="M128 578l45 300q41 275 223 437t436 162q233 0 360 -131q99 -103 99 -247q0 -39 -7 -81l-3 -6h-189q4 30 4 57q0 99 -56 167q-73 86 -232 86q-160 0 -284.5 -126t-152.5 -316l-45 -302q-8 -52 -8 -99q0 -134 66 -224q89 -122 259 -122q123 0 207.5 34.5t126.5 78.5 l49 328h-330l23 154h527l-80 -532q-64 -81 -203 -149t-343 -68q-243 0 -388 169q-113 131 -113 321q0 52 9 109z" />
<glyph unicode="H" horiz-adv-x="1441" d="M90 0l218 1456h197l-99 -658h707l99 658h197l-218 -1456h-197l96 643h-707l-96 -643h-197z" />
<glyph unicode="I" horiz-adv-x="579" d="M110 0l218 1456h198l-218 -1456h-198z" />
<glyph unicode="J" horiz-adv-x="1123" d="M58 396l2 5h190q-6 -40 -6 -74q0 -85 38 -131q52 -63 170 -63q105 0 187.5 79.5t102.5 209.5l155 1034h197l-155 -1034q-32 -211 -171.5 -327t-338.5 -116q-193 0 -299 107q-81 81 -81 216q0 44 9 94z" />
<glyph unicode="K" horiz-adv-x="1226" d="M73 0l218 1456h197l-95 -633h128l545 633h242l2 -5l-655 -724l462 -727h-225l-407 658h-117l-98 -658h-197z" />
<glyph unicode="L" horiz-adv-x="1126" d="M90 0l218 1456h197l-195 -1302h710l-23 -154h-907z" />
<glyph unicode="M" horiz-adv-x="1779" d="M90 0l218 1456h259l286 -1183l6 -1l642 1184h245l-218 -1456h-197l163 1090l-6 2l-604 -1092h-137l-285 1128h-6l-169 -1128h-197z" />
<glyph unicode="N" horiz-adv-x="1442" d="M90 0l218 1456h197l535 -1112l6 1l166 1111h197l-218 -1456h-197l-535 1113l-6 -1l-166 -1112h-197z" />
<glyph unicode="O" horiz-adv-x="1396" d="M123 598l39 259q41 277 225 448.5t442 171.5q253 -1 397 -179q113 -140 114 -333q0 -52 -9 -108l-39 -259q-43 -278 -232 -448.5t-456 -170.5q-246 -1 -384 177q-107 138 -106 327q0 56 9 115zM320 598q-9 -58 -9 -110q0 -134 60 -224q83 -124 257 -124q176 0 306 129 t161 329l39 261q8 53 8 100q0 139 -66 231q-88 124 -272 125q-165 0 -290.5 -129.5t-154.5 -326.5z" />
<glyph unicode="P" horiz-adv-x="1302" d="M90 0l218 1456h557q223 0 339 -121q93 -97 93 -242q0 -35 -5 -73q-32 -206 -176.5 -321t-380.5 -115h-361l-87 -584h-197zM397 738h361q142 0 230 80.5t106 199.5q4 29 4 55q0 88 -46 149q-60 79 -210 79h-360z" />
<glyph unicode="Q" horiz-adv-x="1427" d="M123 598l39 259q41 277 225 448.5t442 171.5q253 0 397 -179q113 -140 113 -333q0 -52 -8 -108l-39 -259q-19 -120 -67 -222.5t-120 -181.5l183 -208l-154 -129l-188 210q-76 -44 -162.5 -66t-179.5 -22q-246 0 -384 177q-106 138 -106 327q0 56 9 115zM320 598 q-9 -58 -9 -110q0 -134 60 -224q83 -124 257 -124q176 0 306 129t161 329l39 261q8 53 8 100q0 139 -66 231q-88 125 -272 125q-165 0 -290.5 -129.5t-154.5 -326.5z" />
<glyph unicode="R" horiz-adv-x="1303" d="M90 0l218 1455h498q230 0 344 -107q91 -85 92 -228q0 -38 -7 -79q-18 -118 -89 -199.5t-192 -128.5q111 -41 153 -129q29 -62 29 -141q0 -34 -5 -72l-21 -137q-7 -42 -6 -78q0 -24 2 -46q8 -52 40 -86l-4 -24h-203q-34 34 -35 99v12q0 60 9 125l20 133q4 29 4 56 q1 85 -43 137q-58 70 -175 69h-338l-94 -631h-197zM404 786h282q160 0 246 64.5t106 192.5q5 30 5 57q-1 86 -47 136q-60 66 -213 65h-301z" />
<glyph unicode="S" horiz-adv-x="1243" d="M107 423l3 6h188q-4 -30 -5 -56q0 -116 86 -172q105 -68 263 -68q115 0 202 56.5t101 144.5q3 22 3 42q0 84 -54 139q-67 69 -256 131q-230 70 -334 175q-81 82 -80 218q0 38 6 81q25 170 163.5 263.5t341.5 93.5q235 0 366 -119q103 -93 103 -241q0 -41 -8 -85l-2 -6 h-189q4 25 4 48q0 98 -65 166q-80 82 -233 82q-113 0 -192.5 -57.5t-91.5 -142.5q-4 -28 -4 -52q1 -82 47 -130q60 -62 261 -130q235 -78 337 -180q80 -80 80 -214q0 -38 -6 -80q-27 -177 -168.5 -267t-354.5 -90q-235 0 -393 108q-127 87 -127 251q0 40 8 85z" />
<glyph unicode="T" horiz-adv-x="1225" d="M152 1301l23 155h1151l-23 -155h-480l-195 -1301h-197l195 1301h-474z" />
<glyph unicode="U" horiz-adv-x="1386" d="M140 489l145 967h197l-145 -967q-6 -42 -7 -80q0 -116 62 -185q81 -91 234 -91q154 0 271.5 95t142.5 261l145 967h197l-145 -967q-37 -249 -211 -379.5t-423 -130.5q-229 1 -364 137q-107 108 -107 278q0 45 8 95z" />
<glyph unicode="V" horiz-adv-x="1295" d="M160 1456h214l215 -1074l15 -120l6 -1l51 121l537 1074h213l-759 -1456h-169z" />
<glyph unicode="W" horiz-adv-x="1763" d="M175 1456h213l70 -951l-4 -191l6 -1l63 192l400 951h193l118 -951l4 -194l6 -1l57 195l350 951h214l-570 -1456h-176l-139 1010l-3 130l-6 1l-40 -131l-447 -1010h-176z" />
<glyph unicode="X" horiz-adv-x="1295" d="M-14 0l582 734l-354 722h236l253 -568l425 568h238l-570 -722l362 -734h-235l-262 578l-437 -578h-238z" />
<glyph unicode="Y" horiz-adv-x="1295" d="M178 1456h225l270 -740l490 740h225l-652 -944l-77 -512h-196l79 527z" />
<glyph unicode="Z" horiz-adv-x="1145" d="M41 0l2 146l816 1155h-666l23 155h894l-21 -141l-820 -1161h740l-23 -154h-945z" />
<glyph unicode="[" horiz-adv-x="552" d="M24 -312l277 1976h385l-22 -155h-188l-233 -1666h188l-22 -155h-385z" />
<glyph unicode="\" horiz-adv-x="846" d="M177 1456h186l371 -1581h-186z" />
<glyph unicode="]" horiz-adv-x="552" d="M-108 -312l22 155h189l233 1666h-189l22 155h386l-277 -1976h-386z" />
<glyph unicode="^" horiz-adv-x="856" d="M90 729l408 727h134l189 -727h-181l-103 419l-5 69l-6 1l-27 -70l-226 -419h-183z" />
<glyph unicode="_" horiz-adv-x="931" d="M-99 -154l23 154h923l-23 -154h-923z" />
<glyph unicode="`" horiz-adv-x="641" d="M219 1513l3 5h231l137 -266h-158z" />
<glyph unicode="a" horiz-adv-x="1126" d="M72 304q23 160 160 245t355 85h214l16 107q3 23 3 44q0 69 -38 109q-50 54 -156 53q-91 0 -160 -48t-78 -115l-188 -2l-1 6q12 123 143 218.5t318 95.5q177 0 278 -94q81 -76 80 -203q0 -31 -4 -66l-78 -521q-10 -62 -12 -114v-16q0 -44 7 -88h-203q-2 56 -2 90.5t4 70.5 q-67 -77 -163.5 -129.5t-197.5 -52.5q-163 -1 -241 87q-61 68 -61 173q0 31 5 65zM268 300q-3 -18 -3 -34q-1 -52 29 -82q38 -40 129 -40q102 0 198 56t133 126l27 175h-221q-115 0 -198 -61t-94 -140z" />
<glyph unicode="b" d="M63 0l234 1560h197l-91 -606q63 72 144 110t181 38q192 0 284 -162q65 -114 65 -276q0 -67 -12 -143l-3 -21q-37 -243 -169 -382t-331 -139q-105 0 -178 44t-114 129l-56 -152h-151zM306 308q26 -80 81 -124.5t149 -44.5q134 0 219.5 100.5t109.5 260.5l3 21 q11 70 11 130q0 105 -33 177q-51 114 -192 114q-88 0 -158.5 -45.5t-119.5 -122.5z" />
<glyph unicode="c" horiz-adv-x="1072" d="M95 520l6 42q36 237 182 388.5t375 151.5q175 0 277 -113q79 -88 79 -206q0 -33 -6 -69l-2 -5h-180q3 23 3 44q0 75 -41 127q-53 68 -153 67q-139 0 -226 -114.5t-110 -270.5l-6 -42q-9 -58 -9 -109q0 -97 32 -169q49 -110 197 -109q87 0 165.5 61t92.5 148h178l2 -6 q-18 -146 -156.5 -251.5t-304.5 -105.5q-218 1 -324 157q-80 118 -79 277q0 51 8 107z" />
<glyph unicode="d" d="M93 500l3 21q40 271 174 426t337 155q93 0 161.5 -37t111.5 -107l90 602h197l-234 -1560h-151l-9 137q-65 -78 -149 -118t-187 -40q-191 0 -285 145q-68 106 -68 257q0 56 9 119zM290 500q-9 -56 -8 -104q0 -97 34 -161q52 -96 195 -96q85 0 152 41t117 114l75 501 q-28 68 -82.5 107.5t-139.5 39.5q-136 0 -224.5 -118.5t-115.5 -302.5z" />
<glyph unicode="e" horiz-adv-x="1072" d="M95 520l7 44q35 242 190.5 390t352.5 148q209 0 301 -137q68 -101 68 -247q0 -52 -9 -110l-15 -104h-700q-7 -49 -7 -93q0 -109 41 -179q57 -100 207 -99q96 0 178.5 29t142.5 78l58 -128q-66 -56 -167 -94.5t-235 -38.5q-224 0 -336 151q-85 114 -86 279q0 53 9 111z M327 665l2 -6h487l2 16q5 34 5 64q0 79 -33 133q-46 76 -168 75q-99 0 -179.5 -80t-115.5 -202z" />
<glyph unicode="f" horiz-adv-x="674" d="M116 936l22 146h169l21 137q27 180 130 271t267 91q33 0 68 -6t74 -15l-46 -150q-18 4 -43.5 7t-52.5 3q-83 0 -134.5 -52.5t-65.5 -148.5l-21 -137h196l-22 -146h-196l-140 -936h-197l140 936h-169z" />
<glyph unicode="g" d="M92 -357l53 153q53 -30 130.5 -48.5t155.5 -18.5q138 0 216.5 66.5t98.5 198.5l18 123q-63 -68 -142.5 -103t-175.5 -35q-190 0 -284 145q-68 106 -68 257q0 56 9 119l3 21q40 271 174 426t336 155q101 0 173 -43t114 -124l46 147h157l-163 -1088q-33 -216 -168.5 -323.5 t-366.5 -107.5q-75 0 -164 22t-152 58zM300 500q-9 -56 -9 -104q0 -97 35 -161q53 -96 194 -96q86 0 153 41.5t118 116.5l75 495q-29 69 -83.5 109.5t-140.5 40.5q-135 0 -223.5 -119t-115.5 -302z" />
<glyph unicode="h" d="M63 0l234 1560h197l-93 -617q68 76 155 117.5t187 41.5q167 0 251 -105q61 -77 60 -211q0 -50 -8 -108l-102 -678h-197l102 680q6 42 6 77q0 80 -33 123q-48 62 -163 62q-85 0 -156.5 -36t-121.5 -100l-121 -806h-197z" />
<glyph unicode="i" horiz-adv-x="516" d="M79 0l162 1082h197l-162 -1082h-197zM283 1359l30 201h197l-30 -201h-197z" />
<glyph unicode="j" horiz-adv-x="530" d="M-209 -419l37 155q13 -5 39.5 -8.5t42.5 -3.5q64 0 109.5 44.5t60.5 142.5l175 1171h197l-175 -1171q-27 -173 -125 -260.5t-253 -87.5q-29 0 -55 4.5t-53 13.5zM291 1363l30 197h197l-30 -197h-197z" />
<glyph unicode="k" horiz-adv-x="1050" d="M64 0l234 1560h197l-136 -904h99l389 426h228l3 -6l-462 -493l339 -583h-233l-284 499h-102l-75 -499h-197z" />
<glyph unicode="l" horiz-adv-x="516" d="M79 0l234 1560h197l-234 -1560h-197z" />
<glyph unicode="m" horiz-adv-x="1790" d="M63 0l162 1082h176l-7 -137q64 76 151 116.5t197 40.5q103 0 174 -50t96 -149q64 93 156.5 146t206.5 53q159 0 241 -114q58 -82 58 -220q0 -56 -10 -121l-97 -647h-197l97 649q9 60 9 106q0 83 -28 123q-44 64 -156 64q-97 0 -171.5 -71t-102.5 -177q-1 -2 -1 -3.5v-3.5 l-103 -687h-198l97 649q8 55 8 98q1 83 -29 127q-46 68 -154 68q-88 0 -152.5 -39.5t-106.5 -109.5l-119 -793h-197z" />
<glyph unicode="n" d="M63 0l162 1082h176l-9 -155q66 84 154.5 129.5t192.5 45.5q169 0 253 -104q60 -75 60 -206q0 -50 -9 -109l-102 -683h-197l102 679q7 47 7 85q0 80 -32 120q-47 58 -165 58q-88 0 -158 -38.5t-118 -106.5l-120 -797h-197z" />
<glyph unicode="o" d="M96 529l4 22q37 249 188.5 400t376.5 151q215 0 327 -156q85 -119 85 -286q0 -52 -8 -109l-4 -22q-38 -251 -189 -400.5t-377 -149.5q-215 0 -327 156q-84 118 -85 283q0 53 9 111zM293 529q-9 -58 -9 -109q0 -105 38 -178q56 -109 200 -109q135 0 227.5 113.5 t118.5 282.5l4 22q8 55 8 104q0 106 -38 182q-56 110 -200 110q-136 0 -228.5 -114.5t-116.5 -281.5z" />
<glyph unicode="p" d="M1 -416l224 1498h151l10 -140q65 78 150 119t190 41q193 0 284 -162q64 -113 64 -275q0 -68 -11 -144l-3 -21q-37 -243 -168.5 -382t-330.5 -139q-97 0 -168 35.5t-115 104.5l-80 -535h-197zM301 275q28 -67 82 -104.5t141 -37.5q134 0 224.5 103.5t114.5 263.5l3 21 q10 66 10 123q0 108 -36 183q-55 115 -197 115q-82 0 -148.5 -39.5t-115.5 -107.5z" />
<glyph unicode="q" d="M93 500l3 21q40 271 174 426t337 155q96 0 165.5 -39t111.5 -113l49 132h151l-224 -1498h-197l77 518q-60 -61 -136 -92t-167 -31q-191 0 -285 145q-68 106 -68 257q0 56 9 119zM290 500q-9 -57 -9 -105q0 -98 35 -163q52 -99 194 -99q78 0 142 37t114 104l81 542 q-29 61 -82 96t-131 35q-136 0 -225 -121t-116 -305z" />
<glyph unicode="r" horiz-adv-x="717" d="M63 0l162 1082h176l-4 -153q58 82 132 127.5t163 45.5q21 0 41.5 -3.5t32.5 -7.5l-55 -183l-100 6q-77 0 -136 -38.5t-100 -108.5l-115 -767h-197z" />
<glyph unicode="s" horiz-adv-x="1071" d="M80 329l2 6h189q-1 -13 -1 -24q0 -85 58 -129q66 -48 164 -49q101 0 168 45t78 113q2 12 2 22q0 52 -36 85q-43 40 -178 71q-186 41 -278 115q-77 62 -78 159q0 19 3 39q19 138 143.5 229t305.5 91q176 0 280 -101q85 -83 86 -186q0 -23 -5 -46l-2 -6h-189q2 11 2 22 q0 58 -45 106q-53 56 -148 56q-100 0 -160.5 -47.5t-69.5 -111.5q-2 -12 -2 -24q0 -49 32 -76q39 -34 176 -63q193 -42 285 -119q78 -65 78 -163q0 -18 -3 -38q-21 -149 -149 -237.5t-318 -88.5q-198 0 -306 106q-88 86 -89 193q0 25 5 51z" />
<glyph unicode="t" horiz-adv-x="690" d="M108 936l22 146h172l39 261h197l-39 -261h205l-22 -146h-205l-98 -657q-4 -25 -4 -44q1 -45 19 -65q26 -30 79 -29q16 0 38.5 4.5t36.5 9.5l7 -135q-25 -18 -69.5 -29.5t-86.5 -11.5q-117 0 -179 73q-45 53 -45 148q0 36 7 79l98 657h-172z" />
<glyph unicode="u" d="M126 444l95 638h197l-96 -640q-11 -71 -11 -124q0 -80 25 -117q41 -62 151 -62q103 0 179 44.5t124 125.5l115 773h197l-162 -1082h-177l11 155q-64 -86 -150.5 -131t-192.5 -45q-171 1 -256 115q-60 80 -60 220q0 60 11 130z" />
<glyph unicode="v" horiz-adv-x="1030" d="M128 1082h202l142 -763l6 -76l6 -1l30 77l363 763h201l-560 -1082h-149z" />
<glyph unicode="w" horiz-adv-x="1550" d="M127 1082h205l67 -688l4 -138l5 -1l48 139l319 688h158l114 -688l5 -155l6 -1l55 156l263 688h206l-476 -1082h-159l-115 659l-15 171l-6 1l-64 -172l-309 -659h-159z" />
<glyph unicode="x" horiz-adv-x="1030" d="M-30 5l439 542l-271 535h227l167 -399l290 399h223l3 -5l-427 -530l279 -547h-226l-179 409l-301 -409h-221z" />
<glyph unicode="y" horiz-adv-x="1030" d="M-40 -421l43 155q-3 1 36.5 -2t50.5 -3q60 0 111.5 58.5t85.5 121.5l65 113l-244 1060h220l126 -681l15 -136l6 -1l388 818h219l-642 -1248q-58 -109 -146.5 -190t-218.5 -81q-23 0 -59 5.5t-56 10.5z" />
<glyph unicode="z" horiz-adv-x="1030" d="M14 0l21 138l698 783l-2 5h-571l23 156h819l-20 -134l-705 -789l2 -5h618l-23 -154h-860z" />
<glyph unicode="{" horiz-adv-x="696" d="M64 543l3 23l14 101l4 23q102 0 163.5 62.5t78.5 173.5l28 206q24 177 122.5 293.5t302.5 171.5l23 -117q-115 -35 -174 -125t-77 -223l-28 -206q-16 -109 -69.5 -189.5t-145.5 -123.5q77 -47 109 -127t19 -180l-29 -205q-20 -136 14 -223.5t140 -123.5l-57 -118 q-187 55 -252.5 175t-41.5 290l29 205q16 116 -26.5 176.5t-149.5 60.5z" />
<glyph unicode="|" horiz-adv-x="507" d="M25 -270l258 1726h197l-258 -1726h-197z" />
<glyph unicode="}" horiz-adv-x="696" d="M-88 -246q114 36 173 125.5t78 221.5l29 205q15 112 71.5 191.5t156.5 120.5q-86 43 -121.5 123t-19.5 185l28 206q19 136 -15 224.5t-139 123.5l58 117q186 -55 251.5 -174.5t41.5 -290.5l-28 -206q-17 -117 25 -176.5t151 -59.5l-16 -115h-1l-4 -32 q-104 0 -165.5 -63.5t-76.5 -173.5l-29 -205q-26 -176 -123.5 -293t-300.5 -172z" />
<glyph unicode="~" horiz-adv-x="1391" d="M124 479q16 137 113.5 230.5t230.5 93.5q84 0 157 -35.5t147 -103.5q52 -51 96.5 -74t95.5 -23q64 0 121.5 57t68.5 134l132 -17l2 -6q-17 -139 -116 -236.5t-231 -97.5q-86 0 -157 33.5t-145 106.5q-53 48 -98.5 72t-95.5 24q-65 0 -121 -53.5t-66 -127.5l-132 17z" />
<glyph unicode="&#xa1;" horiz-adv-x="507" d="M8 -374l147 978h197l-147 -978h-197zM195 876l31 206h197l-31 -206h-197z" />
<glyph unicode="&#xa2;" horiz-adv-x="1122" d="M95 520l6 42q31 210 151 355t310 177l34 224h198l-35 -228q132 -32 203.5 -137t50.5 -244h-187q15 103 -38 170.5t-153 67.5q-139 0 -226 -114.5t-110 -270.5l-6 -42q-26 -168 23 -277.5t197 -109.5q87 0 165.5 61t92.5 148h179l2 -6q-14 -121 -117 -217.5t-240 -127.5 l-36 -236h-198l35 233q-172 34 -252 183t-49 349z" />
<glyph unicode="&#xa3;" horiz-adv-x="1194" d="M54 0l23 154h10q50 13 89 111t54 201l16 149h-164l24 155h158l30 270q32 212 160 324.5t318 112.5q192 0 290 -105.5t69 -275.5l-3 -6h-190q18 123 -36 177.5t-154 54.5q-96 0 -167 -75t-90 -207l-31 -270h419l-24 -155h-412l-17 -149q-15 -93 -42 -173.5t-64 -138.5h734 l-24 -154h-976z" />
<glyph unicode="&#xa4;" horiz-adv-x="1456" d="M41 112l161 142q-40 76 -53.5 166t1.5 188q15 105 57.5 199.5t106.5 171.5l-121 146l160 139l118 -143q82 54 176 83.5t192 29.5q93 0 177 -32t152 -89l172 152l119 -140l-176 -156q41 -78 56 -170t1 -191q-16 -101 -54.5 -191t-96.5 -164l118 -141l-161 -139l-110 132 q-86 -61 -184.5 -93t-200.5 -32q-97 0 -184 33.5t-155 96.5l-153 -136zM332 608q-29 -195 71 -324t274 -129q164 0 307.5 133.5t171.5 319.5q28 193 -71.5 321.5t-271.5 128.5q-166 0 -309.5 -133t-171.5 -317z" />
<glyph unicode="&#xa5;" horiz-adv-x="1243" d="M107 326l18 122h375l25 167h-375l19 123h310l-311 718h226l259 -663l460 663h224l-525 -718h312l-19 -123h-383l-25 -167h383l-18 -122h-383l-49 -326h-197l49 326h-375z" />
<glyph unicode="&#xa6;" horiz-adv-x="499" d="M25 -270l118 792h197l-118 -792h-197zM170 698l113 758h197l-113 -758h-197z" />
<glyph unicode="&#xa7;" horiz-adv-x="1259" d="M4 -70l2 6l190 2q-23 -149 62.5 -213.5t223.5 -64.5q131 0 221.5 60t104.5 150q13 94 -50 142.5t-260 112.5q-230 63 -329 156t-72 270q14 94 70.5 164t148.5 111q-59 50 -82 119t-8 165q25 172 172.5 269.5t374.5 97.5q224 0 341.5 -112.5t82.5 -312.5l-2 -6h-189 q18 123 -49 199.5t-208 76.5q-140 0 -226.5 -60.5t-99.5 -149.5q-16 -103 42.5 -150t263.5 -106q234 -69 332 -159.5t72 -265.5q-15 -98 -72.5 -167.5t-150.5 -108.5q61 -50 84.5 -117.5t10.5 -165.5q-28 -179 -173 -273t-373 -94q-214 0 -353 103.5t-102 321.5zM294 553 q-16 -104 43.5 -153t263.5 -109q42 -12 80 -25t73 -26q75 21 123.5 71t58.5 117q14 94 -50 145.5t-260 115.5q-44 11 -83 24t-74 27q-74 -20 -120 -69.5t-55 -117.5z" />
<glyph unicode="&#xa8;" horiz-adv-x="1021" d="M271 1256l28 200h219l-28 -200h-219zM741 1256l28 200h219l-28 -200h-219z" />
<glyph unicode="&#xa9;" horiz-adv-x="1604" d="M117 729q49 327 285.5 537t536.5 210q283 0 463.5 -218t133.5 -529q-49 -328 -286 -539t-535 -211q-284 0 -464.5 218.5t-133.5 531.5zM238 729q-42 -276 102 -452.5t393 -176.5q235 0 439 183t244 446q41 274 -103 449.5t-392 175.5q-237 0 -440.5 -182t-242.5 -443z M456 669l18 119q26 179 135.5 283t270.5 104q152 0 231 -80t53 -228l-2 -5h-147q15 99 -23.5 140.5t-130.5 41.5q-90 0 -154 -71t-81 -184l-18 -120q-18 -122 22.5 -189.5t135.5 -67.5q88 0 140.5 43.5t67.5 140.5h145l2 -6q-19 -156 -117.5 -232t-257.5 -76 q-153 0 -234.5 107.5t-55.5 279.5z" />
<glyph unicode="&#xaa;" horiz-adv-x="917" d="M178 920q17 114 109.5 172t255.5 58h138l8 52q10 65 -14.5 98t-83.5 33q-64 0 -106 -27t-49 -76l-159 13l-2 6q10 102 103 165t235 63q129 0 198.5 -72t49.5 -204l-47 -314q-8 -51 -8 -94.5t7 -86.5h-174q-4 22 -6 46.5t-1 48.5q-40 -47 -101 -78t-138 -31 q-114 0 -172.5 62t-42.5 166zM352 924q-8 -47 17.5 -70t86.5 -23q49 0 108 30t83 65l17 110h-138q-72 0 -120 -33t-54 -79z" />
<glyph unicode="&#xab;" horiz-adv-x="966" d="M93 506l1 6l1 7l1 6l353 389h148l-315 -399l196 -398h-148zM428 506l1 6l1 7l1 6l353 389h148l-315 -399l196 -398h-148z" />
<glyph unicode="&#xac;" horiz-adv-x="1137" d="M143 637l24 165h835l-11 -76l-2 -9l-11 -80h-1l-39 -262h-198l39 262h-636z" />
<glyph unicode="&#xad;" horiz-adv-x="923" d="M168 538l23 154h590l-23 -154h-590z" />
<glyph unicode="&#xae;" horiz-adv-x="1604" d="M117 729q49 327 285.5 537t536.5 210q283 0 463.5 -218t133.5 -529q-49 -328 -286 -539t-535 -211q-284 0 -464.5 218.5t-133.5 531.5zM238 729q-42 -276 102 -452.5t393 -176.5q235 0 438.5 183t243.5 446q41 274 -102.5 449.5t-391.5 175.5q-237 0 -440.5 -182 t-242.5 -443zM471 316l128 850h280q146 0 225 -66t61 -191q-10 -65 -50 -111t-108 -77q60 -27 82.5 -80.5t12.5 -125.5l-8 -56q-7 -43 -8 -74.5t6 -52.5l-3 -16h-153q-5 21 -1.5 59t10.5 85l8 54q11 75 -17 107.5t-106 32.5h-160l-50 -338h-149zM690 784h153q65 1 115 32.5 t59 87.5q11 76 -24 104t-134 28h-131z" />
<glyph unicode="&#xaf;" horiz-adv-x="950" d="M231 1310l21 146h721l-21 -146h-721z" />
<glyph unicode="&#xb0;" horiz-adv-x="763" d="M230 1216q17 110 103.5 185.5t193.5 75.5q99 0 163.5 -78t48.5 -183q-17 -112 -101 -184.5t-189 -72.5q-102 0 -168.5 75t-50.5 182zM361 1216q-9 -57 22.5 -92t84.5 -35q50 0 91.5 36.5t50.5 90.5q8 57 -21.5 93.5t-81.5 36.5q-51 0 -94.5 -38t-51.5 -92z" />
<glyph unicode="&#xb1;" horiz-adv-x="1097" d="M63 4l23 155h835l-23 -155h-835zM122 702l22 154h380l58 411h177l-58 -411h359l-22 -154h-358l-58 -413h-177l58 413h-381z" />
<glyph unicode="&#xb2;" horiz-adv-x="868" d="M142 667l20 130l341 262q78 60 105.5 97.5t33.5 79.5q7 51 -16 81.5t-82 30.5q-64 0 -107 -32.5t-50 -81.5h-160l-2 6q9 103 102.5 171t236.5 68q130 0 198.5 -65t51.5 -179q-12 -83 -62 -135t-187 -162l-174 -135l2 -6h361l-20 -130h-592z" />
<glyph unicode="&#xb3;" horiz-adv-x="876" d="M164 882l2 6h163q-7 -48 26 -75.5t97 -27.5q69 0 117 30t55 77q9 65 -22.5 92t-105.5 27h-132l13 87l6 39h132q64 0 102 29t46 80q7 45 -25 73t-102 28q-53 0 -93 -24t-45 -64h-162l-1 6q8 98 100.5 155.5t220.5 57.5q140 0 217 -60t61 -169q-9 -58 -51 -103.5 t-107 -69.5q65 -25 96 -72t22 -114q-18 -116 -116 -175.5t-246 -59.5q-122 0 -206 58.5t-62 168.5z" />
<glyph unicode="&#xb4;" horiz-adv-x="654" d="M236 1257l218 261h229l2 -6l-306 -260h-141z" />
<glyph unicode="&#xb5;" d="M11 -416l224 1498h196l-93 -622q-30 -198 14.5 -262.5t149.5 -64.5q96 0 163.5 38.5t110.5 112.5l119 798h197l-162 -1082h-177l7 104q-53 -62 -121.5 -93.5t-151.5 -31.5q-70 0 -122.5 16.5t-88.5 53.5l-69 -465h-196z" />
<glyph unicode="&#xb6;" horiz-adv-x="1006" d="M131 988q32 214 179.5 341t382.5 127h281l-218 -1456h-197l78 520h-84q-224 0 -338.5 131t-83.5 337z" />
<glyph unicode="&#xb7;" horiz-adv-x="540" d="M175 624l31 212h198l-31 -212h-198z" />
<glyph unicode="&#xb8;" horiz-adv-x="509" d="M-19 -435l9 109q69 0 118 24.5t57 73.5q7 50 -25.5 68t-119.5 25l52 135h140l-20 -52q63 -11 100 -52t25 -121q-15 -99 -101.5 -154.5t-234.5 -55.5z" />
<glyph unicode="&#xb9;" horiz-adv-x="557" d="M213 1320l20 134l305 23l-122 -812h-174l98 655h-127z" />
<glyph unicode="&#xba;" horiz-adv-x="933" d="M194 1025l17 117q23 153 130 244t266 91q152 0 234.5 -94.5t60.5 -240.5l-17 -117q-24 -155 -129.5 -244.5t-264.5 -89.5q-152 0 -235.5 93.5t-61.5 240.5zM367 1025q-14 -91 22 -142t123 -51q79 0 133 53.5t68 139.5l17 117q13 87 -23.5 139t-121.5 52q-81 0 -134.5 -54 t-66.5 -137z" />
<glyph unicode="&#xbb;" horiz-adv-x="966" d="M62 170l288 380l-174 380h148l224 -357h5v-8l4 -6l-3 -9v-9l-6 -6l-2 -7h-4l-332 -358h-148zM408 170l288 380l-174 380h148l224 -357h5v-8l4 -6l-3 -9v-9l-6 -6l-2 -7h-4l-332 -358h-148z" />
<glyph unicode="&#xbc;" horiz-adv-x="1595" d="M287 185l881 1138l99 -67l-881 -1138zM302 1319l20 134l305 23l-122 -812h-174l98 655h-127zM736 152l7 102l504 547h173l-78 -519h126l-19 -130h-126l-23 -152h-170l23 152h-417zM934 287l2 -5h236l46 308l-5 3l-16 -22z" />
<glyph unicode="&#xbd;" horiz-adv-x="1708" d="M300 185l881 1138l99 -67l-881 -1138zM302 1319l20 134l305 23l-122 -812h-174l98 655h-127zM853 0l20 130l341 262q78 60 105.5 97.5t33.5 79.5q7 51 -16 81.5t-82 30.5q-64 0 -107 -32.5t-50 -81.5h-160l-2 6q9 103 102.5 171t236.5 68q130 0 198.5 -65t51.5 -179 q-12 -83 -62 -135t-187 -162l-174 -135l2 -6h361l-20 -130h-592z" />
<glyph unicode="&#xbe;" horiz-adv-x="1781" d="M180 883l2 6h163q-7 -48 26 -75.5t97 -27.5q69 0 117 30t55 77q9 65 -22.5 92t-105.5 27h-132l13 87l6 39h132q64 0 102 29t46 80q7 45 -25 73t-102 28q-53 0 -93 -24t-45 -64h-162l-1 6q8 98 100.5 155.5t220.5 57.5q140 0 217 -60t61 -169q-9 -58 -50.5 -103.5 t-107.5 -69.5q66 -25 96.5 -72t21.5 -114q-18 -116 -116 -175.5t-246 -59.5q-122 0 -206 58.5t-62 168.5zM470 185l881 1138l99 -67l-881 -1138zM925 152l7 102l504 547h173l-78 -519h126l-19 -130h-126l-23 -152h-170l23 152h-417zM1123 287l2 -5h236l46 308l-5 3l-16 -22z " />
<glyph unicode="&#xbf;" horiz-adv-x="1013" d="M32 -13q19 133 102 234t223 220q61 53 79 96t33 135h197q-24 -146 -56.5 -201.5t-147.5 -147.5q-120 -121 -170 -182.5t-62 -148.5q-17 -110 30.5 -165t154.5 -55q88 0 161 50t87 145h188l2 -6q-23 -161 -153.5 -258t-309.5 -97q-190 0 -287.5 101.5t-70.5 279.5z M492 874l31 209h206l-31 -209h-206z" />
<glyph unicode="&#xc0;" horiz-adv-x="1295" d="M-37 0l743 1456h169l296 -1456h-201l-71 375h-549l-186 -375h-201zM432 540h435l-118 625l-6 1zM512 1862l3 5h231l137 -266h-158z" />
<glyph unicode="&#xc1;" horiz-adv-x="1295" d="M-37 0l743 1456h169l296 -1456h-201l-71 375h-549l-186 -375h-201zM432 540h435l-118 625l-6 1zM715 1602l218 261h229l2 -6l-306 -260h-141z" />
<glyph unicode="&#xc2;" horiz-adv-x="1295" d="M-37 0l743 1456h169l296 -1456h-201l-71 375h-549l-186 -375h-201zM432 540h435l-118 625l-6 1zM502 1601l4 26l281 237h120l213 -238l-4 -25h-161l-125 148l-168 -148h-160z" />
<glyph unicode="&#xc3;" horiz-adv-x="1295" d="M-37 0l743 1456h169l296 -1456h-201l-71 375h-549l-186 -375h-201zM432 540h435l-118 625l-6 1zM458 1628q12 96 80.5 163t160.5 67q52 0 131 -47t132 -47q39 0 74 32.5t42 79.5l104 -32q-14 -97 -82 -160.5t-159 -63.5q-67 0 -139 46.5t-124 46.5q-41 0 -75.5 -33 t-40.5 -78z" />
<glyph unicode="&#xc4;" horiz-adv-x="1295" d="M-37 0l743 1456h169l296 -1456h-201l-71 375h-549l-186 -375h-201zM432 540h435l-118 625l-6 1zM457 1605l28 200h219l-28 -200h-219zM927 1605l28 200h219l-28 -200h-219z" />
<glyph unicode="&#xc5;" horiz-adv-x="1295" d="M-37 0l743 1456h169l296 -1456h-201l-71 375h-549l-186 -375h-201zM432 540h435l-118 625l-6 1zM651 1734q11 75 69.5 122t132.5 47q69 0 113 -49t34 -120q-11 -76 -67.5 -120t-129.5 -44q-71 0 -117 46t-35 118zM751 1734q-5 -32 14 -53t51 -21q29 0 54 21t30 53 q5 34 -12.5 55.5t-48.5 21.5q-30 0 -56.5 -22.5t-31.5 -54.5z" />
<glyph unicode="&#xc6;" horiz-adv-x="1999" d="M-66 0l1099 1456h967l-23 -155h-691l-50 -466h590l-23 -155h-584l-57 -526h705l-23 -154h-895l37 350h-556l-254 -350h-242zM560 529h446l76 708l-6 3z" />
<glyph unicode="&#xc7;" horiz-adv-x="1297" d="M128 598l39 259q41 279 221 449.5t430 170.5q238 0 368.5 -132.5t94.5 -347.5l-3 -6h-189q23 159 -53 245t-242 86q-158 0 -279.5 -134.5t-150.5 -328.5l-39 -261q-32 -207 46 -336t245 -129q158 0 264 89.5t130 243.5h188l2 -6q-28 -213 -195 -347t-412 -134 q-237 0 -371.5 176.5t-93.5 442.5zM442 -444l9 109q69 0 118 24.5t57 73.5q7 50 -25.5 68t-119.5 25l52 135h140l-20 -52q63 -11 100 -52t25 -121q-15 -99 -101.5 -154.5t-234.5 -55.5z" />
<glyph unicode="&#xc8;" horiz-adv-x="1130" d="M90 0l218 1456h886l-23 -155h-690l-70 -471h599l-24 -155h-598l-78 -521h700l-23 -154h-897zM483 1862l3 5h231l137 -266h-158z" />
<glyph unicode="&#xc9;" horiz-adv-x="1130" d="M90 0l218 1456h886l-23 -155h-690l-70 -471h599l-24 -155h-598l-78 -521h700l-23 -154h-897zM686 1602l218 261h229l2 -6l-306 -260h-141z" />
<glyph unicode="&#xca;" horiz-adv-x="1130" d="M90 0l218 1456h886l-23 -155h-690l-70 -471h599l-24 -155h-598l-78 -521h700l-23 -154h-897zM473 1601l4 26l281 237h120l213 -238l-4 -25h-161l-125 148l-168 -148h-160z" />
<glyph unicode="&#xcb;" horiz-adv-x="1130" d="M90 0l218 1456h886l-23 -155h-690l-70 -471h599l-24 -155h-598l-78 -521h700l-23 -154h-897zM428 1605l28 200h219l-28 -200h-219zM898 1605l28 200h219l-28 -200h-219z" />
<glyph unicode="&#xcc;" horiz-adv-x="579" d="M110 0l218 1456h198l-218 -1456h-198zM154 1862l3 5h231l137 -266h-158z" />
<glyph unicode="&#xcd;" horiz-adv-x="579" d="M110 0l218 1456h198l-218 -1456h-198zM356 1602l218 261h229l2 -6l-306 -260h-141z" />
<glyph unicode="&#xce;" horiz-adv-x="579" d="M110 0l218 1456h198l-218 -1456h-198zM144 1601l4 26l281 237h120l213 -238l-4 -25h-161l-125 148l-168 -148h-160z" />
<glyph unicode="&#xcf;" horiz-adv-x="579" d="M99 1605l28 200h219l-28 -200h-219zM110 0l218 1456h198l-218 -1456h-198zM569 1605l28 200h219l-28 -200h-219z" />
<glyph unicode="&#xd0;" horiz-adv-x="1387" d="M21 663l24 155h167l96 638h458q275 0 427 -177.5t111 -451.5l-30 -199q-44 -289 -240.5 -458.5t-485.5 -169.5h-458l99 663h-168zM310 154h261q194 0 334.5 134.5t171.5 339.5l30 201q32 213 -64 342.5t-300 129.5h-261l-73 -483h277l-24 -155h-276z" />
<glyph unicode="&#xd1;" horiz-adv-x="1442" d="M90 0l218 1456h197l535 -1112l6 1l166 1111h197l-218 -1456h-197l-535 1113l-6 -1l-166 -1112h-197zM529 1628q12 96 80.5 163t160.5 67q52 0 131 -47t132 -47q39 0 74 32.5t42 79.5l104 -32q-14 -97 -82 -160.5t-159 -63.5q-67 0 -139 46.5t-124 46.5q-41 0 -75.5 -33 t-40.5 -78z" />
<glyph unicode="&#xd2;" horiz-adv-x="1396" d="M123 598l39 259q41 277 225 448.5t442 171.5q253 0 397 -178.5t105 -441.5l-39 -259q-43 -278 -232 -448.5t-456 -170.5q-246 0 -383.5 177.5t-97.5 441.5zM320 598q-32 -209 51 -333.5t257 -124.5q176 0 306 129t161 329l39 261q30 207 -58 331.5t-272 124.5 q-165 0 -290.5 -129.5t-154.5 -326.5zM566 1883l3 5h231l137 -266h-158z" />
<glyph unicode="&#xd3;" horiz-adv-x="1396" d="M123 598l39 259q41 277 225 448.5t442 171.5q253 0 397 -178.5t105 -441.5l-39 -259q-43 -278 -232 -448.5t-456 -170.5q-246 0 -383.5 177.5t-97.5 441.5zM320 598q-32 -209 51 -333.5t257 -124.5q176 0 306 129t161 329l39 261q30 207 -58 331.5t-272 124.5 q-165 0 -290.5 -129.5t-154.5 -326.5zM768 1623l218 261h229l2 -6l-306 -260h-141z" />
<glyph unicode="&#xd4;" horiz-adv-x="1396" d="M123 598l39 259q41 277 225 448.5t442 171.5q253 0 397 -178.5t105 -441.5l-39 -259q-43 -278 -232 -448.5t-456 -170.5q-246 0 -383.5 177.5t-97.5 441.5zM320 598q-32 -209 51 -333.5t257 -124.5q176 0 306 129t161 329l39 261q30 207 -58 331.5t-272 124.5 q-165 0 -290.5 -129.5t-154.5 -326.5zM556 1622l4 26l281 237h120l213 -238l-4 -25h-161l-125 148l-168 -148h-160z" />
<glyph unicode="&#xd5;" horiz-adv-x="1396" d="M123 598l39 259q41 277 225 448.5t442 171.5q253 0 397 -178.5t105 -441.5l-39 -259q-43 -278 -232 -448.5t-456 -170.5q-246 0 -383.5 177.5t-97.5 441.5zM320 598q-32 -209 51 -333.5t257 -124.5q176 0 306 129t161 329l39 261q30 207 -58 331.5t-272 124.5 q-165 0 -290.5 -129.5t-154.5 -326.5zM511 1649q12 96 80.5 163t160.5 67q52 0 131 -47t132 -47q39 0 74 32.5t42 79.5l104 -32q-14 -97 -82 -160.5t-159 -63.5q-67 0 -139 46.5t-124 46.5q-41 0 -75.5 -33t-40.5 -78z" />
<glyph unicode="&#xd6;" horiz-adv-x="1396" d="M123 598l39 259q41 277 225 448.5t442 171.5q253 0 397 -178.5t105 -441.5l-39 -259q-43 -278 -232 -448.5t-456 -170.5q-246 0 -383.5 177.5t-97.5 441.5zM320 598q-32 -209 51 -333.5t257 -124.5q176 0 306 129t161 329l39 261q30 207 -58 331.5t-272 124.5 q-165 0 -290.5 -129.5t-154.5 -326.5zM511 1626l28 200h219l-28 -200h-219zM981 1626l28 200h219l-28 -200h-219z" />
<glyph unicode="&#xd7;" horiz-adv-x="1096" d="M61 351l377 334l-277 334l145 126l276 -333l377 333l107 -126l-378 -334l278 -334l-145 -126l-277 332l-376 -332z" />
<glyph unicode="&#xd8;" horiz-adv-x="1396" d="M53 -94l178 239q-72 84 -100.5 201t-7.5 252l39 259q41 277 225 448.5t442 171.5q92 0 172 -26.5t145 -74.5l105 141h149l-168 -226q64 -85 90.5 -196.5t8.5 -237.5l-39 -259q-43 -278 -232 -448.5t-456 -170.5q-83 0 -154.5 21t-130.5 63l-117 -157h-149zM313.5 436.5 q7.5 -73.5 34.5 -124.5l6 -1l685 922q-43 39 -102.5 60.5t-132.5 21.5q-165 0 -290.5 -129.5t-154.5 -326.5l-39 -261q-14 -88 -6.5 -161.5zM425 205q38 -32 89.5 -48.5t113.5 -16.5q176 0 306 129t161 329l39 261q11 78 5 145t-27 116l-6 1z" />
<glyph unicode="&#xd9;" horiz-adv-x="1386" d="M140 489l145 967h197l-145 -967q-26 -174 55 -265t234 -91q154 0 271.5 95t142.5 261l145 967h197l-145 -967q-37 -249 -211 -379.5t-423 -130.5q-229 0 -364 136.5t-99 373.5zM561 1862l3 5h231l137 -266h-158z" />
<glyph unicode="&#xda;" horiz-adv-x="1386" d="M140 489l145 967h197l-145 -967q-26 -174 55 -265t234 -91q154 0 271.5 95t142.5 261l145 967h197l-145 -967q-37 -249 -211 -379.5t-423 -130.5q-229 0 -364 136.5t-99 373.5zM764 1602l218 261h229l2 -6l-306 -260h-141z" />
<glyph unicode="&#xdb;" horiz-adv-x="1386" d="M140 489l145 967h197l-145 -967q-26 -174 55 -265t234 -91q154 0 271.5 95t142.5 261l145 967h197l-145 -967q-37 -249 -211 -379.5t-423 -130.5q-229 0 -364 136.5t-99 373.5zM551 1601l4 26l281 237h120l213 -238l-4 -25h-161l-125 148l-168 -148h-160z" />
<glyph unicode="&#xdc;" horiz-adv-x="1386" d="M140 489l145 967h197l-145 -967q-26 -174 55 -265t234 -91q154 0 271.5 95t142.5 261l145 967h197l-145 -967q-37 -249 -211 -379.5t-423 -130.5q-229 0 -364 136.5t-99 373.5zM506 1605l28 200h219l-28 -200h-219zM976 1605l28 200h219l-28 -200h-219z" />
<glyph unicode="&#xdd;" horiz-adv-x="1295" d="M178 1456h225l270 -740l490 740h225l-652 -944l-77 -512h-196l79 527zM713 1601l218 261h229l2 -6l-306 -260h-141z" />
<glyph unicode="&#xde;" horiz-adv-x="1209" d="M83 0l218 1456h197l-44 -293h269q223 0 339.5 -119.5t89.5 -305.5q-30 -197 -176 -311t-380 -114h-269l-47 -313h-197zM350 467h269q141 0 229 79t105 190q17 118 -44 195.5t-209 77.5h-269z" />
<glyph unicode="&#xdf;" horiz-adv-x="1221" d="M57 0l162 1082q35 231 169 352t320 121q155 0 245.5 -87t66.5 -252q-19 -125 -99.5 -232t-88.5 -163q-13 -87 139 -227t132 -278q-26 -173 -141.5 -255t-295.5 -82q-81 0 -168 20.5t-119 50.5l67 159q39 -28 100.5 -52t122.5 -24q103 0 163.5 48t72.5 125 q13 89 -139.5 230.5t-130.5 286.5q13 85 99.5 193.5t98.5 183.5q14 98 -28 149.5t-110 51.5q-100 0 -178.5 -84t-101.5 -235l-162 -1082h-196z" />
<glyph unicode="&#xe0;" horiz-adv-x="1126" d="M72 304q23 160 160 245t355 85h214l16 107q15 99 -34.5 152.5t-156.5 53.5q-91 0 -160 -48t-78 -115l-188 -2l-1 6q12 123 143 218.5t318 95.5q177 0 278 -94.5t76 -268.5l-78 -521q-10 -61 -11.5 -113.5t6.5 -104.5h-203q-2 56 -2 90.5t4 70.5q-67 -77 -163.5 -129.5 t-197.5 -52.5q-163 0 -241.5 87.5t-55.5 237.5zM268 300q-12 -75 26.5 -115.5t128.5 -40.5q102 0 198 56t133 126l27 175h-221q-115 0 -198 -61t-94 -140zM371 1540l3 5h231l137 -266h-158z" />
<glyph unicode="&#xe1;" horiz-adv-x="1126" d="M72 304q23 160 160 245t355 85h214l16 107q15 99 -34.5 152.5t-156.5 53.5q-91 0 -160 -48t-78 -115l-188 -2l-1 6q12 123 143 218.5t318 95.5q177 0 278 -94.5t76 -268.5l-78 -521q-10 -61 -11.5 -113.5t6.5 -104.5h-203q-2 56 -2 90.5t4 70.5q-67 -77 -163.5 -129.5 t-197.5 -52.5q-163 0 -241.5 87.5t-55.5 237.5zM268 300q-12 -75 26.5 -115.5t128.5 -40.5q102 0 198 56t133 126l27 175h-221q-115 0 -198 -61t-94 -140zM573 1280l218 261h229l2 -6l-306 -260h-141z" />
<glyph unicode="&#xe2;" horiz-adv-x="1126" d="M72 304q23 160 160 245t355 85h214l16 107q15 99 -34.5 152.5t-156.5 53.5q-91 0 -160 -48t-78 -115l-188 -2l-1 6q12 123 143 218.5t318 95.5q177 0 278 -94.5t76 -268.5l-78 -521q-10 -61 -11.5 -113.5t6.5 -104.5h-203q-2 56 -2 90.5t4 70.5q-67 -77 -163.5 -129.5 t-197.5 -52.5q-163 0 -241.5 87.5t-55.5 237.5zM268 300q-12 -75 26.5 -115.5t128.5 -40.5q102 0 198 56t133 126l27 175h-221q-115 0 -198 -61t-94 -140zM361 1279l4 26l281 237h120l213 -238l-4 -25h-161l-125 148l-168 -148h-160z" />
<glyph unicode="&#xe3;" horiz-adv-x="1126" d="M72 304q23 160 160 245t355 85h214l16 107q15 99 -34.5 152.5t-156.5 53.5q-91 0 -160 -48t-78 -115l-188 -2l-1 6q12 123 143 218.5t318 95.5q177 0 278 -94.5t76 -268.5l-78 -521q-10 -61 -11.5 -113.5t6.5 -104.5h-203q-2 56 -2 90.5t4 70.5q-67 -77 -163.5 -129.5 t-197.5 -52.5q-163 0 -241.5 87.5t-55.5 237.5zM268 300q-12 -75 26.5 -115.5t128.5 -40.5q102 0 198 56t133 126l27 175h-221q-115 0 -198 -61t-94 -140zM317 1306q12 96 80.5 163t160.5 67q52 0 131 -47t132 -47q39 0 74 32.5t42 79.5l104 -32q-14 -97 -82 -160.5 t-159 -63.5q-67 0 -139 46.5t-124 46.5q-41 0 -75.5 -33t-40.5 -78z" />
<glyph unicode="&#xe4;" horiz-adv-x="1126" d="M72 304q23 160 160 245t355 85h214l16 107q15 99 -34.5 152.5t-156.5 53.5q-91 0 -160 -48t-78 -115l-188 -2l-1 6q12 123 143 218.5t318 95.5q177 0 278 -94.5t76 -268.5l-78 -521q-10 -61 -11.5 -113.5t6.5 -104.5h-203q-2 56 -2 90.5t4 70.5q-67 -77 -163.5 -129.5 t-197.5 -52.5q-163 0 -241.5 87.5t-55.5 237.5zM268 300q-12 -75 26.5 -115.5t128.5 -40.5q102 0 198 56t133 126l27 175h-221q-115 0 -198 -61t-94 -140zM316 1283l28 200h219l-28 -200h-219zM786 1283l28 200h219l-28 -200h-219z" />
<glyph unicode="&#xe5;" horiz-adv-x="1126" d="M72 304q23 160 160 245t355 85h214l16 107q15 99 -34.5 152.5t-156.5 53.5q-91 0 -160 -48t-78 -115l-188 -2l-1 6q12 123 143 218.5t318 95.5q177 0 278 -94.5t76 -268.5l-78 -521q-10 -61 -11.5 -113.5t6.5 -104.5h-203q-2 56 -2 90.5t4 70.5q-67 -77 -163.5 -129.5 t-197.5 -52.5q-163 0 -241.5 87.5t-55.5 237.5zM268 300q-12 -75 26.5 -115.5t128.5 -40.5q102 0 198 56t133 126l27 175h-221q-115 0 -198 -61t-94 -140zM510 1412q11 75 69.5 122t132.5 47q69 0 113 -49t34 -120q-11 -76 -67.5 -120t-129.5 -44q-71 0 -117 46t-35 118z M610 1412q-5 -32 14 -53t51 -21q29 0 54 21t30 53q5 34 -12.5 55.5t-48.5 21.5q-30 0 -56.5 -22.5t-31.5 -54.5z" />
<glyph unicode="&#xe6;" horiz-adv-x="1789" d="M54 304q23 163 149.5 246t349.5 83h229l13 87q16 110 -26.5 168.5t-140.5 58.5q-99 0 -170.5 -55.5t-82.5 -132.5l-184 18l-2 6q16 143 143 231t319 88q108 0 189.5 -40.5t122.5 -116.5q74 75 168.5 116t198.5 41q206 0 305.5 -131.5t66.5 -356.5l-18 -119h-716 q-20 -168 43.5 -265t220.5 -97q99 0 173.5 28.5t156.5 77.5l46 -138q-60 -44 -159.5 -83t-239.5 -39q-131 0 -227.5 49.5t-151.5 141.5q-67 -80 -187.5 -135.5t-282.5 -55.5q-164 0 -246.5 88t-59.5 237zM250 300q-12 -77 31 -122t141 -45q73 0 163.5 44.5t142.5 100.5 l32 213h-226q-116 0 -194.5 -56.5t-89.5 -134.5zM1000 646l2 -6h507l5 31q18 126 -30 201t-177 75q-108 0 -191.5 -85.5t-115.5 -215.5z" />
<glyph unicode="&#xe7;" horiz-adv-x="1072" d="M95 520l6 42q36 237 182 388.5t375 151.5q175 0 277 -113t73 -275l-2 -5h-180q15 103 -38 170.5t-153 67.5q-139 0 -226 -114.5t-110 -270.5l-6 -42q-26 -168 23 -277.5t197 -109.5q87 0 165.5 61t92.5 148h178l2 -6q-18 -146 -156.5 -251.5t-304.5 -105.5 q-218 0 -323.5 156.5t-71.5 384.5zM311 -444l9 109q69 0 118 24.5t57 73.5q7 50 -25.5 68t-119.5 25l52 135h140l-20 -52q63 -11 100 -52t25 -121q-15 -99 -101.5 -154.5t-234.5 -55.5z" />
<glyph unicode="&#xe8;" horiz-adv-x="1072" d="M95 520l7 44q35 242 190.5 390t352.5 148q209 0 301 -137t59 -357l-15 -104h-700q-23 -172 34 -271.5t207 -99.5q96 0 178.5 29t142.5 78l58 -128q-66 -56 -167 -94.5t-235 -38.5q-224 0 -336.5 151t-76.5 390zM327 665l2 -6h487l2 16q18 121 -28 196.5t-168 75.5 q-99 0 -179.5 -80t-115.5 -202zM355 1541l3 5h231l137 -266h-158z" />
<glyph unicode="&#xe9;" horiz-adv-x="1072" d="M95 520l7 44q35 242 190.5 390t352.5 148q209 0 301 -137t59 -357l-15 -104h-700q-23 -172 34 -271.5t207 -99.5q96 0 178.5 29t142.5 78l58 -128q-66 -56 -167 -94.5t-235 -38.5q-224 0 -336.5 151t-76.5 390zM327 665l2 -6h487l2 16q18 121 -28 196.5t-168 75.5 q-99 0 -179.5 -80t-115.5 -202zM558 1281l218 261h229l2 -6l-306 -260h-141z" />
<glyph unicode="&#xea;" horiz-adv-x="1072" d="M95 520l7 44q35 242 190.5 390t352.5 148q209 0 301 -137t59 -357l-15 -104h-700q-23 -172 34 -271.5t207 -99.5q96 0 178.5 29t142.5 78l58 -128q-66 -56 -167 -94.5t-235 -38.5q-224 0 -336.5 151t-76.5 390zM327 665l2 -6h487l2 16q18 121 -28 196.5t-168 75.5 q-99 0 -179.5 -80t-115.5 -202zM345 1280l4 26l281 237h120l213 -238l-4 -25h-161l-125 148l-168 -148h-160z" />
<glyph unicode="&#xeb;" horiz-adv-x="1072" d="M95 520l7 44q35 242 190.5 390t352.5 148q209 0 301 -137t59 -357l-15 -104h-700q-23 -172 34 -271.5t207 -99.5q96 0 178.5 29t142.5 78l58 -128q-66 -56 -167 -94.5t-235 -38.5q-224 0 -336.5 151t-76.5 390zM300 1284l28 200h219l-28 -200h-219zM327 665l2 -6h487 l2 16q18 121 -28 196.5t-168 75.5q-99 0 -179.5 -80t-115.5 -202zM770 1284l28 200h219l-28 -200h-219z" />
<glyph unicode="&#xec;" horiz-adv-x="515" d="M66 1519l3 5h231l137 -266h-158zM73 0l162 1082h197l-162 -1082h-197z" />
<glyph unicode="&#xed;" horiz-adv-x="515" d="M73 0l162 1082h197l-162 -1082h-197zM267 1259l218 261h229l2 -6l-306 -260h-141z" />
<glyph unicode="&#xee;" horiz-adv-x="515" d="M56 1258l4 26l281 237h120l213 -238l-4 -25h-161l-125 148l-168 -148h-160zM73 0l162 1082h197l-162 -1082h-197z" />
<glyph unicode="&#xef;" horiz-adv-x="515" d="M11 1262l28 200h219l-28 -200h-219zM73 0l162 1082h197l-162 -1082h-197zM481 1262l28 200h219l-28 -200h-219z" />
<glyph unicode="&#xf0;" horiz-adv-x="1202" d="M62 466q35 237 193 374.5t373 137.5q88 0 163 -39t119 -101l5 4q9 116 -19.5 205.5t-87.5 155.5l-319 -168l-61 102l274 144v6q-32 19 -71 36t-81 30l85 164q75 -19 142.5 -52t123.5 -79l237 125l61 -102l-212 -112q80 -104 111 -241.5t7 -300.5l-33 -220 q-38 -254 -203 -405t-383 -151q-209 0 -332 141.5t-92 345.5zM259 466q-21 -136 46 -234.5t208 -98.5q128 0 232 115t130 287l23 149q-25 59 -100 99t-194 40q-125 0 -224 -105t-121 -252z" />
<glyph unicode="&#xf1;" d="M63 0l162 1082h176l-9 -155q66 84 154.5 129.5t192.5 45.5q169 0 252.5 -103.5t51.5 -315.5l-102 -683h-197l102 679q22 148 -25 205.5t-165 57.5q-88 0 -158 -38.5t-118 -106.5l-120 -797h-197zM340 1306q12 96 80.5 163t160.5 67q52 0 131 -47t132 -47q39 0 74 32.5 t42 79.5l104 -32q-14 -97 -82 -160.5t-159 -63.5q-67 0 -139 46.5t-124 46.5q-41 0 -75.5 -33t-40.5 -78z" />
<glyph unicode="&#xf2;" d="M96 529l4 22q37 249 188.5 400t376.5 151q216 0 327.5 -156.5t76.5 -394.5l-4 -22q-38 -251 -189 -400.5t-377 -149.5q-216 0 -327.5 156t-75.5 394zM293 529q-27 -178 29 -287t200 -109q135 0 227.5 113.5t118.5 282.5l4 22q26 176 -30.5 286t-199.5 110 q-136 0 -228.5 -114.5t-116.5 -281.5zM398 1540l3 5h231l137 -266h-158z" />
<glyph unicode="&#xf3;" d="M96 529l4 22q37 249 188.5 400t376.5 151q216 0 327.5 -156.5t76.5 -394.5l-4 -22q-38 -251 -189 -400.5t-377 -149.5q-216 0 -327.5 156t-75.5 394zM293 529q-27 -178 29 -287t200 -109q135 0 227.5 113.5t118.5 282.5l4 22q26 176 -30.5 286t-199.5 110 q-136 0 -228.5 -114.5t-116.5 -281.5zM600 1280l218 261h229l2 -6l-306 -260h-141z" />
<glyph unicode="&#xf4;" d="M96 529l4 22q37 249 188.5 400t376.5 151q216 0 327.5 -156.5t76.5 -394.5l-4 -22q-38 -251 -189 -400.5t-377 -149.5q-216 0 -327.5 156t-75.5 394zM293 529q-27 -178 29 -287t200 -109q135 0 227.5 113.5t118.5 282.5l4 22q26 176 -30.5 286t-199.5 110 q-136 0 -228.5 -114.5t-116.5 -281.5zM388 1279l4 26l281 237h120l213 -238l-4 -25h-161l-125 148l-168 -148h-160z" />
<glyph unicode="&#xf5;" d="M96 529l4 22q37 249 188.5 400t376.5 151q216 0 327.5 -156.5t76.5 -394.5l-4 -22q-38 -251 -189 -400.5t-377 -149.5q-216 0 -327.5 156t-75.5 394zM293 529q-27 -178 29 -287t200 -109q135 0 227.5 113.5t118.5 282.5l4 22q26 176 -30.5 286t-199.5 110 q-136 0 -228.5 -114.5t-116.5 -281.5zM344 1306q12 96 80.5 163t160.5 67q52 0 131 -47t132 -47q39 0 74 32.5t42 79.5l104 -32q-14 -97 -82 -160.5t-159 -63.5q-67 0 -139 46.5t-124 46.5q-41 0 -75.5 -33t-40.5 -78z" />
<glyph unicode="&#xf6;" d="M96 529l4 22q37 249 188.5 400t376.5 151q216 0 327.5 -156.5t76.5 -394.5l-4 -22q-38 -251 -189 -400.5t-377 -149.5q-216 0 -327.5 156t-75.5 394zM293 529q-27 -178 29 -287t200 -109q135 0 227.5 113.5t118.5 282.5l4 22q26 176 -30.5 286t-199.5 110 q-136 0 -228.5 -114.5t-116.5 -281.5zM343 1283l28 200h219l-28 -200h-219zM813 1283l28 200h219l-28 -200h-219z" />
<glyph unicode="&#xf7;" horiz-adv-x="1170" d="M81 597l28 188h998l-28 -188h-998zM419 180l30 203h198l-30 -203h-198zM542 999l30 203h198l-30 -203h-198z" />
<glyph unicode="&#xf8;" d="M96 -135l133 207q-85 73 -120 192t-13 265l4 22q37 249 188.5 400t376.5 151q55 0 104.5 -11.5t93.5 -33.5l97 152h129l-138 -215q76 -75 107 -190.5t11 -252.5l-4 -22q-38 -251 -189 -400.5t-377 -149.5q-49 0 -93.5 9t-84.5 26l-96 -149h-129zM287.5 359.5 q8.5 -75.5 41.5 -121.5l6 -2l435 678q-27 16 -58.5 24.5t-69.5 8.5q-136 0 -228.5 -114.5t-116.5 -281.5l-4 -22q-14 -94 -5.5 -169.5zM412 155q22 -11 50 -16.5t60 -5.5q135 0 227.5 113.5t118.5 282.5l4 22q12 84 5.5 154t-31.5 116l-6 1z" />
<glyph unicode="&#xf9;" d="M126 444l95 638h197l-96 -640q-27 -179 14 -241t151 -62q103 0 179 44.5t124 125.5l115 773h197l-162 -1082h-177l11 155q-64 -86 -150.5 -131t-192.5 -45q-171 0 -256 114.5t-49 350.5zM393 1519l3 5h231l137 -266h-158z" />
<glyph unicode="&#xfa;" d="M126 444l95 638h197l-96 -640q-27 -179 14 -241t151 -62q103 0 179 44.5t124 125.5l115 773h197l-162 -1082h-177l11 155q-64 -86 -150.5 -131t-192.5 -45q-171 0 -256 114.5t-49 350.5zM595 1259l218 261h229l2 -6l-306 -260h-141z" />
<glyph unicode="&#xfb;" d="M126 444l95 638h197l-96 -640q-27 -179 14 -241t151 -62q103 0 179 44.5t124 125.5l115 773h197l-162 -1082h-177l11 155q-64 -86 -150.5 -131t-192.5 -45q-171 0 -256 114.5t-49 350.5zM383 1258l4 26l281 237h120l213 -238l-4 -25h-161l-125 148l-168 -148h-160z" />
<glyph unicode="&#xfc;" d="M126 444l95 638h197l-96 -640q-27 -179 14 -241t151 -62q103 0 179 44.5t124 125.5l115 773h197l-162 -1082h-177l11 155q-64 -86 -150.5 -131t-192.5 -45q-171 0 -256 114.5t-49 350.5zM338 1262l28 200h219l-28 -200h-219zM808 1262l28 200h219l-28 -200h-219z" />
<glyph unicode="&#xfd;" horiz-adv-x="1030" d="M-40 -421l43 155q-3 1 36.5 -2t50.5 -3q60 0 111.5 58.5t85.5 121.5l65 113l-244 1060h220l126 -681l15 -136l6 -1l388 818h219l-642 -1248q-58 -109 -146.5 -190t-218.5 -81q-23 0 -59 5.5t-56 10.5zM529 1259l218 261h229l2 -6l-306 -260h-141z" />
<glyph unicode="&#xfe;" horiz-adv-x="1186" d="M11 -416l62 416l66 440l96 642l72 478h197l-90 -597q63 68 143.5 103.5t178.5 35.5q193 0 284 -161.5t53 -419.5l-3 -21q-37 -243 -168.5 -382t-330.5 -139q-97 0 -168 35.5t-115 104.5l-18 -119l-62 -416h-197zM311 275q28 -67 82 -104.5t141 -37.5q134 0 224.5 103.5 t114.5 263.5l3 21q29 191 -26 306t-197 115q-82 0 -148.5 -39.5t-115.5 -107.5l-26 -176z" />
<glyph unicode="&#xff;" horiz-adv-x="1030" d="M-40 -421l43 155q-3 1 36.5 -2t50.5 -3q60 0 111.5 58.5t85.5 121.5l65 113l-244 1060h220l126 -681l15 -136l6 -1l388 818h219l-642 -1248q-58 -109 -146.5 -190t-218.5 -81q-23 0 -59 5.5t-56 10.5zM272 1262l28 200h219l-28 -200h-219zM742 1262l28 200h219l-28 -200 h-219z" />
<glyph unicode="&#x152;" horiz-adv-x="1960" d="M110 576l46 304q41 275 218.5 436t429.5 161q67 0 139.5 -6t147.5 -15h838l-23 -155h-690l-70 -471h599l-24 -155h-598l-78 -521h700l-23 -154h-849q-92 -10 -158.5 -15.5t-133.5 -5.5q-240 0 -375.5 167.5t-95.5 429.5zM307 576q-33 -222 46 -332t251 -110 q60 0 122.5 4.5t121.5 14.5l172 1150q-57 9 -117 14t-123 5q-163 0 -279 -114.5t-148 -325.5z" />
<glyph unicode="&#x153;" horiz-adv-x="1854" d="M96 529l4 22q37 249 188.5 400t376.5 151q122 0 214 -54t143 -150q77 97 182.5 150.5t220.5 53.5q209 0 301 -137t59 -357l-15 -104h-700q-23 -172 34 -271.5t207 -99.5q96 0 178.5 29t142.5 78l58 -128q-66 -56 -167 -94.5t-235 -38.5q-129 0 -222.5 52t-144.5 147 q-77 -96 -184.5 -147.5t-237.5 -51.5q-216 0 -327.5 156t-75.5 394zM293 529q-27 -178 29 -287t200 -109q135 0 227.5 113.5t118.5 282.5l4 22q26 176 -30.5 286t-199.5 110q-136 0 -228.5 -114.5t-116.5 -281.5zM1107 665l2 -6h487l2 16q18 121 -28 196.5t-168 75.5 q-99 0 -179.5 -80t-115.5 -202z" />
<glyph unicode="&#x178;" horiz-adv-x="1295" d="M178 1456h225l270 -740l490 740h225l-652 -944l-77 -512h-196l79 527zM455 1604l28 200h219l-28 -200h-219zM925 1604l28 200h219l-28 -200h-219z" />
<glyph unicode="&#x2c6;" horiz-adv-x="979" d="M279 1252l4 26l281 237h120l213 -238l-4 -25h-161l-125 148l-168 -148h-160z" />
<glyph unicode="&#x2dc;" horiz-adv-x="979" d="M239 1275q12 96 80.5 163t160.5 67q52 0 131 -47t132 -47q39 0 74 32.5t42 79.5l104 -32q-14 -97 -82 -160.5t-159 -63.5q-67 0 -139 46.5t-124 46.5q-41 0 -75.5 -33t-40.5 -78z" />
<glyph unicode="&#x2000;" horiz-adv-x="951" />
<glyph unicode="&#x2001;" horiz-adv-x="1903" />
<glyph unicode="&#x2002;" horiz-adv-x="951" />
<glyph unicode="&#x2003;" horiz-adv-x="1903" />
<glyph unicode="&#x2004;" horiz-adv-x="634" />
<glyph unicode="&#x2005;" horiz-adv-x="475" />
<glyph unicode="&#x2006;" horiz-adv-x="317" />
<glyph unicode="&#x2007;" horiz-adv-x="317" />
<glyph unicode="&#x2008;" horiz-adv-x="237" />
<glyph unicode="&#x2009;" horiz-adv-x="380" />
<glyph unicode="&#x200a;" horiz-adv-x="105" />
<glyph unicode="&#x2010;" horiz-adv-x="923" d="M168 538l23 154h590l-23 -154h-590z" />
<glyph unicode="&#x2011;" horiz-adv-x="923" d="M168 538l23 154h590l-23 -154h-590z" />
<glyph unicode="&#x2012;" horiz-adv-x="923" d="M168 538l23 154h590l-23 -154h-590z" />
<glyph unicode="&#x2013;" horiz-adv-x="1416" d="M189 648l30 155h1086l-30 -155h-1086z" />
<glyph unicode="&#x2014;" horiz-adv-x="1660" d="M166 648l37 155h1336l-37 -155h-1336z" />
<glyph unicode="&#x2018;" horiz-adv-x="524" d="M203 917l27 184l154 355h97l-55 -361l-26 -178h-197z" />
<glyph unicode="&#x2019;" horiz-adv-x="516" d="M218 917l52 343l29 196h197l-29 -193l-152 -346h-97z" />
<glyph unicode="&#x201a;" horiz-adv-x="540" d="M50 -255l40 263l36 241h197l-33 -223l-143 -281h-97z" />
<glyph unicode="&#x201c;" horiz-adv-x="788" d="M181 917l27 184l154 355h97l-55 -361l-26 -178h-197zM509 917l27 184l154 355h97l-55 -361l-26 -178h-197z" />
<glyph unicode="&#x201d;" horiz-adv-x="769" d="M183 917l52 343l29 196h197l-29 -193l-152 -346h-97zM519 917l52 343l29 196h197l-29 -193l-152 -346h-97z" />
<glyph unicode="&#x201e;" horiz-adv-x="767" d="M22 -239l50 325l29 194h197l-28 -184l-151 -335h-97zM330 -239l51 333l28 186h197l-28 -184l-151 -335h-97z" />
<glyph unicode="&#x2022;" horiz-adv-x="695" d="M167 733l9 60q13 91 77 145.5t159 54.5q92 0 141 -56.5t37 -143.5l-9 -60q-14 -92 -77.5 -145t-159.5 -53q-91 0 -140.5 55t-36.5 143z" />
<glyph unicode="&#x2026;" horiz-adv-x="1380" d="M81 0l30 202h197l-30 -202h-197zM524 0l30 202h197l-30 -202h-197zM944 0l30 202h197l-30 -202h-197z" />
<glyph unicode="&#x202f;" horiz-adv-x="380" />
<glyph unicode="&#x2039;" horiz-adv-x="615" d="M109 541l1 6l1 7l1 6l353 389h148l-315 -399l196 -398h-148z" />
<glyph unicode="&#x203a;" horiz-adv-x="615" d="M40 170l288 380l-174 380h148l224 -357h5v-8l4 -6l-3 -9v-9l-6 -6l-2 -7h-4l-332 -358h-148z" />
<glyph unicode="&#x205f;" horiz-adv-x="475" />
<glyph unicode="&#x20ac;" horiz-adv-x="1088" d="M76 512l18 124h146l25 166h-146l19 125h145l3 15q38 253 199.5 394t395.5 141q57 0 115.5 -8t121.5 -23l-43 -159q-52 16 -107 25.5t-111 9.5q-141 0 -244.5 -104t-128.5 -274l-3 -17h492l-19 -125h-492l-25 -166h492l-18 -124h-493q-27 -180 44 -279.5t219 -99.5 q55 0 113.5 8.5t112.5 25.5l-4 -157q-59 -15 -121.5 -23t-123.5 -8q-222 0 -347 145.5t-89 387.5h-146z" />
<glyph unicode="&#x2122;" horiz-adv-x="1284" d="M229 1374l12 82h384l-12 -82h-145l-68 -455h-94l68 455h-145zM623 919l80 537h116l103 -389l6 -1l220 390h110l-80 -537h-93l51 342l-6 2l-201 -344h-51l-103 358h-6l-53 -358h-93z" />
<glyph unicode="&#x25fc;" horiz-adv-x="1080" d="M0 0v1080h1080v-1080h-1080z" />
<glyph unicode="&#xfb02;" horiz-adv-x="1190" d="M116 936l22 146h169l21 137q27 180 130 271t267 91q33 0 68 -6t74 -15l-46 -150q-18 4 -43.5 7t-52.5 3q-83 0 -134.5 -52.5t-65.5 -148.5l-21 -137h196l-22 -146h-196l-140 -936h-197l140 936h-169zM753 0l234 1560h197l-234 -1560h-197z" />
<glyph unicode="&#xfb03;" horiz-adv-x="1814" d="M116 936l22 146h169l21 137q27 180 130 271t267 91q33 0 68 -6t74 -15l-46 -150q-18 4 -43.5 7t-52.5 3q-83 0 -134.5 -52.5t-65.5 -148.5l-21 -137h196l-22 -146h-196l-140 -936h-197l140 936h-169zM762 936l22 146h170l18 117q28 189 148 285.5t311 96.5 q64 0 129.5 -16t146.5 -45l-58 -160q-50 21 -107.5 36t-120.5 15q-113 0 -175 -53t-77 -159l-18 -117h215l-22 -146h-215l-140 -936h-197l140 936h-170zM1377 0l162 1082h198l-162 -1082h-198z" />
<glyph unicode="&#xfb04;" horiz-adv-x="1864" d="M116 936l22 146h169l21 137q27 180 130 271t267 91q33 0 68 -6t74 -15l-46 -150q-18 4 -43.5 7t-52.5 3q-83 0 -134.5 -52.5t-65.5 -148.5l-21 -137h196l-22 -146h-196l-140 -936h-197l140 936h-169zM790 936l22 146h169l21 137q27 180 130 271t267 91q33 0 68 -6t74 -15 l-46 -150q-18 4 -43.5 7t-52.5 3q-83 0 -134.5 -52.5t-65.5 -148.5l-21 -137h196l-22 -146h-196l-140 -936h-197l140 936h-169zM1427 0l234 1560h197l-234 -1560h-197z" />
<hkern u1="&#x22;" u2="w" k="-11" />
<hkern u1="&#x27;" u2="w" k="-11" />
<hkern u1="&#x28;" u2="&#x178;" k="-22" />
<hkern u1="&#x28;" u2="&#xdd;" k="-22" />
<hkern u1="&#x28;" u2="Y" k="-22" />
<hkern u1="&#x28;" u2="W" k="-18" />
<hkern u1="&#x28;" u2="V" k="-20" />
<hkern u1="A" u2="w" k="33" />
<hkern u1="A" u2="t" k="17" />
<hkern u1="A" u2="&#x3f;" k="61" />
<hkern u1="C" u2="&#x7d;" k="17" />
<hkern u1="C" u2="]" k="12" />
<hkern u1="C" u2="&#x29;" k="26" />
<hkern u1="D" u2="&#xc6;" k="33" />
<hkern u1="E" u2="w" k="22" />
<hkern u1="E" u2="f" k="18" />
<hkern u1="F" u2="&#x2026;" k="234" />
<hkern u1="F" u2="&#x201e;" k="234" />
<hkern u1="F" u2="&#x201a;" k="234" />
<hkern u1="F" u2="&#x153;" k="21" />
<hkern u1="F" u2="&#xff;" k="24" />
<hkern u1="F" u2="&#xfd;" k="24" />
<hkern u1="F" u2="&#xfc;" k="22" />
<hkern u1="F" u2="&#xfb;" k="22" />
<hkern u1="F" u2="&#xfa;" k="22" />
<hkern u1="F" u2="&#xf9;" k="22" />
<hkern u1="F" u2="&#xf6;" k="21" />
<hkern u1="F" u2="&#xf5;" k="21" />
<hkern u1="F" u2="&#xf4;" k="21" />
<hkern u1="F" u2="&#xf3;" k="21" />
<hkern u1="F" u2="&#xf2;" k="21" />
<hkern u1="F" u2="&#xeb;" k="21" />
<hkern u1="F" u2="&#xea;" k="21" />
<hkern u1="F" u2="&#xe9;" k="21" />
<hkern u1="F" u2="&#xe8;" k="21" />
<hkern u1="F" u2="&#xe7;" k="21" />
<hkern u1="F" u2="&#xe5;" k="34" />
<hkern u1="F" u2="&#xe4;" k="34" />
<hkern u1="F" u2="&#xe3;" k="34" />
<hkern u1="F" u2="&#xe2;" k="34" />
<hkern u1="F" u2="&#xe1;" k="34" />
<hkern u1="F" u2="&#xe0;" k="34" />
<hkern u1="F" u2="&#xc5;" k="59" />
<hkern u1="F" u2="&#xc4;" k="59" />
<hkern u1="F" u2="&#xc3;" k="59" />
<hkern u1="F" u2="&#xc2;" k="59" />
<hkern u1="F" u2="&#xc1;" k="59" />
<hkern u1="F" u2="&#xc0;" k="59" />
<hkern u1="F" u2="y" k="24" />
<hkern u1="F" u2="v" k="24" />
<hkern u1="F" u2="u" k="22" />
<hkern u1="F" u2="r" k="26" />
<hkern u1="F" u2="q" k="21" />
<hkern u1="F" u2="o" k="21" />
<hkern u1="F" u2="g" k="21" />
<hkern u1="F" u2="e" k="21" />
<hkern u1="F" u2="d" k="21" />
<hkern u1="F" u2="c" k="21" />
<hkern u1="F" u2="a" k="34" />
<hkern u1="F" u2="A" k="59" />
<hkern u1="F" u2="&#x3a;" k="234" />
<hkern u1="F" u2="&#x2e;" k="234" />
<hkern u1="F" u2="&#x2c;" k="234" />
<hkern u1="K" u2="w" k="63" />
<hkern u1="L" u2="w" k="92" />
<hkern u1="O" u2="&#xc6;" k="33" />
<hkern u1="P" u2="&#xc6;" k="97" />
<hkern u1="P" u2="t" k="-14" />
<hkern u1="Q" u2="&#x178;" k="35" />
<hkern u1="Q" u2="&#xdd;" k="35" />
<hkern u1="Q" u2="Y" k="35" />
<hkern u1="Q" u2="W" k="20" />
<hkern u1="Q" u2="V" k="28" />
<hkern u1="Q" u2="T" k="43" />
<hkern u1="R" u2="&#x178;" k="48" />
<hkern u1="R" u2="&#xdd;" k="48" />
<hkern u1="R" u2="Y" k="48" />
<hkern u1="R" u2="V" k="19" />
<hkern u1="R" u2="T" k="80" />
<hkern u1="T" u2="&#xf8;" k="95" />
<hkern u1="T" u2="&#xe6;" k="114" />
<hkern u1="T" u2="&#xc6;" k="179" />
<hkern u1="T" u2="&#xbb;" k="216" />
<hkern u1="T" u2="&#xab;" k="328" />
<hkern u1="T" u2="w" k="57" />
<hkern u1="T" u2="r" k="75" />
<hkern u1="V" u2="&#x7d;" k="-19" />
<hkern u1="V" u2="r" k="30" />
<hkern u1="V" u2="]" k="-17" />
<hkern u1="V" u2="&#x29;" k="-20" />
<hkern u1="W" u2="&#x7d;" k="-14" />
<hkern u1="W" u2="r" k="21" />
<hkern u1="W" u2="]" k="-12" />
<hkern u1="W" u2="&#x29;" k="-15" />
<hkern u1="Y" u2="&#x2022;" k="45" />
<hkern u1="Y" u2="&#xf8;" k="64" />
<hkern u1="Y" u2="&#xe6;" k="63" />
<hkern u1="Y" u2="&#xc6;" k="96" />
<hkern u1="Y" u2="&#xbb;" k="51" />
<hkern u1="Y" u2="&#xab;" k="82" />
<hkern u1="Y" u2="&#x7d;" k="-19" />
<hkern u1="Y" u2="t" k="22" />
<hkern u1="Y" u2="r" k="40" />
<hkern u1="Y" u2="f" k="22" />
<hkern u1="Y" u2="]" k="-18" />
<hkern u1="Y" u2="&#x2a;" k="49" />
<hkern u1="Y" u2="&#x29;" k="-20" />
<hkern u1="Y" u2="&#x26;" k="30" />
<hkern u1="Z" u2="w" k="27" />
<hkern u1="[" u2="&#xdc;" k="18" />
<hkern u1="[" u2="&#xdb;" k="18" />
<hkern u1="[" u2="&#xda;" k="18" />
<hkern u1="[" u2="&#xd9;" k="18" />
<hkern u1="[" u2="U" k="18" />
<hkern u1="[" u2="J" k="18" />
<hkern u1="f" u2="&#x201d;" k="-16" />
<hkern u1="f" u2="&#x201c;" k="-16" />
<hkern u1="f" u2="&#x2019;" k="-16" />
<hkern u1="f" u2="&#x2018;" k="-16" />
<hkern u1="f" u2="&#x153;" k="24" />
<hkern u1="f" u2="&#xeb;" k="24" />
<hkern u1="f" u2="&#xea;" k="24" />
<hkern u1="f" u2="&#xe9;" k="24" />
<hkern u1="f" u2="&#xe8;" k="24" />
<hkern u1="f" u2="&#xe7;" k="24" />
<hkern u1="f" u2="&#x7d;" k="-19" />
<hkern u1="f" u2="q" k="24" />
<hkern u1="f" u2="g" k="24" />
<hkern u1="f" u2="e" k="24" />
<hkern u1="f" u2="d" k="24" />
<hkern u1="f" u2="c" k="24" />
<hkern u1="f" u2="]" k="-18" />
<hkern u1="f" u2="&#x29;" k="-20" />
<hkern u1="f" u2="&#x27;" k="-16" />
<hkern u1="f" u2="&#x22;" k="-16" />
<hkern u1="k" u2="&#x153;" k="20" />
<hkern u1="k" u2="&#xeb;" k="20" />
<hkern u1="k" u2="&#xea;" k="20" />
<hkern u1="k" u2="&#xe9;" k="20" />
<hkern u1="k" u2="&#xe8;" k="20" />
<hkern u1="k" u2="&#xe7;" k="20" />
<hkern u1="k" u2="q" k="20" />
<hkern u1="k" u2="g" k="20" />
<hkern u1="k" u2="e" k="20" />
<hkern u1="k" u2="d" k="20" />
<hkern u1="k" u2="c" k="20" />
<hkern u1="r" u2="w" k="-17" />
<hkern u1="r" u2="t" k="-17" />
<hkern u1="r" u2="f" k="-15" />
<hkern u1="v" u2="f" k="-13" />
<hkern u1="w" u2="&#x2026;" k="124" />
<hkern u1="w" u2="&#x201e;" k="124" />
<hkern u1="w" u2="&#x201a;" k="124" />
<hkern u1="w" u2="&#x3a;" k="124" />
<hkern u1="w" u2="&#x2e;" k="124" />
<hkern u1="w" u2="&#x2c;" k="124" />
<hkern u1="y" u2="f" k="-13" />
<hkern u1="&#x7b;" u2="&#xdc;" k="20" />
<hkern u1="&#x7b;" u2="&#xdb;" k="20" />
<hkern u1="&#x7b;" u2="&#xda;" k="20" />
<hkern u1="&#x7b;" u2="&#xd9;" k="20" />
<hkern u1="&#x7b;" u2="U" k="20" />
<hkern u1="&#x7b;" u2="J" k="20" />
<hkern u1="&#xc0;" u2="w" k="33" />
<hkern u1="&#xc0;" u2="t" k="17" />
<hkern u1="&#xc0;" u2="&#x3f;" k="61" />
<hkern u1="&#xc1;" u2="w" k="33" />
<hkern u1="&#xc1;" u2="t" k="17" />
<hkern u1="&#xc1;" u2="&#x3f;" k="61" />
<hkern u1="&#xc2;" u2="w" k="33" />
<hkern u1="&#xc2;" u2="t" k="17" />
<hkern u1="&#xc2;" u2="&#x3f;" k="61" />
<hkern u1="&#xc3;" u2="w" k="33" />
<hkern u1="&#xc3;" u2="t" k="17" />
<hkern u1="&#xc3;" u2="&#x3f;" k="61" />
<hkern u1="&#xc4;" u2="w" k="33" />
<hkern u1="&#xc4;" u2="t" k="17" />
<hkern u1="&#xc4;" u2="&#x3f;" k="61" />
<hkern u1="&#xc5;" u2="w" k="33" />
<hkern u1="&#xc5;" u2="t" k="17" />
<hkern u1="&#xc5;" u2="&#x3f;" k="61" />
<hkern u1="&#xc7;" u2="&#x7d;" k="17" />
<hkern u1="&#xc7;" u2="]" k="12" />
<hkern u1="&#xc7;" u2="&#x29;" k="26" />
<hkern u1="&#xc8;" u2="w" k="22" />
<hkern u1="&#xc8;" u2="f" k="18" />
<hkern u1="&#xc9;" u2="w" k="22" />
<hkern u1="&#xc9;" u2="f" k="18" />
<hkern u1="&#xca;" u2="w" k="22" />
<hkern u1="&#xca;" u2="f" k="18" />
<hkern u1="&#xcb;" u2="w" k="22" />
<hkern u1="&#xcb;" u2="f" k="18" />
<hkern u1="&#xd0;" u2="&#xc6;" k="33" />
<hkern u1="&#xd2;" u2="&#xc6;" k="33" />
<hkern u1="&#xd3;" u2="&#xc6;" k="33" />
<hkern u1="&#xd4;" u2="&#xc6;" k="33" />
<hkern u1="&#xd5;" u2="&#xc6;" k="33" />
<hkern u1="&#xd6;" u2="&#xc6;" k="33" />
<hkern u1="&#xdd;" u2="&#x2022;" k="45" />
<hkern u1="&#xdd;" u2="&#xf8;" k="64" />
<hkern u1="&#xdd;" u2="&#xe6;" k="63" />
<hkern u1="&#xdd;" u2="&#xc6;" k="96" />
<hkern u1="&#xdd;" u2="&#xbb;" k="51" />
<hkern u1="&#xdd;" u2="&#xab;" k="82" />
<hkern u1="&#xdd;" u2="&#x7d;" k="-19" />
<hkern u1="&#xdd;" u2="t" k="22" />
<hkern u1="&#xdd;" u2="r" k="40" />
<hkern u1="&#xdd;" u2="f" k="22" />
<hkern u1="&#xdd;" u2="]" k="-18" />
<hkern u1="&#xdd;" u2="&#x2a;" k="49" />
<hkern u1="&#xdd;" u2="&#x29;" k="-20" />
<hkern u1="&#xdd;" u2="&#x26;" k="30" />
<hkern u1="&#xfd;" u2="f" k="-13" />
<hkern u1="&#xff;" u2="f" k="-13" />
<hkern u1="&#x178;" u2="&#x2022;" k="45" />
<hkern u1="&#x178;" u2="&#xf8;" k="64" />
<hkern u1="&#x178;" u2="&#xe6;" k="63" />
<hkern u1="&#x178;" u2="&#xc6;" k="96" />
<hkern u1="&#x178;" u2="&#xbb;" k="51" />
<hkern u1="&#x178;" u2="&#xab;" k="82" />
<hkern u1="&#x178;" u2="&#x7d;" k="-19" />
<hkern u1="&#x178;" u2="t" k="22" />
<hkern u1="&#x178;" u2="r" k="40" />
<hkern u1="&#x178;" u2="f" k="22" />
<hkern u1="&#x178;" u2="]" k="-18" />
<hkern u1="&#x178;" u2="&#x2a;" k="49" />
<hkern u1="&#x178;" u2="&#x29;" k="-20" />
<hkern u1="&#x178;" u2="&#x26;" k="30" />
<hkern u1="&#x2018;" u2="w" k="-11" />
<hkern u1="&#x2019;" u2="w" k="-11" />
<hkern u1="&#x201c;" u2="w" k="-11" />
<hkern u1="&#x201d;" u2="w" k="-11" />
<hkern g1="B" 	g2="T" 	k="27" />
<hkern g1="B" 	g2="V" 	k="24" />
<hkern g1="B" 	g2="Y,Yacute,Ydieresis" 	k="55" />
<hkern g1="H,I,M,N,Igrave,Iacute,Icircumflex,Idieresis,Ntilde" 	g2="T" 	k="29" />
<hkern g1="H,I,M,N,Igrave,Iacute,Icircumflex,Idieresis,Ntilde" 	g2="Y,Yacute,Ydieresis" 	k="28" />
<hkern g1="H,I,M,N,Igrave,Iacute,Icircumflex,Idieresis,Ntilde" 	g2="A,Agrave,Aacute,Acircumflex,Atilde,Adieresis,Aring" 	k="-18" />
<hkern g1="H,I,M,N,Igrave,Iacute,Icircumflex,Idieresis,Ntilde" 	g2="X" 	k="-17" />
<hkern g1="D,O,Eth,Ograve,Oacute,Ocircumflex,Otilde,Odieresis" 	g2="T" 	k="27" />
<hkern g1="D,O,Eth,Ograve,Oacute,Ocircumflex,Otilde,Odieresis" 	g2="V" 	k="22" />
<hkern g1="D,O,Eth,Ograve,Oacute,Ocircumflex,Otilde,Odieresis" 	g2="Y,Yacute,Ydieresis" 	k="43" />
<hkern g1="D,O,Eth,Ograve,Oacute,Ocircumflex,Otilde,Odieresis" 	g2="A,Agrave,Aacute,Acircumflex,Atilde,Adieresis,Aring" 	k="21" />
<hkern g1="D,O,Eth,Ograve,Oacute,Ocircumflex,Otilde,Odieresis" 	g2="X" 	k="22" />
<hkern g1="D,O,Eth,Ograve,Oacute,Ocircumflex,Otilde,Odieresis" 	g2="comma,period,colon,quotesinglbase,quotedblbase,ellipsis" 	k="102" />
<hkern g1="D,O,Eth,Ograve,Oacute,Ocircumflex,Otilde,Odieresis" 	g2="Z" 	k="23" />
<hkern g1="C,Ccedilla" 	g2="T" 	k="29" />
<hkern g1="E,Egrave,Eacute,Ecircumflex,Edieresis" 	g2="v,y,yacute,ydieresis" 	k="26" />
<hkern g1="E,Egrave,Eacute,Ecircumflex,Edieresis" 	g2="o,ograve,oacute,ocircumflex,otilde,odieresis" 	k="19" />
<hkern g1="E,Egrave,Eacute,Ecircumflex,Edieresis" 	g2="u,ugrave,uacute,ucircumflex,udieresis" 	k="17" />
<hkern g1="E,Egrave,Eacute,Ecircumflex,Edieresis" 	g2="c,d,e,g,q,ccedilla,egrave,eacute,ecircumflex,edieresis,oe" 	k="19" />
<hkern g1="T" 	g2="v,y,yacute,ydieresis" 	k="72" />
<hkern g1="T" 	g2="C,G,O,Q,Ccedilla,Ograve,Oacute,Ocircumflex,Otilde,Odieresis,Oslash,OE" 	k="28" />
<hkern g1="T" 	g2="o,ograve,oacute,ocircumflex,otilde,odieresis" 	k="99" />
<hkern g1="T" 	g2="W" 	k="-15" />
<hkern g1="T" 	g2="T" 	k="-16" />
<hkern g1="T" 	g2="u,ugrave,uacute,ucircumflex,udieresis" 	k="95" />
<hkern g1="T" 	g2="z" 	k="60" />
<hkern g1="T" 	g2="V" 	k="-16" />
<hkern g1="T" 	g2="Y,Yacute,Ydieresis" 	k="-16" />
<hkern g1="T" 	g2="A,Agrave,Aacute,Acircumflex,Atilde,Adieresis,Aring" 	k="79" />
<hkern g1="T" 	g2="comma,period,colon,quotesinglbase,quotedblbase,ellipsis" 	k="218" />
<hkern g1="T" 	g2="c,d,e,g,q,ccedilla,egrave,eacute,ecircumflex,edieresis,oe" 	k="99" />
<hkern g1="T" 	g2="x" 	k="77" />
<hkern g1="T" 	g2="hyphen,uni00AD,endash,emdash" 	k="232" />
<hkern g1="T" 	g2="m,n,p,ntilde" 	k="109" />
<hkern g1="T" 	g2="S" 	k="16" />
<hkern g1="T" 	g2="a,agrave,aacute,acircumflex,atilde,adieresis,aring" 	k="113" />
<hkern g1="T" 	g2="s" 	k="116" />
<hkern g1="K" 	g2="v,y,yacute,ydieresis" 	k="40" />
<hkern g1="K" 	g2="C,G,O,Q,Ccedilla,Ograve,Oacute,Ocircumflex,Otilde,Odieresis,Oslash,OE" 	k="31" />
<hkern g1="K" 	g2="o,ograve,oacute,ocircumflex,otilde,odieresis" 	k="27" />
<hkern g1="K" 	g2="u,ugrave,uacute,ucircumflex,udieresis" 	k="23" />
<hkern g1="K" 	g2="c,d,e,g,q,ccedilla,egrave,eacute,ecircumflex,edieresis,oe" 	k="26" />
<hkern g1="K" 	g2="hyphen,uni00AD,endash,emdash" 	k="64" />
<hkern g1="K" 	g2="m,n,p,ntilde" 	k="23" />
<hkern g1="L" 	g2="v,y,yacute,ydieresis" 	k="133" />
<hkern g1="L" 	g2="C,G,O,Q,Ccedilla,Ograve,Oacute,Ocircumflex,Otilde,Odieresis,Oslash,OE" 	k="65" />
<hkern g1="L" 	g2="U,Ugrave,Uacute,Ucircumflex,Udieresis" 	k="54" />
<hkern g1="L" 	g2="quotedbl,quotesingle,quoteleft,quoteright,quotedblleft,quotedblright" 	k="138" />
<hkern g1="L" 	g2="W" 	k="143" />
<hkern g1="L" 	g2="T" 	k="275" />
<hkern g1="L" 	g2="u,ugrave,uacute,ucircumflex,udieresis" 	k="44" />
<hkern g1="L" 	g2="V" 	k="175" />
<hkern g1="L" 	g2="Y,Yacute,Ydieresis" 	k="239" />
<hkern g1="L" 	g2="A,Agrave,Aacute,Acircumflex,Atilde,Adieresis,Aring" 	k="-19" />
<hkern g1="P" 	g2="v,y,yacute,ydieresis" 	k="-15" />
<hkern g1="P" 	g2="o,ograve,oacute,ocircumflex,otilde,odieresis" 	k="13" />
<hkern g1="P" 	g2="A,Agrave,Aacute,Acircumflex,Atilde,Adieresis,Aring" 	k="138" />
<hkern g1="P" 	g2="X" 	k="31" />
<hkern g1="P" 	g2="comma,period,colon,quotesinglbase,quotedblbase,ellipsis" 	k="324" />
<hkern g1="P" 	g2="Z" 	k="26" />
<hkern g1="P" 	g2="c,d,e,g,q,ccedilla,egrave,eacute,ecircumflex,edieresis,oe" 	k="13" />
<hkern g1="P" 	g2="a,agrave,aacute,acircumflex,atilde,adieresis,aring" 	k="11" />
<hkern g1="J,U,Ugrave,Uacute,Ucircumflex,Udieresis" 	g2="A,Agrave,Aacute,Acircumflex,Atilde,Adieresis,Aring" 	k="22" />
<hkern g1="V" 	g2="v,y,yacute,ydieresis" 	k="11" />
<hkern g1="V" 	g2="C,G,O,Q,Ccedilla,Ograve,Oacute,Ocircumflex,Otilde,Odieresis,Oslash,OE" 	k="13" />
<hkern g1="V" 	g2="o,ograve,oacute,ocircumflex,otilde,odieresis" 	k="46" />
<hkern g1="V" 	g2="u,ugrave,uacute,ucircumflex,udieresis" 	k="28" />
<hkern g1="V" 	g2="A,Agrave,Aacute,Acircumflex,Atilde,Adieresis,Aring" 	k="75" />
<hkern g1="V" 	g2="comma,period,colon,quotesinglbase,quotedblbase,ellipsis" 	k="225" />
<hkern g1="V" 	g2="c,d,e,g,q,ccedilla,egrave,eacute,ecircumflex,edieresis,oe" 	k="44" />
<hkern g1="V" 	g2="hyphen,uni00AD,endash,emdash" 	k="37" />
<hkern g1="V" 	g2="a,agrave,aacute,acircumflex,atilde,adieresis,aring" 	k="46" />
<hkern g1="X" 	g2="v,y,yacute,ydieresis" 	k="31" />
<hkern g1="X" 	g2="C,G,O,Q,Ccedilla,Ograve,Oacute,Ocircumflex,Otilde,Odieresis,Oslash,OE" 	k="25" />
<hkern g1="X" 	g2="o,ograve,oacute,ocircumflex,otilde,odieresis" 	k="21" />
<hkern g1="X" 	g2="u,ugrave,uacute,ucircumflex,udieresis" 	k="21" />
<hkern g1="X" 	g2="V" 	k="-14" />
<hkern g1="X" 	g2="c,d,e,g,q,ccedilla,egrave,eacute,ecircumflex,edieresis,oe" 	k="26" />
<hkern g1="X" 	g2="hyphen,uni00AD,endash,emdash" 	k="46" />
<hkern g1="Y,Yacute,Ydieresis" 	g2="v,y,yacute,ydieresis" 	k="20" />
<hkern g1="Y,Yacute,Ydieresis" 	g2="C,G,O,Q,Ccedilla,Ograve,Oacute,Ocircumflex,Otilde,Odieresis,Oslash,OE" 	k="29" />
<hkern g1="Y,Yacute,Ydieresis" 	g2="U,Ugrave,Uacute,Ucircumflex,Udieresis" 	k="96" />
<hkern g1="Y,Yacute,Ydieresis" 	g2="o,ograve,oacute,ocircumflex,otilde,odieresis" 	k="65" />
<hkern g1="Y,Yacute,Ydieresis" 	g2="W" 	k="-17" />
<hkern g1="Y,Yacute,Ydieresis" 	g2="T" 	k="-17" />
<hkern g1="Y,Yacute,Ydieresis" 	g2="u,ugrave,uacute,ucircumflex,udieresis" 	k="39" />
<hkern g1="Y,Yacute,Ydieresis" 	g2="z" 	k="30" />
<hkern g1="Y,Yacute,Ydieresis" 	g2="V" 	k="-18" />
<hkern g1="Y,Yacute,Ydieresis" 	g2="Y,Yacute,Ydieresis" 	k="-18" />
<hkern g1="Y,Yacute,Ydieresis" 	g2="A,Agrave,Aacute,Acircumflex,Atilde,Adieresis,Aring" 	k="82" />
<hkern g1="Y,Yacute,Ydieresis" 	g2="X" 	k="-13" />
<hkern g1="Y,Yacute,Ydieresis" 	g2="comma,period,colon,quotesinglbase,quotedblbase,ellipsis" 	k="211" />
<hkern g1="Y,Yacute,Ydieresis" 	g2="c,d,e,g,q,ccedilla,egrave,eacute,ecircumflex,edieresis,oe" 	k="65" />
<hkern g1="Y,Yacute,Ydieresis" 	g2="x" 	k="23" />
<hkern g1="Y,Yacute,Ydieresis" 	g2="hyphen,uni00AD,endash,emdash" 	k="52" />
<hkern g1="Y,Yacute,Ydieresis" 	g2="m,n,p,ntilde" 	k="40" />
<hkern g1="Y,Yacute,Ydieresis" 	g2="S" 	k="16" />
<hkern g1="Y,Yacute,Ydieresis" 	g2="a,agrave,aacute,acircumflex,atilde,adieresis,aring" 	k="73" />
<hkern g1="Y,Yacute,Ydieresis" 	g2="s" 	k="58" />
<hkern g1="Y,Yacute,Ydieresis" 	g2="J" 	k="96" />
<hkern g1="W" 	g2="o,ograve,oacute,ocircumflex,otilde,odieresis" 	k="31" />
<hkern g1="W" 	g2="T" 	k="-14" />
<hkern g1="W" 	g2="u,ugrave,uacute,ucircumflex,udieresis" 	k="19" />
<hkern g1="W" 	g2="A,Agrave,Aacute,Acircumflex,Atilde,Adieresis,Aring" 	k="43" />
<hkern g1="W" 	g2="comma,period,colon,quotesinglbase,quotedblbase,ellipsis" 	k="123" />
<hkern g1="W" 	g2="c,d,e,g,q,ccedilla,egrave,eacute,ecircumflex,edieresis,oe" 	k="31" />
<hkern g1="W" 	g2="hyphen,uni00AD,endash,emdash" 	k="60" />
<hkern g1="W" 	g2="a,agrave,aacute,acircumflex,atilde,adieresis,aring" 	k="33" />
<hkern g1="Z" 	g2="v,y,yacute,ydieresis" 	k="27" />
<hkern g1="Z" 	g2="C,G,O,Q,Ccedilla,Ograve,Oacute,Ocircumflex,Otilde,Odieresis,Oslash,OE" 	k="26" />
<hkern g1="Z" 	g2="o,ograve,oacute,ocircumflex,otilde,odieresis" 	k="21" />
<hkern g1="Z" 	g2="u,ugrave,uacute,ucircumflex,udieresis" 	k="19" />
<hkern g1="Z" 	g2="A,Agrave,Aacute,Acircumflex,Atilde,Adieresis,Aring" 	k="-13" />
<hkern g1="Z" 	g2="c,d,e,g,q,ccedilla,egrave,eacute,ecircumflex,edieresis,oe" 	k="21" />
<hkern g1="a,agrave,aacute,acircumflex,atilde,adieresis,aring" 	g2="v,y,yacute,ydieresis" 	k="15" />
<hkern g1="a,agrave,aacute,acircumflex,atilde,adieresis,aring" 	g2="quotedbl,quotesingle,quoteleft,quoteright,quotedblleft,quotedblright" 	k="67" />
<hkern g1="c,ccedilla" 	g2="quotedbl,quotesingle,quoteleft,quoteright,quotedblleft,quotedblright" 	k="11" />
<hkern g1="b,p,thorn" 	g2="v,y,yacute,ydieresis" 	k="11" />
<hkern g1="b,p,thorn" 	g2="quotedbl,quotesingle,quoteleft,quoteright,quotedblleft,quotedblright" 	k="29" />
<hkern g1="b,p,thorn" 	g2="z" 	k="15" />
<hkern g1="b,p,thorn" 	g2="x" 	k="15" />
<hkern g1="e,egrave,eacute,ecircumflex,edieresis" 	g2="v,y,yacute,ydieresis" 	k="13" />
<hkern g1="e,egrave,eacute,ecircumflex,edieresis" 	g2="quotedbl,quotesingle,quoteleft,quoteright,quotedblleft,quotedblright" 	k="14" />
<hkern g1="h,m,n,ntilde" 	g2="quotedbl,quotesingle,quoteleft,quoteright,quotedblleft,quotedblright" 	k="16" />
<hkern g1="o,ograve,oacute,ocircumflex,otilde,odieresis" 	g2="v,y,yacute,ydieresis" 	k="15" />
<hkern g1="o,ograve,oacute,ocircumflex,otilde,odieresis" 	g2="quotedbl,quotesingle,quoteleft,quoteright,quotedblleft,quotedblright" 	k="20" />
<hkern g1="o,ograve,oacute,ocircumflex,otilde,odieresis" 	g2="z" 	k="16" />
<hkern g1="o,ograve,oacute,ocircumflex,otilde,odieresis" 	g2="x" 	k="21" />
<hkern g1="v,y,yacute,ydieresis" 	g2="quotedbl,quotesingle,quoteleft,quoteright,quotedblleft,quotedblright" 	k="-15" />
<hkern g1="v,y,yacute,ydieresis" 	g2="o,ograve,oacute,ocircumflex,otilde,odieresis" 	k="15" />
<hkern g1="v,y,yacute,ydieresis" 	g2="comma,period,colon,quotesinglbase,quotedblbase,ellipsis" 	k="107" />
<hkern g1="v,y,yacute,ydieresis" 	g2="c,d,e,g,q,ccedilla,egrave,eacute,ecircumflex,edieresis,oe" 	k="13" />
<hkern g1="v,y,yacute,ydieresis" 	g2="a,agrave,aacute,acircumflex,atilde,adieresis,aring" 	k="15" />
<hkern g1="r" 	g2="v,y,yacute,ydieresis" 	k="-18" />
<hkern g1="r" 	g2="quotedbl,quotesingle,quoteleft,quoteright,quotedblleft,quotedblright" 	k="-16" />
<hkern g1="r" 	g2="o,ograve,oacute,ocircumflex,otilde,odieresis" 	k="20" />
<hkern g1="r" 	g2="comma,period,colon,quotesinglbase,quotedblbase,ellipsis" 	k="123" />
<hkern g1="r" 	g2="c,d,e,g,q,ccedilla,egrave,eacute,ecircumflex,edieresis,oe" 	k="19" />
<hkern g1="x" 	g2="o,ograve,oacute,ocircumflex,otilde,odieresis" 	k="20" />
<hkern g1="x" 	g2="c,d,e,g,q,ccedilla,egrave,eacute,ecircumflex,edieresis,oe" 	k="20" />
<hkern g1="z" 	g2="o,ograve,oacute,ocircumflex,otilde,odieresis" 	k="16" />
<hkern g1="z" 	g2="c,d,e,g,q,ccedilla,egrave,eacute,ecircumflex,edieresis,oe" 	k="16" />
<hkern g1="quotedbl,quotesingle,quoteleft,quoteright,quotedblleft,quotedblright" 	g2="quotedbl,quotesingle,quoteleft,quoteright,quotedblleft,quotedblright" 	k="107" />
<hkern g1="quotedbl,quotesingle,quoteleft,quoteright,quotedblleft,quotedblright" 	g2="o,ograve,oacute,ocircumflex,otilde,odieresis" 	k="61" />
<hkern g1="quotedbl,quotesingle,quoteleft,quoteright,quotedblleft,quotedblright" 	g2="A,Agrave,Aacute,Acircumflex,Atilde,Adieresis,Aring" 	k="106" />
<hkern g1="quotedbl,quotesingle,quoteleft,quoteright,quotedblleft,quotedblright" 	g2="c,d,e,g,q,ccedilla,egrave,eacute,ecircumflex,edieresis,oe" 	k="59" />
<hkern g1="quotedbl,quotesingle,quoteleft,quoteright,quotedblleft,quotedblright" 	g2="m,n,p,ntilde" 	k="20" />
<hkern g1="quotedbl,quotesingle,quoteleft,quoteright,quotedblleft,quotedblright" 	g2="a,agrave,aacute,acircumflex,atilde,adieresis,aring" 	k="50" />
<hkern g1="quotedbl,quotesingle,quoteleft,quoteright,quotedblleft,quotedblright" 	g2="s" 	k="42" />
</font>
</defs></svg> 