<?xml version="1.0" standalone="no"?>
<!DOCTYPE svg PUBLIC "-//W3C//DTD SVG 1.1//EN" "http://www.w3.org/Graphics/SVG/1.1/DTD/svg11.dtd" >
<svg xmlns="http://www.w3.org/2000/svg">
<metadata>Generated by IcoMoon</metadata>
<defs>
<font id="funky-icons" horiz-adv-x="1024">
<font-face units-per-em="1024" ascent="960" descent="-64" />
<missing-glyph horiz-adv-x="1024" />
<glyph unicode="&#x20;" horiz-adv-x="512" d="" />
<glyph unicode="&#xe209;" glyph-name="close" d="M810 664.667l-238-238 238-238-60-60-238 238-238-238-60 60 238 238-238 238 60 60 238-238 238 238z" />
<glyph unicode="&#xe20e;" glyph-name="menu" d="M128 682.667h768v-86h-768v86zM128 384.667v84h768v-84h-768zM128 170.667v86h768v-86h-768z" />
<glyph unicode="&#xe600;" glyph-name="flickr" d="M320 256c-94.123 0-170.667 76.544-170.667 170.667s76.544 170.667 170.667 170.667 170.667-76.544 170.667-170.667-76.544-170.667-170.667-170.667zM320 512c-47.061 0-85.333-38.272-85.333-85.333s38.272-85.333 85.333-85.333 85.333 38.272 85.333 85.333-38.272 85.333-85.333 85.333zM704 597.334c-94.123 0-170.667-76.544-170.667-170.667s76.544-170.667 170.667-170.667 170.667 76.544 170.667 170.667-76.544 170.667-170.667 170.667z" />
<glyph unicode="&#xe601;" glyph-name="arrow-down" d="M891.802 660.019c13.926 13.722 36.301 13.722 50.125 0s13.875-35.891 0-49.613l-404.89-400.896c-13.824-13.722-36.198-13.722-50.125 0l-404.89 400.896c-13.824 13.722-13.824 35.891 0 49.613 13.875 13.722 36.301 13.722 50.125 0l379.853-365.619 379.802 365.619z" />
<glyph unicode="&#xe602;" glyph-name="arrow-left" d="M711.219 80.998c13.722-13.926 13.722-36.301 0-50.125s-35.891-13.875-49.613 0l-400.896 404.89c-13.722 13.824-13.722 36.198 0 50.125l400.896 404.89c13.722 13.824 35.891 13.824 49.613 0 13.722-13.875 13.722-36.301 0-50.125l-365.619-379.853 365.619-379.802z" />
<glyph unicode="&#xe603;" glyph-name="arrow-right" d="M678.4 460.8l-365.619 379.904c-13.722 13.824-13.722 36.198 0 50.125 13.722 13.824 35.891 13.824 49.613 0l400.896-404.89c13.722-13.875 13.722-36.301 0-50.125l-400.896-404.89c-13.722-13.875-35.891-13.824-49.613 0-13.722 13.773-13.722 36.198 0 50.125l365.619 379.75z" />
<glyph unicode="&#xe604;" glyph-name="arrow-up" d="M132.198 261.581c-13.926-13.722-36.301-13.722-50.125 0s-13.875 35.891 0 49.613l404.89 400.896c13.824 13.722 36.198 13.722 50.125 0l404.89-400.896c13.824-13.722 13.824-35.891 0-49.613-13.875-13.722-36.301-13.722-50.074 0l-379.904 365.619-379.802-365.619z" />
<glyph unicode="&#xe605;" glyph-name="like" d="M880.128 760.064c-85.606 78.541-224.41 78.541-310.016 0l-58.112-53.35-58.163 53.35c-85.606 78.541-224.358 78.541-309.965 0-96.307-88.422-96.307-231.424 0-319.795l368.128-337.869 368.128 337.869c96.256 88.371 96.256 231.424 0 319.795z" />
<glyph unicode="&#xe606;" glyph-name="minus" d="M819.2 460.8c0-28.314-2.458-51.2-30.771-51.2h-552.858c-28.262 0-30.771 22.886-30.771 51.2s2.509 51.2 30.771 51.2h552.909c28.262 0 30.72-22.886 30.72-51.2z" />
<glyph unicode="&#xe607;" glyph-name="plus" d="M819.2 460.8c0-28.314-2.458-51.2-30.771-51.2h-225.229v-225.229c0-28.262-22.886-30.771-51.2-30.771s-51.2 2.509-51.2 30.771v225.229h-225.229c-28.262 0-30.771 22.886-30.771 51.2s2.509 51.2 30.771 51.2h225.229v225.229c0 28.314 22.886 30.771 51.2 30.771s51.2-2.458 51.2-30.771v-225.229h225.229c28.314 0 30.771-22.886 30.771-51.2z" />
<glyph unicode="&#xe608;" glyph-name="share" d="M768 284.57c-32.41 0-61.645-12.595-83.814-32.87l-304.026 177.306c2.355 9.626 3.84 19.661 3.84 29.901s-1.485 20.224-3.84 29.85l300.8 175.565c22.835-21.35 53.35-34.56 87.040-34.56 70.605 0 128 57.395 128 128s-57.395 128-128 128-128-57.395-128-128c0-10.24 1.485-20.275 3.84-29.85l-300.8-175.565c-22.835 21.299-53.35 34.56-87.040 34.56-70.605 0-128-57.395-128-128s57.395-128 128-128c33.69 0 64.205 13.21 87.040 34.56l304.026-177.306c-2.15-8.96-3.43-18.33-3.43-27.955 0-68.71 55.654-124.365 124.365-124.365s124.365 55.706 124.365 124.365-55.654 124.365-124.365 124.365z" />
<glyph unicode="&#xe609;" glyph-name="comment" d="M512 896c282.77 0 512-186.25 512-416 0-229.752-229.23-416-512-416-27.156 0-53.81 1.734-79.824 5.044-109.978-109.978-241.25-129.7-368.176-132.596v26.916c68.536 33.578 128 94.74 128 164.636 0 9.754-0.758 19.33-2.164 28.696-115.796 76.264-189.836 192.754-189.836 323.304 0 229.75 229.23 416 512 416z" />
<glyph unicode="&#xe60a;" glyph-name="play" d="M192 832l640-384-640-384z" />
<glyph unicode="&#xe901;" glyph-name="yelp" horiz-adv-x="879" d="M441.714 197.143v-72.571q-0.571-166.857-3.429-174.286-6.857-18.286-29.143-22.857-30.857-5.143-103.714 21.714t-92.857 50.857q-7.429 8.571-9.714 20.571-0.571 6.857 2.286 14.857 2.286 5.714 19.429 26.857t103.429 123.429q0.571 0 34.286 40 8.571 10.857 22.571 14t28.286-2q13.714-5.714 21.429-16.571t7.143-24zM356.571 340.571q-1.714-31.429-29.714-40l-68.571-22.286q-157.143-50.286-166.857-50.286-20 1.143-30.857 20.571-6.857 14.286-9.714 42.857-4.571 43.429 0.571 95.143t17.143 71.143 32 18.286q7.429 0 115.429-44 40-16.571 65.714-26.857l48-19.429q13.143-5.143 20.286-17.429t6.571-27.714zM828.571 170.857q-4-30.857-52.286-92t-77.429-72.571q-21.143-8-36 4-8 5.714-105.143 164l-26.857 44q-8 12-6.571 26.286t11.143 26.286q20 24.571 47.429 14.857 0.571-0.571 68-22.857 116-37.714 138.286-45.429t26.857-11.714q16-12.571 12.571-34.857zM444.571 532q2.857-58.286-30.857-69.714-33.143-9.714-65.143 40.571l-216 341.714q-4.571 20 10.857 35.429 23.429 24.571 118.571 51.143t128.286 18q22.857-5.714 28-25.714 1.714-10.286 12.571-174.571t13.714-216.857zM822.857 470.286q1.714-22.286-14.857-33.714-8.571-5.714-188-49.143-38.286-8.571-52-13.143l0.571 1.143q-13.143-3.429-26.286 2.286t-21.143 18.286q-17.143 26.857 0 49.714 0.571 0.571 42.857 58.286 71.429 97.714 85.714 116.571t19.429 22.286q16 10.857 37.143 1.143 27.429-13.143 70.286-76.286t46.286-95.714v-1.714z" />
<glyph unicode="&#xe902;" glyph-name="soundcloud" horiz-adv-x="1317" d="M448 166.857l9.143 137.714-9.143 298.857q-0.571 5.714-4.286 9.714t-9.429 4q-5.143 0-9.143-4t-4-9.714l-8-298.857 8-137.714q0.571-5.714 4.286-9.429t8.857-3.714q12.571 0 13.714 13.143zM617.143 183.428l6.286 120.571-6.857 334.857q0 9.143-7.429 13.714-4.571 2.857-9.143 2.857t-9.143-2.857q-7.429-4.571-7.429-13.714l-0.571-3.429-5.714-330.857q0-0.571 6.286-134.857v-0.571q0-5.714 3.429-9.714 5.143-6.286 13.143-6.286 6.286 0 11.429 5.143 5.143 4 5.143 11.429zM20 377.714l11.429-73.143-11.429-72q-1.143-5.143-5.143-5.143t-5.143 5.143l-9.714 72 9.714 73.143q1.143 5.143 5.143 5.143t5.143-5.143zM69.143 422.857l14.857-118.286-14.857-116q-1.143-5.143-5.714-5.143-5.143 0-5.143 5.714l-13.143 115.429 13.143 118.286q0 5.143 5.143 5.143 4.571 0 5.714-5.143zM121.714 444.571l14.286-140-14.286-135.429q0-6.286-6.286-6.286-5.714 0-6.857 6.286l-12 135.429 12 140q1.143 6.857 6.857 6.857 6.286 0 6.286-6.857zM175.429 448.571l13.143-144-13.143-139.429q-1.143-7.429-8-7.429-7.429 0-7.429 7.429l-12 139.429 12 144q0 7.429 7.429 7.429 6.857 0 8-7.429zM229.143 438.286l12-133.714-12-140.571q-1.143-9.143-9.143-9.143-3.429 0-6 2.571t-2.571 6.571l-11.429 140.571 11.429 133.714q0 3.429 2.571 6t6 2.571q8 0 9.143-8.571zM282.857 521.714l12-217.143-12-140.571q0-4-2.857-7.143t-6.857-3.143q-9.143 0-10.286 10.286l-10.286 140.571 10.286 217.143q1.143 10.286 10.286 10.286 4 0 6.857-3.143t2.857-7.143zM336.571 570.857l10.857-267.429-10.857-139.429q0-4.571-3.143-7.714t-7.714-3.143q-10.286 0-11.429 10.857l-9.143 139.429 9.143 267.429q1.143 10.857 11.429 10.857 4.571 0 7.714-3.143t3.143-7.714zM392.571 593.714l10.286-289.143-10.286-138.286q-1.143-12-12.571-12-10.857 0-12 12l-9.143 138.286 9.143 289.143q0 5.143 3.714 8.857t8.286 3.714q5.143 0 8.571-3.714t4-8.857zM616.571 169.714v0 0zM503.429 596l8.571-291.429-8.571-136.571q0-5.714-4.286-10t-10-4.286-9.714 4-4.571 10.286l-8 136.571 8 291.429q0 6.286 4.286 10.286t10 4 10-4 4.286-10.286zM560 585.143l8-281.143-8-134.857q0-6.286-4.571-10.857t-10.857-4.571-10.857 4.571-5.143 10.857l-6.857 134.857 6.857 281.143q0.571 6.857 5.143 11.429t10.857 4.571 10.571-4.571 4.857-11.429zM681.143 304l-8-132q0-7.429-5.143-12.571t-12.571-5.143-12.571 5.143-5.714 12.571l-3.429 65.143-3.429 66.857 6.857 363.429v1.714q1.143 8.571 6.857 13.714 5.143 4 11.429 4 4.571 0 8.571-2.857 8-4.571 9.143-14.857zM1316.571 314.857q0-66.857-47.429-114t-114.286-47.143h-449.143q-7.429 1.143-12.571 6.286t-5.143 12.571v513.714q0 13.143 16 18.857 48.571 19.429 103.429 19.429 111.429 0 193.143-75.143t91.429-184.857q30.286 12.571 62.857 12.571 66.857 0 114.286-47.429t47.429-114.857z" />
<glyph unicode="&#xf002;" glyph-name="search" horiz-adv-x="951" d="M658.286 475.428q0 105.714-75.143 180.857t-180.857 75.143-180.857-75.143-75.143-180.857 75.143-180.857 180.857-75.143 180.857 75.143 75.143 180.857zM950.857 0q0-29.714-21.714-51.429t-51.429-21.714q-30.857 0-51.429 21.714l-196 195.429q-102.286-70.857-228-70.857-81.714 0-156.286 31.714t-128.571 85.714-85.714 128.571-31.714 156.286 31.714 156.286 85.714 128.571 128.571 85.714 156.286 31.714 156.286-31.714 128.571-85.714 85.714-128.571 31.714-156.286q0-125.714-70.857-228l196-196q21.143-21.143 21.143-51.429z" />
<glyph unicode="&#xf099;" glyph-name="twitter" horiz-adv-x="951" d="M925.714 717.714q-38.286-56-92.571-95.429 0.571-8 0.571-24 0-74.286-21.714-148.286t-66-142-105.429-120.286-147.429-83.429-184.571-31.143q-154.857 0-283.429 82.857 20-2.286 44.571-2.286 128.571 0 229.143 78.857-60 1.143-107.429 36.857t-65.143 91.143q18.857-2.857 34.857-2.857 24.571 0 48.571 6.286-64 13.143-106 63.714t-42 117.429v2.286q38.857-21.714 83.429-23.429-37.714 25.143-60 65.714t-22.286 88q0 50.286 25.143 93.143 69.143-85.143 168.286-136.286t212.286-56.857q-4.571 21.714-4.571 42.286 0 76.571 54 130.571t130.571 54q80 0 134.857-58.286 62.286 12 117.143 44.571-21.143-65.714-81.143-101.714 53.143 5.714 106.286 28.571z" />
<glyph unicode="&#xf09a;" glyph-name="facebook" horiz-adv-x="585" d="M548 944v-150.857h-89.714q-49.143 0-66.286-20.571t-17.143-61.714v-108h167.429l-22.286-169.143h-145.143v-433.714h-174.857v433.714h-145.714v169.143h145.714v124.571q0 106.286 59.429 164.857t158.286 58.571q84 0 130.286-6.857z" />
<glyph unicode="&#xf09b;" glyph-name="github" horiz-adv-x="878" d="M877.714 438.857q0-143.429-83.714-258t-216.286-158.571q-15.429-2.857-22.571 4t-7.143 17.143v120.571q0 55.429-29.714 81.143 32.571 3.429 58.571 10.286t53.714 22.286 46.286 38 30.286 60 11.714 86q0 69.143-45.143 117.714 21.143 52-4.571 116.571-16 5.143-46.286-6.286t-52.571-25.143l-21.714-13.714q-53.143 14.857-109.714 14.857t-109.714-14.857q-9.143 6.286-24.286 15.429t-47.714 22-49.143 7.714q-25.143-64.571-4-116.571-45.143-48.571-45.143-117.714 0-48.571 11.714-85.714t30-60 46-38.286 53.714-22.286 58.571-10.286q-22.857-20.571-28-58.857-12-5.714-25.714-8.571t-32.571-2.857-37.429 12.286-31.714 35.714q-10.857 18.286-27.714 29.714t-28.286 13.714l-11.429 1.714q-12 0-16.571-2.571t-2.857-6.571 5.143-8 7.429-6.857l4-2.857q12.571-5.714 24.857-21.714t18-29.143l5.714-13.143q7.429-21.714 25.143-35.143t38.286-17.143 39.714-4 31.714 2l13.143 2.286q0-21.714 0.286-50.857t0.286-30.857q0-10.286-7.429-17.143t-22.857-4q-132.571 44-216.286 158.571t-83.714 258q0 119.429 58.857 220.286t159.714 159.714 220.286 58.857 220.286-58.857 159.714-159.714 58.857-220.286z" />
<glyph unicode="&#xf0d2;" glyph-name="pinterest" horiz-adv-x="878" d="M877.714 438.857q0-119.429-58.857-220.286t-159.714-159.714-220.286-58.857q-63.429 0-124.571 18.286 33.714 53.143 44.571 93.714 5.143 19.429 30.857 120.571 11.429-22.286 41.714-38.571t65.143-16.286q69.143 0 123.429 39.143t84 107.714 29.714 154.286q0 65.143-34 122.286t-98.571 93.143-145.714 36q-60 0-112-16.571t-88.286-44-62.286-63.143-38.286-74-12.286-76.571q0-59.429 22.857-104.571t66.857-63.429q17.143-6.857 21.714 11.429 1.143 4 4.571 17.714t4.571 17.143q3.429 13.143-6.286 24.571-29.143 34.857-29.143 86.286 0 86.286 59.714 148.286t156.286 62q86.286 0 134.571-46.857t48.286-121.714q0-97.143-39.143-165.143t-100.286-68q-34.857 0-56 24.857t-13.143 59.714q4.571 20 15.143 53.429t17.143 58.857 6.571 43.143q0 28.571-15.429 47.429t-44 18.857q-35.429 0-60-32.571t-24.571-81.143q0-41.714 14.286-69.714l-56.571-238.857q-9.714-40-7.429-101.143-117.714 52-190.286 160.571t-72.571 241.714q0 119.429 58.857 220.286t159.714 159.714 220.286 58.857 220.286-58.857 159.714-159.714 58.857-220.286z" />
<glyph unicode="&#xf0d6;" glyph-name="googleplus" horiz-adv-x="1317" d="M821.143 429.143q0-118.857-49.714-211.714t-141.714-145.143-210.857-52.286q-85.143 0-162.857 33.143t-133.714 89.143-89.143 133.714-33.143 162.857 33.143 162.857 89.143 133.714 133.714 89.143 162.857 33.143q163.429 0 280.571-109.714l-113.714-109.143q-66.857 64.571-166.857 64.571-70.286 0-130-35.429t-94.571-96.286-34.857-132.857 34.857-132.857 94.571-96.286 130-35.429q47.429 0 87.143 13.143t65.429 32.857 44.857 44.857 28 47.429 12.286 42.286h-237.714v144h395.429q6.857-36 6.857-69.714zM1316.571 498.857v-120h-119.429v-119.429h-120v119.429h-119.429v120h119.429v119.429h120v-119.429h119.429z" />
<glyph unicode="&#xf0e1;" glyph-name="linkedin" horiz-adv-x="878" d="M199.429 593.714v-566.286h-188.571v566.286h188.571zM211.429 768.571q0.571-41.714-28.857-69.714t-77.429-28h-1.143q-46.857 0-75.429 28t-28.571 69.714q0 42.286 29.429 70t76.857 27.714 76-27.714 29.143-70zM877.714 352v-324.571h-188v302.857q0 60-23.143 94t-72.286 34q-36 0-60.286-19.714t-36.286-48.857q-6.286-17.143-6.286-46.286v-316h-188q1.143 228 1.143 369.714t-0.571 169.143l-0.571 27.429h188v-82.286h-1.143q11.429 18.286 23.429 32t32.286 29.714 49.714 24.857 65.429 8.857q97.714 0 157.143-64.857t59.429-190z" />
<glyph unicode="&#xf16a;" glyph-name="youtube" d="M731.429 438.857q0 21.143-17.143 30.857l-292.571 182.857q-17.714 11.429-37.143 1.143-18.857-10.286-18.857-32v-365.714q0-21.714 18.857-32 9.143-4.571 17.714-4.571 11.429 0 19.429 5.714l292.571 182.857q17.143 9.714 17.143 30.857zM1024 438.857q0-54.857-0.571-85.714t-4.857-78-12.857-84.286q-9.143-41.714-39.429-70.286t-70.857-33.143q-126.857-14.286-383.429-14.286t-383.429 14.286q-40.571 4.571-71.143 33.143t-39.714 70.286q-8 37.143-12.286 84.286t-4.857 78-0.571 85.714 0.571 85.714 4.857 78 12.857 84.286q9.143 41.714 39.429 70.286t70.857 33.143q126.857 14.286 383.429 14.286t383.429-14.286q40.571-4.571 71.143-33.143t39.714-70.286q8-37.143 12.286-84.286t4.857-78 0.571-85.714z" />
<glyph unicode="&#xf16c;" glyph-name="stack-overflow" horiz-adv-x="878" d="M736.571 18.286h-638.857v274.286h-91.429v-365.714h821.714v365.714h-91.429v-274.286zM198.286 317.714l18.857 89.714 447.429-94.286-18.857-89.143zM257.143 531.428l38.286 83.429 414.286-193.714-38.286-82.857zM372 734.857l58.286 70.286 350.857-293.143-58.286-70.286zM598.857 950.857l272.571-366.286-73.143-54.857-272.571 366.286zM188.571 110.286v90.857h457.143v-90.857h-457.143z" />
<glyph unicode="&#xf16d;" glyph-name="instagram" horiz-adv-x="878" d="M778.286 136v370.286h-77.143q11.429-36 11.429-74.857 0-72-36.571-132.857t-99.429-96.286-137.143-35.429q-112.571 0-192.571 77.429t-80 187.143q0 38.857 11.429 74.857h-80.571v-370.286q0-14.857 10-24.857t24.857-10h610.857q14.286 0 24.571 10t10.286 24.857zM616 440.571q0 70.857-51.714 120.857t-124.857 50q-72.571 0-124.286-50t-51.714-120.857 51.714-120.857 124.286-50q73.143 0 124.857 50t51.714 120.857zM778.286 646.286v94.286q0 16-11.429 27.714t-28 11.714h-99.429q-16.571 0-28-11.714t-11.429-27.714v-94.286q0-16.571 11.429-28t28-11.429h99.429q16.571 0 28 11.429t11.429 28zM877.714 765.143v-652.571q0-46.286-33.143-79.429t-79.429-33.143h-652.571q-46.286 0-79.429 33.143t-33.143 79.429v652.571q0 46.286 33.143 79.429t79.429 33.143h652.571q46.286 0 79.429-33.143t33.143-79.429z" />
<glyph unicode="&#xf173;" glyph-name="tumblr" horiz-adv-x="624" d="M539.429 191.428l45.714-135.429q-13.143-20-63.429-37.714t-101.143-18.286q-59.429-1.143-108.857 14.857t-81.429 42.286-54.286 60.571-31.714 68.571-9.429 67.429v310.857h-96v122.857q41.143 14.857 73.714 39.714t52 51.429 33.143 58.286 19.429 56.571 8.571 50.571q0.571 2.857 2.571 4.857t4.286 2h139.429v-242.286h190.286v-144h-190.857v-296q0-17.143 3.714-32t12.857-30 28.286-23.714 46.571-8q44.571 1.143 76.571 16.571z" />
<glyph unicode="&#xf179;" glyph-name="apple" horiz-adv-x="796" d="M796 256.571q-22.286-71.429-70.286-142.857-73.714-112-146.857-112-28 0-80 18.286-49.143 18.286-86.286 18.286-34.857 0-81.143-18.857-46.286-19.429-75.429-19.429-86.857 0-172 148-84 149.143-84 287.429 0 130.286 64.571 213.714 64 82.286 162.286 82.286 41.143 0 101.143-17.143 59.429-17.143 78.857-17.143 25.714 0 81.714 19.429 58.286 19.429 98.857 19.429 68 0 121.714-37.143 29.714-20.571 59.429-57.143-45.143-38.286-65.143-67.429-37.143-53.714-37.143-118.286 0-70.857 39.429-127.429t90.286-72zM581.143 926.857q0-34.857-16.571-77.714-17.143-42.857-53.143-78.857-30.857-30.857-61.714-41.143-21.143-6.286-59.429-9.714 1.714 85.143 44.571 146.857 42.286 61.143 142.857 84.571 0.571-1.714 1.429-6.286t1.429-6.286q0-2.286 0.286-5.714t0.286-5.714z" />
<glyph unicode="&#xf17b;" glyph-name="android" horiz-adv-x="805" d="M281.714 674.857q9.143 0 15.714 6.571t6.571 15.714-6.571 15.714-15.714 6.571-15.429-6.571-6.286-15.714 6.286-15.714 15.429-6.571zM522.857 674.857q9.143 0 15.429 6.571t6.286 15.714-6.286 15.714-15.429 6.571-15.714-6.571-6.571-15.714 6.571-15.714 15.714-6.571zM58.857 569.714q24 0 41.143-17.143t17.143-41.143v-245.714q0-24.571-16.857-41.714t-41.429-17.143-41.714 17.143-17.143 41.714v245.714q0 24 17.143 41.143t41.714 17.143zM664.571 558.857v-380.571q0-26.286-18.286-44.571t-44-18.286h-42.857v-129.714q0-24.571-17.143-41.714t-41.714-17.143-41.714 17.143-17.143 41.714v129.714h-78.857v-129.714q0-24.571-17.143-41.714t-41.714-17.143q-24 0-41.143 17.143t-17.143 41.714l-0.571 129.714h-42.286q-26.286 0-44.571 18.286t-18.286 44.571v380.571h524.571zM532 790.286q61.143-31.429 97.714-87.714t36.571-123.143h-528.571q0 66.857 36.571 123.143t98.286 87.714l-40.571 74.857q-4 7.429 2.857 11.429 7.429 3.429 11.429-3.429l41.143-75.429q54.286 24 114.857 24t114.857-24l41.143 75.429q4 6.857 11.429 3.429 6.857-4 2.857-11.429zM804.571 511.428v-245.714q0-24.571-17.143-41.714t-41.714-17.143q-24 0-41.143 17.143t-17.143 41.714v245.714q0 24.571 17.143 41.429t41.143 16.857q24.571 0 41.714-16.857t17.143-41.429z" />
<glyph unicode="&#xf17d;" glyph-name="dribbble" horiz-adv-x="878" d="M585.143 93.714q-24 137.714-80 284.571h-1.143l-1.143-0.571q-9.143-3.429-24.571-9.429t-57.714-28-78.286-46.857-74.857-65.429-58.857-84.571l-8.571 6.286q105.143-85.714 238.857-85.714 75.429 0 146.286 29.714zM479.429 440.571q-12 28-30.286 63.429-177.714-53.143-384.571-53.143-0.571-4-0.571-12 0-70.857 25.143-135.143t70.857-115.143q28.571 50.857 70.571 95.143t81.429 71.143 74.571 46.286 56.857 27.429l21.143 7.429q2.286 0.571 7.429 2t7.429 2.571zM418.286 561.714q-68.571 121.714-139.429 216-78.857-37.143-133.714-106.286t-73.143-155.429q172.571 0 346.286 45.714zM809.143 379.428q-120 34.286-233.714 16.571 49.714-136.571 73.143-268 63.429 42.857 105.714 108.286t54.857 143.143zM349.143 802.857q-0.571 0-1.143-0.571 0.571 0.571 1.143 0.571zM686.286 720q-105.714 93.714-247.429 93.714-43.429 0-88.571-10.857 74.857-97.143 140.571-218.286 39.429 14.857 74.286 34.571t55.143 35.143 37.429 32.571 21.429 23.143zM813.714 442.857q-1.714 132.571-85.143 234.286l-0.571-0.571q-5.143-6.857-10.857-14t-24.857-25.429-40.571-34.571-57.143-37.143-75.143-36.857q14.286-30.286 25.143-54.286 1.143-3.429 3.714-10t4.286-9.429q20.571 2.857 42.571 4t42 1.143 39.429-0.857 36.571-2.286 32.286-3.143 27.429-3.714 20.857-3.429 14.286-2.571zM877.714 438.857q0-119.429-58.857-220.286t-159.714-159.714-220.286-58.857-220.286 58.857-159.714 159.714-58.857 220.286 58.857 220.286 159.714 159.714 220.286 58.857 220.286-58.857 159.714-159.714 58.857-220.286z" />
<glyph unicode="&#xf17e;" glyph-name="skype" horiz-adv-x="878" d="M670.286 343.428q0 28.571-11.143 52.286t-27.714 39.143-41.714 28-47.143 19.429-50 13.143l-59.429 13.714q-17.143 4-25.143 6t-20 6.571-17.143 9.143-9.429 12-4.286 17.143q0 44 82.286 44 24.571 0 44-6.857t30.857-16.286 21.714-19.143 22.857-16.571 27.429-6.857q26.857 0 43.143 18.286t16.286 44q0 31.429-32 56.857t-81.143 38.571-104 13.143q-38.857 0-75.429-8.857t-68.286-26.857-50.857-49.714-19.143-73.429q0-34.857 10.857-60.857t32-43.143 45.714-27.714 58.857-18.571l83.429-20.571q51.429-12.571 64-20.571 18.286-11.429 18.286-34.286 0-22.286-22.857-36.857t-60-14.571q-29.143 0-52.286 9.143t-37.143 22-26 25.714-26.286 22-30.857 9.143q-28.571 0-43.143-17.143t-14.571-42.857q0-52.571 69.714-90t166.286-37.429q41.714 0 80 10.571t70 30.571 50.571 53.429 18.857 75.143zM877.714 219.428q0-90.857-64.286-155.143t-155.143-64.286q-74.286 0-133.714 45.714-44-9.143-85.714-9.143-81.714 0-156.286 31.714t-128.571 85.714-85.714 128.571-31.714 156.286q0 41.714 9.143 85.714-45.714 59.429-45.714 133.714 0 90.857 64.286 155.143t155.143 64.286q74.286 0 133.714-45.714 44 9.143 85.714 9.143 81.714 0 156.286-31.714t128.571-85.714 85.714-128.571 31.714-156.286q0-41.714-9.143-85.714 45.714-59.429 45.714-133.714z" />
<glyph unicode="&#xf180;" glyph-name="foursquare" horiz-adv-x="731" d="M571.429 702.857l21.143 110.857q2.857 13.143-5.143 22.857t-20 9.714h-406.857q-13.143 0-22-9.714t-8.857-21.143v-629.143q0-4 3.429-0.571l166.286 201.143q13.143 14.857 21.714 19.143t27.429 4.286h136.571q12.571 0 21.143 8.286t10.286 16.857q13.714 74.286 21.143 109.143 2.286 12-6.571 22.857t-20.857 10.857h-168q-16.571 0-27.429 10.857t-10.857 27.429v24q0 16.571 10.857 27.143t27.429 10.571h197.714q10.286 0 20 7.714t11.429 16.857zM701.143 829.714q-8.571-41.714-30.571-152.286t-39.714-200-20-99.143q-3.429-12.571-5.143-18.571t-8-18.571-14-18.857-22-12-33.143-5.714h-154.857q-7.429 0-12.571-5.714-4.571-5.143-243.429-282.286-12.571-14.286-33.429-16.286t-27.714 3.143q-31.429 12.571-31.429 56v805.714q0 31.429 21.714 58.571t68.571 27.143h507.429q54.286 0 72.571-30.286t5.714-90.857zM701.143 829.714l-90.286-451.429q2.286 9.714 20 99.143t39.714 200 30.571 152.286z" />
<glyph unicode="&#xf189;" glyph-name="vk" horiz-adv-x="1104" d="M1095.429 653.714q13.143-36.571-85.714-168-13.714-18.286-37.143-48.571-44.571-57.143-51.429-74.857-9.714-23.429 8-46.286 9.714-12 46.286-46.857h0.571l2.286-2.286q80.571-74.857 109.143-126.286 1.714-2.857 3.714-7.143t4-15.143-0.286-19.429-14.286-15.714-33.714-7.143l-146.286-2.286q-13.714-2.857-32 2.857t-29.714 12.571l-11.429 6.857q-17.143 12-40 36.571t-39.143 44.286-34.857 33.143-32.286 8.857q-1.714-0.571-4.571-2t-9.714-8.286-12.286-16.857-9.714-29.714-3.714-44.286q0-8.571-2-15.714t-4.286-10.571l-2.286-2.857q-10.286-10.857-30.286-12.571h-65.714q-40.571-2.286-83.429 9.429t-75.143 30.286-58.857 37.714-40.286 32.857l-14.286 13.714q-5.714 5.714-15.714 17.143t-40.857 52-60.571 86.286-70 120.571-74.571 155.429q-3.429 9.143-3.429 15.429t1.714 9.143l2.286 3.429q8.571 10.857 32.571 10.857l156.571 1.143q6.857-1.143 13.143-3.714t9.143-4.857l2.857-1.714q9.143-6.286 13.714-18.286 11.429-28.571 26.286-59.143t23.429-46.571l9.143-16.571q16.571-34.286 32-59.429t27.714-39.143 23.714-22 19.429-8 15.429 2.857q1.143 0.571 2.857 2.857t6.857 12.571 7.714 26.857 5.429 46.286 0 71.429q-1.143 22.857-5.143 41.714t-8 26.286l-3.429 6.857q-14.286 19.429-48.571 24.571-7.429 1.143 2.857 13.714 9.714 10.857 21.714 17.143 30.286 14.857 136.571 13.714 46.857-0.571 77.143-7.429 11.429-2.857 19.143-7.714t11.714-13.714 6-18.286 2-26-0.571-31.429-1.429-40.286-0.857-47.143q0-6.286-0.571-24t-0.286-27.429 2-23.143 6.571-22.286 12.857-14q4.571-1.143 9.714-2.286t14.857 6.286 21.714 19.714 29.714 38.286 38.857 61.429q34.286 59.429 61.143 128.571 2.286 5.714 5.714 10t6.286 6l2.286 1.714 2.857 1.429t7.429 1.714 11.429 0.286l164.571 1.143q22.286 2.857 36.571-1.429t17.714-9.429z" />
<glyph unicode="&#xf1b4;" glyph-name="behance" horiz-adv-x="1170" d="M1056 757.143h-292v-70.857h292v70.857zM912 513.714q-51.429 0-83.429-30t-35.429-81.429h233.143q-10.286 111.429-114.286 111.429zM921.143 179.428q36 0 69.714 18.286t43.429 49.714h126.286q-57.143-175.429-244-175.429-122.286 0-194.571 75.429t-72.286 198.286q0 118.857 74.571 197.429t192.286 78.571q78.857 0 137.429-38.857t87.429-102.286 28.857-141.714q0-9.714-1.143-26.857h-376q0-63.429 32.857-98t95.143-34.571zM158.286 208h169.143q117.143 0 117.143 95.429 0 102.857-113.714 102.857h-172.571v-198.286zM158.286 514.857h160.571q44.571 0 70.571 20.857t26 64.857q0 82.286-108.571 82.286h-148.571v-168zM0 805.714h339.429q49.714 0 88.571-8t72.286-27.143 51.429-55.143 18-88q0-103.429-98.286-150.286 65.143-18.286 98.286-65.714t33.143-116.571q0-42.857-14-78t-37.714-59.143-56.286-40.571-69.143-24-76.571-7.429h-349.143v720z" />
<glyph unicode="&#xf1b6;" glyph-name="steam" d="M904 618.286q0-57.714-40.857-98.571t-98.571-40.857-98.571 40.857-40.857 98.571 40.857 98.571 98.571 40.857 98.571-40.857 40.857-98.571zM464 194.286q0 59.429-41.714 101.143t-101.143 41.714q-15.429 0-30.857-3.429l59.429-24q44-17.714 62.571-60.857t0.857-86.571q-17.714-44-61.143-62.286t-86.857-0.571q-12 4.571-35.429 14t-34.857 14q18.286-34.286 52-55.143t74.286-20.857q59.429 0 101.143 41.714t41.714 101.143zM938.286 617.714q0 72-51.143 123.143t-123.143 51.143q-72.571 0-123.714-51.143t-51.143-123.143q0-72.571 51.143-123.429t123.714-50.857q72 0 123.143 50.857t51.143 123.429zM1024 617.714q0-108-76.286-184t-183.714-76l-249.714-182.286q-6.857-73.714-62.286-124.571t-130.857-50.857q-69.143 0-122.286 43.429t-67.429 109.714l-131.429 52.571v245.143l222.286-89.714q45.143 27.429 98.857 27.429 7.429 0 20-1.143l162.286 232.571q1.143 106.857 77.429 182.286t183.143 75.429q107.429 0 183.714-76.286t76.286-183.714z" />
<glyph unicode="&#xf1e8;" glyph-name="twitch" d="M512 702.857v-248h-82.857v248h82.857zM739.429 702.857v-248h-82.857v248h82.857zM739.429 268.571l144.571 145.143v454.286h-682.286v-599.429h186.286v-124l124 124h227.429zM966.857 950.857v-578.857l-248-248h-186.286l-124-124h-124v124h-227.429v661.714l62.286 165.143h847.429z" />
<glyph unicode="&#xf262;" glyph-name="tripadvisor" horiz-adv-x="1317" d="M372 381.143q0-22.286-15.714-38t-37.429-15.714q-22.286 0-38 15.714t-15.714 38q0 21.714 15.714 37.429t38 15.714q21.714 0 37.429-15.714t15.714-37.429zM1031.429 381.714q0-22.286-15.714-38t-38-15.714-38 15.714-15.714 38 15.714 37.714 38 15.429 38-15.429 15.714-37.714zM437.143 381.143q0 45.143-32.286 77.714t-78 32.571-78-32.286-32.286-78 32.286-78 78-32.286 78 32.286 32.286 78zM1096 381.714q0 45.714-32.286 78t-78 32.286q-45.143 0-77.714-32.286t-32.571-78 32.286-78 78-32.286 78 32.286 32.286 78zM485.714 381.143q0-66.286-46.571-112.857t-112.286-46.571q-66.286 0-112.857 46.857t-46.571 112.571 46.857 112.286 112.571 46.571 112.286-46.571 46.571-112.286zM1145.143 381.714q0-65.714-46.571-112.286t-112.857-46.571q-65.714 0-112.286 46.571t-46.571 112.286 46.571 112.286 112.286 46.571q66.286 0 112.857-46.571t46.571-112.286zM594.286 380q0 109.143-77.429 186.571t-186.571 77.429q-71.429 0-132-35.429t-96-96.286-35.429-132.286 35.429-132.286 96-96.286 132-35.429q109.143 0 186.571 77.429t77.429 186.571zM976 707.428q-145.143 63.429-317.714 63.429-182.286 0-327.429-62.857 66.857 0 127.429-26t104.286-70 69.714-104.571 26-127.429q0 65.714 24.857 125.429t67.429 103.143 101.429 70.286 124 28.571zM1249.714 380q0 109.143-77.143 186.571t-186.286 77.429-186.571-77.429-77.429-186.571 77.429-186.571 186.571-77.429 186.286 77.429 77.143 186.571zM1097.714 703.428h218.857q-25.143-29.143-42.857-65.429t-22.857-65.429q62.857-86.286 62.857-192.571 0-89.143-44-164.571t-119.429-119.143-164-43.714q-76 0-142.286 32t-112 88.571q-26.857-32-73.714-102.286-6.286 12.571-30.571 47.143t-42.571 55.714q-45.714-56.571-112.286-88.857t-142.571-32.286q-88.571 0-164 43.714t-119.429 119.143-44 164.571q0 106.286 62.857 192.571-5.143 29.143-22.857 65.429t-42.857 65.429h208.571q85.143 57.143 202.857 89.429t246.857 32.286q128 0 240.571-32t198.857-89.714z" />
<glyph unicode="&#xf27d;" glyph-name="vimeo" d="M976.571 654.857q-5.714-134.857-189.714-372-190.286-246.286-321.143-246.286-81.143 0-137.143 150.286-25.143 91.429-75.429 275.429-41.143 149.714-89.714 149.714-10.286 0-72.571-43.429l-44 56q13.714 12 61.714 55.143t74.286 66q89.143 78.857 137.714 83.429 54.286 5.143 87.429-31.714t46.286-116.286q25.143-164 37.714-213.143 31.429-142.286 68.571-142.286 29.143 0 88 92 57.714 92 62.286 140.571 7.429 79.429-62.286 79.429-32.571 0-69.143-14.857 68.571 224.571 262.286 218.286 143.429-4.571 134.857-186.286z" />
</font></defs></svg>